EESchema Schematic File Version 4
LIBS:pbv3_mass_test_adapter_breakout-cache
EELAYER 29 0
EELAYER END
$Descr A4 11693 8268
encoding utf-8
Sheet 4 14
Title ""
Date ""
Rev ""
Comp ""
Comment1 ""
Comment2 ""
Comment3 ""
Comment4 ""
$EndDescr
Wire Bus Line
	4750 3750 4700 3750
Entry Wire Line
	4750 3800 4850 3900
Entry Wire Line
	4750 3900 4850 4000
Entry Wire Line
	4750 4000 4850 4100
Entry Wire Line
	4750 4100 4850 4200
Entry Wire Line
	4750 4200 4850 4300
Entry Wire Line
	4750 4300 4850 4400
Entry Wire Line
	4750 4400 4850 4500
Entry Wire Line
	4750 4500 4850 4600
Entry Wire Line
	4750 4600 4850 4700
Wire Wire Line
	4850 3900 4900 3900
Wire Wire Line
	4850 4000 4900 4000
Wire Wire Line
	4850 4100 4900 4100
Wire Wire Line
	4850 4200 4900 4200
Wire Wire Line
	4850 4300 4900 4300
Wire Wire Line
	4850 4400 4900 4400
Wire Wire Line
	4850 4500 4900 4500
Wire Wire Line
	4850 4600 4900 4600
Wire Wire Line
	4850 4700 4900 4700
Entry Wire Line
	4750 4700 4850 4800
Wire Wire Line
	4850 4800 4900 4800
Text HLabel 4700 3750 0    60   BiDi ~ 0
CMD_P[0..9]
Wire Bus Line
	6250 3750 6200 3750
Entry Wire Line
	6250 3800 6350 3900
Entry Wire Line
	6250 3900 6350 4000
Entry Wire Line
	6250 4000 6350 4100
Entry Wire Line
	6250 4100 6350 4200
Entry Wire Line
	6250 4200 6350 4300
Entry Wire Line
	6250 4300 6350 4400
Entry Wire Line
	6250 4400 6350 4500
Entry Wire Line
	6250 4500 6350 4600
Entry Wire Line
	6250 4600 6350 4700
Wire Wire Line
	6350 3900 6400 3900
Wire Wire Line
	6350 4000 6400 4000
Wire Wire Line
	6350 4100 6400 4100
Wire Wire Line
	6350 4200 6400 4200
Wire Wire Line
	6350 4300 6400 4300
Wire Wire Line
	6350 4400 6400 4400
Wire Wire Line
	6350 4500 6400 4500
Wire Wire Line
	6350 4600 6400 4600
Wire Wire Line
	6350 4700 6400 4700
Entry Wire Line
	6250 4700 6350 4800
Wire Wire Line
	6350 4800 6400 4800
Text Label 4900 3900 0    60   ~ 0
CMD_P0
Text Label 4900 4000 0    60   ~ 0
CMD_P1
Text Label 4900 4100 0    60   ~ 0
CMD_P2
Text Label 4900 4200 0    60   ~ 0
CMD_P3
Text Label 4900 4300 0    60   ~ 0
CMD_P4
Text Label 4900 4400 0    60   ~ 0
CMD_P5
Text Label 4900 4500 0    60   ~ 0
CMD_P6
Text Label 4900 4600 0    60   ~ 0
CMD_P7
Text Label 4900 4700 0    60   ~ 0
CMD_P8
Text Label 4900 4800 0    60   ~ 0
CMD_P9
$Comp
L Device:R R1
U 1 1 5D445A5A
P 4125 2650
F 0 "R1" H 4195 2696 50  0000 L CNN
F 1 "100" H 4195 2605 50  0000 L CNN
F 2 "Resistor_SMD:R_0805_2012Metric" V 4055 2650 50  0001 C CNN
F 3 "~" H 4125 2650 50  0001 C CNN
	1    4125 2650
	1    0    0    -1  
$EndComp
Wire Wire Line
	4025 2500 4125 2500
Connection ~ 4125 2500
Wire Wire Line
	4125 2500 4225 2500
Wire Wire Line
	4025 2800 4125 2800
Connection ~ 4125 2800
Wire Wire Line
	4125 2800 4225 2800
Text Label 4025 2800 2    60   ~ 0
CMD_N0
$Comp
L Device:R R2
U 1 1 5D445A68
P 4125 3100
F 0 "R2" H 4195 3146 50  0000 L CNN
F 1 "100" H 4195 3055 50  0000 L CNN
F 2 "Resistor_SMD:R_0805_2012Metric" V 4055 3100 50  0001 C CNN
F 3 "~" H 4125 3100 50  0001 C CNN
	1    4125 3100
	1    0    0    -1  
$EndComp
Wire Wire Line
	4025 2950 4125 2950
Connection ~ 4125 2950
Wire Wire Line
	4125 2950 4225 2950
Wire Wire Line
	4025 3250 4125 3250
Connection ~ 4125 3250
Wire Wire Line
	4125 3250 4225 3250
Text Label 4025 2950 2    60   ~ 0
CMD_P5
Text Label 4025 3250 2    60   ~ 0
CMD_N5
$Comp
L Device:R R3
U 1 1 5D445A76
P 4925 2650
F 0 "R3" H 4995 2696 50  0000 L CNN
F 1 "100" H 4995 2605 50  0000 L CNN
F 2 "Resistor_SMD:R_0805_2012Metric" V 4855 2650 50  0001 C CNN
F 3 "~" H 4925 2650 50  0001 C CNN
	1    4925 2650
	1    0    0    -1  
$EndComp
Wire Wire Line
	4825 2500 4925 2500
Connection ~ 4925 2500
Wire Wire Line
	4925 2500 5025 2500
Wire Wire Line
	4825 2800 4925 2800
Connection ~ 4925 2800
Wire Wire Line
	4925 2800 5025 2800
Text Label 4825 2500 2    60   ~ 0
CMD_P1
Text Label 4825 2800 2    60   ~ 0
CMD_N1
$Comp
L Device:R R4
U 1 1 5D445A84
P 4925 3100
F 0 "R4" H 4995 3146 50  0000 L CNN
F 1 "100" H 4995 3055 50  0000 L CNN
F 2 "Resistor_SMD:R_0805_2012Metric" V 4855 3100 50  0001 C CNN
F 3 "~" H 4925 3100 50  0001 C CNN
	1    4925 3100
	1    0    0    -1  
$EndComp
Wire Wire Line
	4825 2950 4925 2950
Connection ~ 4925 2950
Wire Wire Line
	4925 2950 5025 2950
Wire Wire Line
	4825 3250 4925 3250
Connection ~ 4925 3250
Wire Wire Line
	4925 3250 5025 3250
Text Label 4825 2950 2    60   ~ 0
CMD_P6
Text Label 4825 3250 2    60   ~ 0
CMD_N6
$Comp
L Device:R R5
U 1 1 5D445A92
P 5725 2650
F 0 "R5" H 5795 2696 50  0000 L CNN
F 1 "100" H 5795 2605 50  0000 L CNN
F 2 "Resistor_SMD:R_0805_2012Metric" V 5655 2650 50  0001 C CNN
F 3 "~" H 5725 2650 50  0001 C CNN
	1    5725 2650
	1    0    0    -1  
$EndComp
Wire Wire Line
	5625 2500 5725 2500
Connection ~ 5725 2500
Wire Wire Line
	5725 2500 5825 2500
Wire Wire Line
	5625 2800 5725 2800
Connection ~ 5725 2800
Wire Wire Line
	5725 2800 5825 2800
Text Label 5625 2500 2    60   ~ 0
CMD_P2
Text Label 5625 2800 2    60   ~ 0
CMD_N2
$Comp
L Device:R R6
U 1 1 5D445AA0
P 5725 3100
F 0 "R6" H 5795 3146 50  0000 L CNN
F 1 "100" H 5795 3055 50  0000 L CNN
F 2 "Resistor_SMD:R_0805_2012Metric" V 5655 3100 50  0001 C CNN
F 3 "~" H 5725 3100 50  0001 C CNN
	1    5725 3100
	1    0    0    -1  
$EndComp
Wire Wire Line
	5625 2950 5725 2950
Connection ~ 5725 2950
Wire Wire Line
	5725 2950 5825 2950
Wire Wire Line
	5625 3250 5725 3250
Connection ~ 5725 3250
Wire Wire Line
	5725 3250 5825 3250
Text Label 5625 2950 2    60   ~ 0
CMD_P7
Text Label 5625 3250 2    60   ~ 0
CMD_N7
$Comp
L Device:R R7
U 1 1 5D445AAE
P 6525 2650
F 0 "R7" H 6595 2696 50  0000 L CNN
F 1 "100" H 6595 2605 50  0000 L CNN
F 2 "Resistor_SMD:R_0805_2012Metric" V 6455 2650 50  0001 C CNN
F 3 "~" H 6525 2650 50  0001 C CNN
	1    6525 2650
	1    0    0    -1  
$EndComp
Wire Wire Line
	6425 2500 6525 2500
Connection ~ 6525 2500
Wire Wire Line
	6525 2500 6625 2500
Wire Wire Line
	6425 2800 6525 2800
Connection ~ 6525 2800
Wire Wire Line
	6525 2800 6625 2800
Text Label 6425 2500 2    60   ~ 0
CMD_P3
Text Label 6425 2800 2    60   ~ 0
CMD_N3
$Comp
L Device:R R8
U 1 1 5D445ABC
P 6525 3100
F 0 "R8" H 6595 3146 50  0000 L CNN
F 1 "100" H 6595 3055 50  0000 L CNN
F 2 "Resistor_SMD:R_0805_2012Metric" V 6455 3100 50  0001 C CNN
F 3 "~" H 6525 3100 50  0001 C CNN
	1    6525 3100
	1    0    0    -1  
$EndComp
Wire Wire Line
	6425 2950 6525 2950
Connection ~ 6525 2950
Wire Wire Line
	6525 2950 6625 2950
Wire Wire Line
	6425 3250 6525 3250
Connection ~ 6525 3250
Wire Wire Line
	6525 3250 6625 3250
Text Label 6425 2950 2    60   ~ 0
CMD_P8
Text Label 6425 3250 2    60   ~ 0
CMD_N8
$Comp
L Device:R R9
U 1 1 5D445ACA
P 7325 2650
F 0 "R9" H 7395 2696 50  0000 L CNN
F 1 "100" H 7395 2605 50  0000 L CNN
F 2 "Resistor_SMD:R_0805_2012Metric" V 7255 2650 50  0001 C CNN
F 3 "~" H 7325 2650 50  0001 C CNN
	1    7325 2650
	1    0    0    -1  
$EndComp
Wire Wire Line
	7225 2500 7325 2500
Connection ~ 7325 2500
Wire Wire Line
	7325 2500 7425 2500
Wire Wire Line
	7225 2800 7325 2800
Connection ~ 7325 2800
Wire Wire Line
	7325 2800 7425 2800
Text Label 7225 2500 2    60   ~ 0
CMD_P4
Text Label 7225 2800 2    60   ~ 0
CMD_N4
$Comp
L Device:R R10
U 1 1 5D445AD8
P 7325 3100
F 0 "R10" H 7395 3146 50  0000 L CNN
F 1 "100" H 7395 3055 50  0000 L CNN
F 2 "Resistor_SMD:R_0805_2012Metric" V 7255 3100 50  0001 C CNN
F 3 "~" H 7325 3100 50  0001 C CNN
	1    7325 3100
	1    0    0    -1  
$EndComp
Wire Wire Line
	7225 2950 7325 2950
Connection ~ 7325 2950
Wire Wire Line
	7325 2950 7425 2950
Wire Wire Line
	7225 3250 7325 3250
Connection ~ 7325 3250
Wire Wire Line
	7325 3250 7425 3250
Text Label 7225 2950 2    60   ~ 0
CMD_P9
Text Label 7225 3250 2    60   ~ 0
CMD_N9
Text Label 6400 3900 0    60   ~ 0
CMD_N0
Text Label 6400 4000 0    60   ~ 0
CMD_N1
Text Label 6400 4100 0    60   ~ 0
CMD_N2
Text Label 6400 4200 0    60   ~ 0
CMD_N3
Text Label 6400 4300 0    60   ~ 0
CMD_N4
Text Label 6400 4400 0    60   ~ 0
CMD_N5
Text Label 6400 4500 0    60   ~ 0
CMD_N6
Text Label 6400 4600 0    60   ~ 0
CMD_N7
Text Label 6400 4700 0    60   ~ 0
CMD_N8
Text Label 6400 4800 0    60   ~ 0
CMD_N9
Text HLabel 6200 3750 0    60   BiDi ~ 0
CMD_N[0..9]
Text Label 4025 2500 2    60   ~ 0
CMD_P0
Wire Bus Line
	4750 3750 4750 4700
Wire Bus Line
	6250 3750 6250 4700
$EndSCHEMATC
