EESchema Schematic File Version 4
LIBS:pbv3_test_adapter_massive-cache
EELAYER 29 0
EELAYER END
$Descr A4 11693 8268
encoding utf-8
Sheet 3 12
Title ""
Date ""
Rev ""
Comp ""
Comment1 ""
Comment2 ""
Comment3 ""
Comment4 ""
$EndDescr
$Comp
L Interface_Expansion:MCP23017_SO U22
U 1 1 5C00B436
P 3300 2500
F 0 "U22" H 3700 3450 50  0000 C CNN
F 1 "MCP23017_SO" H 2950 3450 50  0000 C CNN
F 2 "Package_SO:SOIC-28W_7.5x17.9mm_P1.27mm" H 3500 1500 50  0001 L CNN
F 3 "http://ww1.microchip.com/downloads/en/DeviceDoc/20001952C.pdf" H 3500 1400 50  0001 L CNN
F 4 "MCP23017T-E/SO" H 3300 2500 50  0001 C CNN "mfg#"
	1    3300 2500
	1    0    0    -1  
$EndComp
$Comp
L Interface_Expansion:MCP23017_SO U23
U 1 1 5C00B555
P 5950 2500
F 0 "U23" H 6350 3450 50  0000 C CNN
F 1 "MCP23017_SO" H 5600 3450 50  0000 C CNN
F 2 "Package_SO:SOIC-28W_7.5x17.9mm_P1.27mm" H 6150 1500 50  0001 L CNN
F 3 "http://ww1.microchip.com/downloads/en/DeviceDoc/20001952C.pdf" H 6150 1400 50  0001 L CNN
	1    5950 2500
	1    0    0    -1  
$EndComp
Text HLabel 1150 600  0    50   Input ~ 0
I2C_SDA
Text HLabel 1150 700  0    50   Input ~ 0
I2C_SCL
Text Label 2600 1700 2    50   ~ 0
I2C_SDA
Text Label 2600 1800 2    50   ~ 0
I2C_SCL
Text Label 5250 1700 2    50   ~ 0
I2C_SDA
Text Label 5250 1800 2    50   ~ 0
I2C_SCL
Text Label 4000 2600 0    50   ~ 0
OUT_EN0
Text Label 4000 2700 0    50   ~ 0
OUT_EN1
Text Label 4000 1700 0    50   ~ 0
OUT_EN2
Text Label 4000 1800 0    50   ~ 0
OUT_EN3
Text Label 4000 1900 0    50   ~ 0
OUT_EN4
Text Label 4000 2000 0    50   ~ 0
OUT_EN5
Text Label 4000 2100 0    50   ~ 0
OUT_EN6
Text Label 4000 2200 0    50   ~ 0
OUT_EN7
Text Label 4000 2300 0    50   ~ 0
OUT_EN8
Text Label 4000 2400 0    50   ~ 0
OUT_EN9
Text Label 4000 3000 0    50   ~ 0
OUT_SEL0
Text Label 4000 3100 0    50   ~ 0
OUT_SEL1
Text Label 4000 3200 0    50   ~ 0
OUT_SEL2
Text Label 4000 3300 0    50   ~ 0
OUT_SEL3
NoConn ~ 4000 2800
NoConn ~ 4000 2900
Text Label 6650 2600 0    50   ~ 0
OFin0
Text Label 6650 2700 0    50   ~ 0
OFin1
Text Label 6650 1700 0    50   ~ 0
OFin2
Text Label 6650 1800 0    50   ~ 0
OFin3
Text Label 6650 1900 0    50   ~ 0
OFin4
Text Label 6650 2000 0    50   ~ 0
OFin5
Text Label 6650 2100 0    50   ~ 0
OFin6
Text Label 6650 2200 0    50   ~ 0
OFin7
Text Label 6650 2300 0    50   ~ 0
OFin8
Text Label 6650 2400 0    50   ~ 0
OFin9
NoConn ~ 6650 2800
NoConn ~ 6650 2900
NoConn ~ 2600 2300
NoConn ~ 2600 2400
NoConn ~ 5250 2300
NoConn ~ 5250 2400
$Comp
L Device:R R51
U 1 1 5C00E507
P 2350 2450
F 0 "R51" H 2420 2496 50  0000 L CNN
F 1 "10k" H 2420 2405 50  0000 L CNN
F 2 "Resistor_SMD:R_0805_2012Metric" V 2280 2450 50  0001 C CNN
F 3 "~" H 2350 2450 50  0001 C CNN
F 4 "CRCW080510K0FKEA" H 2350 2450 50  0001 C CNN "mfg#"
	1    2350 2450
	1    0    0    -1  
$EndComp
Wire Wire Line
	2600 2600 2350 2600
$Comp
L power:+3V3 #PWR0161
U 1 1 5C00E597
P 2350 2250
F 0 "#PWR0161" H 2350 2100 50  0001 C CNN
F 1 "+3V3" H 2365 2423 50  0000 C CNN
F 2 "" H 2350 2250 50  0001 C CNN
F 3 "" H 2350 2250 50  0001 C CNN
	1    2350 2250
	1    0    0    -1  
$EndComp
Wire Wire Line
	2350 2250 2350 2300
$Comp
L Device:R R53
U 1 1 5C00E693
P 5000 2450
F 0 "R53" H 5070 2496 50  0000 L CNN
F 1 "10k" H 5070 2405 50  0000 L CNN
F 2 "Resistor_SMD:R_0805_2012Metric" V 4930 2450 50  0001 C CNN
F 3 "~" H 5000 2450 50  0001 C CNN
	1    5000 2450
	1    0    0    -1  
$EndComp
Wire Wire Line
	5250 2600 5000 2600
$Comp
L power:+3V3 #PWR0162
U 1 1 5C00E69A
P 5000 2250
F 0 "#PWR0162" H 5000 2100 50  0001 C CNN
F 1 "+3V3" H 5015 2423 50  0000 C CNN
F 2 "" H 5000 2250 50  0001 C CNN
F 3 "" H 5000 2250 50  0001 C CNN
	1    5000 2250
	1    0    0    -1  
$EndComp
Wire Wire Line
	5000 2250 5000 2300
Wire Wire Line
	3300 3650 3300 3600
Wire Wire Line
	5950 3650 5950 3600
Wire Wire Line
	5200 3400 5200 3200
Wire Wire Line
	5200 3100 5250 3100
Wire Wire Line
	5250 3200 5200 3200
Connection ~ 5200 3200
Wire Wire Line
	5200 3200 5200 3100
Wire Wire Line
	2600 3100 2550 3100
Wire Wire Line
	2550 3100 2550 3200
Wire Wire Line
	2600 3300 2550 3300
Wire Wire Line
	2550 3300 2550 3400
Connection ~ 2550 3300
Wire Wire Line
	2600 3200 2550 3200
Connection ~ 2550 3200
Wire Wire Line
	2550 3200 2550 3300
Entry Wire Line
	5800 4200 5900 4300
Entry Wire Line
	5800 4300 5900 4400
Entry Wire Line
	5800 4400 5900 4500
Entry Wire Line
	5800 4500 5900 4600
Entry Wire Line
	5800 4600 5900 4700
Entry Wire Line
	5800 4700 5900 4800
Entry Wire Line
	5800 4800 5900 4900
Entry Wire Line
	5800 4900 5900 5000
Entry Wire Line
	5800 5000 5900 5100
Entry Wire Line
	5800 5100 5900 5200
Text Label 5700 4200 2    50   ~ 0
OFin0
Text Label 5700 4300 2    50   ~ 0
OFin1
Text Label 5700 4400 2    50   ~ 0
OFin2
Text Label 5700 4500 2    50   ~ 0
OFin3
Text Label 5700 4600 2    50   ~ 0
OFin4
Text Label 5700 4700 2    50   ~ 0
OFin5
Text Label 5700 4800 2    50   ~ 0
OFin6
Text Label 5700 4900 2    50   ~ 0
OFin7
Text Label 5700 5000 2    50   ~ 0
OFin8
Text Label 5700 5100 2    50   ~ 0
OFin9
Wire Wire Line
	5700 4200 5800 4200
Wire Wire Line
	5700 4300 5800 4300
Wire Wire Line
	5700 4400 5800 4400
Wire Wire Line
	5700 4500 5800 4500
Wire Wire Line
	5700 4600 5800 4600
Wire Wire Line
	5700 4700 5800 4700
Wire Wire Line
	5700 4800 5800 4800
Wire Wire Line
	5700 4900 5800 4900
Wire Wire Line
	5700 5000 5800 5000
Wire Wire Line
	5700 5100 5800 5100
Entry Wire Line
	2600 4200 2700 4300
Entry Wire Line
	2600 4300 2700 4400
Entry Wire Line
	2600 4400 2700 4500
Entry Wire Line
	2600 4500 2700 4600
Entry Wire Line
	2600 4600 2700 4700
Entry Wire Line
	2600 4700 2700 4800
Entry Wire Line
	2600 4800 2700 4900
Entry Wire Line
	2600 4900 2700 5000
Entry Wire Line
	2600 5000 2700 5100
Entry Wire Line
	2600 5100 2700 5200
Wire Wire Line
	2500 4200 2600 4200
Wire Wire Line
	2500 4300 2600 4300
Wire Wire Line
	2500 4400 2600 4400
Wire Wire Line
	2500 4500 2600 4500
Wire Wire Line
	2500 4600 2600 4600
Wire Wire Line
	2500 4700 2600 4700
Wire Wire Line
	2500 4800 2600 4800
Wire Wire Line
	2500 4900 2600 4900
Wire Wire Line
	2500 5000 2600 5000
Wire Wire Line
	2500 5100 2600 5100
Text Label 2500 4200 2    50   ~ 0
OUT_EN0
Text Label 2500 4300 2    50   ~ 0
OUT_EN1
Text Label 2500 4400 2    50   ~ 0
OUT_EN2
Text Label 2500 4500 2    50   ~ 0
OUT_EN3
Text Label 2500 4600 2    50   ~ 0
OUT_EN4
Text Label 2500 4700 2    50   ~ 0
OUT_EN5
Text Label 2500 4800 2    50   ~ 0
OUT_EN6
Text Label 2500 4900 2    50   ~ 0
OUT_EN7
Text Label 2500 5000 2    50   ~ 0
OUT_EN8
Text Label 2500 5100 2    50   ~ 0
OUT_EN9
Text HLabel 2700 5300 2    50   Output ~ 0
OUT_EN[9..0]
Text HLabel 5900 5300 2    50   Output ~ 0
OFin[9..0]
Entry Wire Line
	3800 4200 3900 4300
Entry Wire Line
	3800 4300 3900 4400
Entry Wire Line
	3800 4400 3900 4500
Entry Wire Line
	3800 4500 3900 4600
Wire Wire Line
	3700 4200 3800 4200
Wire Wire Line
	3700 4300 3800 4300
Wire Wire Line
	3700 4400 3800 4400
Wire Wire Line
	3700 4500 3800 4500
Text HLabel 3900 4700 2    50   Output ~ 0
OUT_SEL[3..0]
Text Label 3700 4200 2    50   ~ 0
OUT_SEL0
Text Label 3700 4300 2    50   ~ 0
OUT_SEL1
Text Label 3700 4400 2    50   ~ 0
OUT_SEL2
Text Label 3700 4500 2    50   ~ 0
OUT_SEL3
$Comp
L power:GNDPWR #PWR0164
U 1 1 5C01816D
P 2550 3400
F 0 "#PWR0164" H 2550 3200 50  0001 C CNN
F 1 "GNDPWR" H 2554 3246 50  0000 C CNN
F 2 "" H 2550 3350 50  0001 C CNN
F 3 "" H 2550 3350 50  0001 C CNN
	1    2550 3400
	1    0    0    -1  
$EndComp
$Comp
L power:GNDPWR #PWR0165
U 1 1 5C0181B8
P 3300 3650
F 0 "#PWR0165" H 3300 3450 50  0001 C CNN
F 1 "GNDPWR" H 3304 3496 50  0000 C CNN
F 2 "" H 3300 3600 50  0001 C CNN
F 3 "" H 3300 3600 50  0001 C CNN
	1    3300 3650
	1    0    0    -1  
$EndComp
$Comp
L power:GNDPWR #PWR0166
U 1 1 5C0181E9
P 5950 3650
F 0 "#PWR0166" H 5950 3450 50  0001 C CNN
F 1 "GNDPWR" H 5954 3496 50  0000 C CNN
F 2 "" H 5950 3600 50  0001 C CNN
F 3 "" H 5950 3600 50  0001 C CNN
	1    5950 3650
	1    0    0    -1  
$EndComp
$Comp
L power:GNDPWR #PWR0167
U 1 1 5C01821A
P 5200 3400
F 0 "#PWR0167" H 5200 3200 50  0001 C CNN
F 1 "GNDPWR" H 5204 3246 50  0000 C CNN
F 2 "" H 5200 3350 50  0001 C CNN
F 3 "" H 5200 3350 50  0001 C CNN
	1    5200 3400
	1    0    0    -1  
$EndComp
$Comp
L power:+3V3 #PWR0168
U 1 1 5C020909
P 3300 1350
F 0 "#PWR0168" H 3300 1200 50  0001 C CNN
F 1 "+3V3" H 3315 1523 50  0000 C CNN
F 2 "" H 3300 1350 50  0001 C CNN
F 3 "" H 3300 1350 50  0001 C CNN
	1    3300 1350
	1    0    0    -1  
$EndComp
Wire Wire Line
	3300 1350 3300 1400
$Comp
L power:+3V3 #PWR0169
U 1 1 5C022620
P 5950 1350
F 0 "#PWR0169" H 5950 1200 50  0001 C CNN
F 1 "+3V3" H 5965 1523 50  0000 C CNN
F 2 "" H 5950 1350 50  0001 C CNN
F 3 "" H 5950 1350 50  0001 C CNN
	1    5950 1350
	1    0    0    -1  
$EndComp
Wire Wire Line
	5950 1350 5950 1400
$Comp
L power:+3V3 #PWR?
U 1 1 5C036C09
P 2600 750
AR Path="/5C020D45/5C036C09" Ref="#PWR?"  Part="1" 
AR Path="/5C05860C/5C036C09" Ref="#PWR?"  Part="1" 
AR Path="/5C05AC9E/5C036C09" Ref="#PWR?"  Part="1" 
AR Path="/5C05D338/5C036C09" Ref="#PWR?"  Part="1" 
AR Path="/5C05D354/5C036C09" Ref="#PWR?"  Part="1" 
AR Path="/5C05F9F6/5C036C09" Ref="#PWR?"  Part="1" 
AR Path="/5C0620A6/5C036C09" Ref="#PWR?"  Part="1" 
AR Path="/5C0620C2/5C036C09" Ref="#PWR?"  Part="1" 
AR Path="/5C0620DE/5C036C09" Ref="#PWR?"  Part="1" 
AR Path="/5C0620FA/5C036C09" Ref="#PWR?"  Part="1" 
AR Path="/5C062116/5C036C09" Ref="#PWR?"  Part="1" 
AR Path="/5C00B38E/5C036C09" Ref="#PWR0170"  Part="1" 
F 0 "#PWR0170" H 2600 600 50  0001 C CNN
F 1 "+3V3" H 2615 923 50  0000 C CNN
F 2 "" H 2600 750 50  0001 C CNN
F 3 "" H 2600 750 50  0001 C CNN
	1    2600 750 
	1    0    0    -1  
$EndComp
$Comp
L Device:C C?
U 1 1 5C036C0F
P 2600 950
AR Path="/5C020D45/5C036C0F" Ref="C?"  Part="1" 
AR Path="/5C05860C/5C036C0F" Ref="C?"  Part="1" 
AR Path="/5C05AC9E/5C036C0F" Ref="C?"  Part="1" 
AR Path="/5C05D338/5C036C0F" Ref="C?"  Part="1" 
AR Path="/5C05D354/5C036C0F" Ref="C?"  Part="1" 
AR Path="/5C05F9F6/5C036C0F" Ref="C?"  Part="1" 
AR Path="/5C0620A6/5C036C0F" Ref="C?"  Part="1" 
AR Path="/5C0620C2/5C036C0F" Ref="C?"  Part="1" 
AR Path="/5C0620DE/5C036C0F" Ref="C?"  Part="1" 
AR Path="/5C0620FA/5C036C0F" Ref="C?"  Part="1" 
AR Path="/5C062116/5C036C0F" Ref="C?"  Part="1" 
AR Path="/5C00B38E/5C036C0F" Ref="C11"  Part="1" 
F 0 "C11" H 2715 996 50  0000 L CNN
F 1 "0.1uF" H 2715 905 50  0000 L CNN
F 2 "Capacitor_SMD:C_0805_2012Metric" H 2638 800 50  0001 C CNN
F 3 "http://www.yageo.com/documents/recent/UPY-GPHC_Y5V_6.3V-to-50V_8.pdf" H 2600 950 50  0001 C CNN
	1    2600 950 
	1    0    0    -1  
$EndComp
Wire Wire Line
	2600 800  2600 750 
Wire Wire Line
	2600 1150 2600 1100
$Comp
L power:GNDPWR #PWR?
U 1 1 5C036C18
P 2600 1150
AR Path="/5C020D45/5C036C18" Ref="#PWR?"  Part="1" 
AR Path="/5C00B38E/5C036C18" Ref="#PWR0171"  Part="1" 
F 0 "#PWR0171" H 2600 950 50  0001 C CNN
F 1 "GNDPWR" H 2604 996 50  0000 C CNN
F 2 "" H 2600 1100 50  0001 C CNN
F 3 "" H 2600 1100 50  0001 C CNN
	1    2600 1150
	1    0    0    -1  
$EndComp
$Comp
L power:+3V3 #PWR?
U 1 1 5C037AC3
P 5250 750
AR Path="/5C020D45/5C037AC3" Ref="#PWR?"  Part="1" 
AR Path="/5C05860C/5C037AC3" Ref="#PWR?"  Part="1" 
AR Path="/5C05AC9E/5C037AC3" Ref="#PWR?"  Part="1" 
AR Path="/5C05D338/5C037AC3" Ref="#PWR?"  Part="1" 
AR Path="/5C05D354/5C037AC3" Ref="#PWR?"  Part="1" 
AR Path="/5C05F9F6/5C037AC3" Ref="#PWR?"  Part="1" 
AR Path="/5C0620A6/5C037AC3" Ref="#PWR?"  Part="1" 
AR Path="/5C0620C2/5C037AC3" Ref="#PWR?"  Part="1" 
AR Path="/5C0620DE/5C037AC3" Ref="#PWR?"  Part="1" 
AR Path="/5C0620FA/5C037AC3" Ref="#PWR?"  Part="1" 
AR Path="/5C062116/5C037AC3" Ref="#PWR?"  Part="1" 
AR Path="/5C00B38E/5C037AC3" Ref="#PWR0172"  Part="1" 
F 0 "#PWR0172" H 5250 600 50  0001 C CNN
F 1 "+3V3" H 5265 923 50  0000 C CNN
F 2 "" H 5250 750 50  0001 C CNN
F 3 "" H 5250 750 50  0001 C CNN
	1    5250 750 
	1    0    0    -1  
$EndComp
$Comp
L Device:C C?
U 1 1 5C037AC9
P 5250 950
AR Path="/5C020D45/5C037AC9" Ref="C?"  Part="1" 
AR Path="/5C05860C/5C037AC9" Ref="C?"  Part="1" 
AR Path="/5C05AC9E/5C037AC9" Ref="C?"  Part="1" 
AR Path="/5C05D338/5C037AC9" Ref="C?"  Part="1" 
AR Path="/5C05D354/5C037AC9" Ref="C?"  Part="1" 
AR Path="/5C05F9F6/5C037AC9" Ref="C?"  Part="1" 
AR Path="/5C0620A6/5C037AC9" Ref="C?"  Part="1" 
AR Path="/5C0620C2/5C037AC9" Ref="C?"  Part="1" 
AR Path="/5C0620DE/5C037AC9" Ref="C?"  Part="1" 
AR Path="/5C0620FA/5C037AC9" Ref="C?"  Part="1" 
AR Path="/5C062116/5C037AC9" Ref="C?"  Part="1" 
AR Path="/5C00B38E/5C037AC9" Ref="C12"  Part="1" 
F 0 "C12" H 5365 996 50  0000 L CNN
F 1 "0.1uF" H 5365 905 50  0000 L CNN
F 2 "Capacitor_SMD:C_0805_2012Metric" H 5288 800 50  0001 C CNN
F 3 "http://www.yageo.com/documents/recent/UPY-GPHC_Y5V_6.3V-to-50V_8.pdf" H 5250 950 50  0001 C CNN
	1    5250 950 
	1    0    0    -1  
$EndComp
Wire Wire Line
	5250 800  5250 750 
Wire Wire Line
	5250 1150 5250 1100
$Comp
L power:GNDPWR #PWR?
U 1 1 5C037AD2
P 5250 1150
AR Path="/5C020D45/5C037AD2" Ref="#PWR?"  Part="1" 
AR Path="/5C00B38E/5C037AD2" Ref="#PWR0173"  Part="1" 
F 0 "#PWR0173" H 5250 950 50  0001 C CNN
F 1 "GNDPWR" H 5254 996 50  0000 C CNN
F 2 "" H 5250 1100 50  0001 C CNN
F 3 "" H 5250 1100 50  0001 C CNN
	1    5250 1150
	1    0    0    -1  
$EndComp
Entry Wire Line
	7050 3000 7150 3100
Entry Wire Line
	7050 3100 7150 3200
Entry Wire Line
	7050 3200 7150 3300
Entry Wire Line
	7050 3300 7150 3400
Text HLabel 7200 3500 2    50   Output ~ 0
RTN_SEL[0..3]
Text Label 6650 3000 0    50   ~ 0
RTN_SEL0
Text Label 6650 3100 0    50   ~ 0
RTN_SEL1
Text Label 6650 3200 0    50   ~ 0
RTN_SEL2
Text Label 6650 3300 0    50   ~ 0
RTN_SEL3
Wire Bus Line
	7200 3500 7150 3500
Wire Wire Line
	6650 3000 7050 3000
Wire Wire Line
	6650 3100 7050 3100
Wire Wire Line
	6650 3200 7050 3200
Wire Wire Line
	6650 3300 7050 3300
Wire Wire Line
	5000 2600 5000 3300
Connection ~ 5000 2600
Wire Wire Line
	5000 3300 5250 3300
Wire Bus Line
	3900 4300 3900 4700
Wire Bus Line
	7150 3100 7150 3500
Wire Bus Line
	2700 4300 2700 5300
Wire Bus Line
	5900 4300 5900 5300
$EndSCHEMATC
