EESchema Schematic File Version 4
LIBS:pbv3_mass_test_adapter_active-cache
EELAYER 29 0
EELAYER END
$Descr A4 11693 8268
encoding utf-8
Sheet 16 26
Title ""
Date ""
Rev ""
Comp ""
Comment1 ""
Comment2 ""
Comment3 ""
Comment4 ""
$EndDescr
$Comp
L lbl_amp:INA826 U701
U 1 1 5D2B3A7F
P 4600 2300
AR Path="/59CA64BD/5D2B3732/5D2B3A7F" Ref="U701"  Part="1" 
AR Path="/59CA64BD/5D2FFAC6/5D2B3A7F" Ref="U801"  Part="1" 
AR Path="/59CA64BD/5D308745/5D2B3A7F" Ref="U901"  Part="1" 
AR Path="/59CA64BD/5D308754/5D2B3A7F" Ref="U1001"  Part="1" 
AR Path="/59CA64BD/5D3135E3/5D2B3A7F" Ref="U1101"  Part="1" 
AR Path="/59CA64BD/5D3377CB/5D2B3A7F" Ref="U1201"  Part="1" 
AR Path="/59CA64BD/5D3377DA/5D2B3A7F" Ref="U1301"  Part="1" 
AR Path="/59CA64BD/5D3377E9/5D2B3A7F" Ref="U1401"  Part="1" 
AR Path="/59CA64BD/5D3377F2/5D2B3A7F" Ref="U1501"  Part="1" 
AR Path="/59CA64BD/5D337807/5D2B3A7F" Ref="U1601"  Part="1" 
F 0 "U701" H 4925 2025 50  0000 L CNN
F 1 "INA826" H 4925 1925 50  0000 L CNN
F 2 "Package_SO:SOIC-8_3.9x4.9mm_P1.27mm" H 4300 2300 50  0001 C CNN
F 3 "https://www.ti.com/lit/ds/symlink/ina826.pdf" H 4950 1900 50  0001 C CNN
F 4 "INA826AIDR" H 4600 2300 50  0001 C CNN "mfg#"
	1    4600 2300
	1    0    0    -1  
$EndComp
$Comp
L Device:C C701
U 1 1 5D2B5A5E
P 4975 1600
AR Path="/59CA64BD/5D2B3732/5D2B5A5E" Ref="C701"  Part="1" 
AR Path="/59CA64BD/5D2FFAC6/5D2B5A5E" Ref="C801"  Part="1" 
AR Path="/59CA64BD/5D308745/5D2B5A5E" Ref="C901"  Part="1" 
AR Path="/59CA64BD/5D308754/5D2B5A5E" Ref="C1001"  Part="1" 
AR Path="/59CA64BD/5D3135E3/5D2B5A5E" Ref="C1101"  Part="1" 
AR Path="/59CA64BD/5D3377CB/5D2B5A5E" Ref="C1201"  Part="1" 
AR Path="/59CA64BD/5D3377DA/5D2B5A5E" Ref="C1301"  Part="1" 
AR Path="/59CA64BD/5D3377E9/5D2B5A5E" Ref="C1401"  Part="1" 
AR Path="/59CA64BD/5D3377F2/5D2B5A5E" Ref="C1501"  Part="1" 
AR Path="/59CA64BD/5D337807/5D2B5A5E" Ref="C1601"  Part="1" 
F 0 "C701" H 5090 1646 50  0000 L CNN
F 1 "0.1uF" H 5090 1555 50  0000 L CNN
F 2 "Capacitor_SMD:C_0805_2012Metric" H 5013 1450 50  0001 C CNN
F 3 "~" H 4975 1600 50  0001 C CNN
	1    4975 1600
	1    0    0    -1  
$EndComp
$Comp
L power:+5V #PWR0701
U 1 1 5D2B5FB7
P 4500 1950
AR Path="/59CA64BD/5D2B3732/5D2B5FB7" Ref="#PWR0701"  Part="1" 
AR Path="/59CA64BD/5D2FFAC6/5D2B5FB7" Ref="#PWR0801"  Part="1" 
AR Path="/59CA64BD/5D308745/5D2B5FB7" Ref="#PWR0901"  Part="1" 
AR Path="/59CA64BD/5D308754/5D2B5FB7" Ref="#PWR01001"  Part="1" 
AR Path="/59CA64BD/5D3135E3/5D2B5FB7" Ref="#PWR01101"  Part="1" 
AR Path="/59CA64BD/5D3377CB/5D2B5FB7" Ref="#PWR01201"  Part="1" 
AR Path="/59CA64BD/5D3377DA/5D2B5FB7" Ref="#PWR01301"  Part="1" 
AR Path="/59CA64BD/5D3377E9/5D2B5FB7" Ref="#PWR01401"  Part="1" 
AR Path="/59CA64BD/5D3377F2/5D2B5FB7" Ref="#PWR01501"  Part="1" 
AR Path="/59CA64BD/5D337807/5D2B5FB7" Ref="#PWR01601"  Part="1" 
F 0 "#PWR01601" H 4500 1800 50  0001 C CNN
F 1 "+5V" H 4515 2123 50  0000 C CNN
F 2 "" H 4500 1950 50  0001 C CNN
F 3 "" H 4500 1950 50  0001 C CNN
	1    4500 1950
	1    0    0    -1  
$EndComp
$Comp
L power:-5V #PWR0702
U 1 1 5D2B66B6
P 4500 2650
AR Path="/59CA64BD/5D2B3732/5D2B66B6" Ref="#PWR0702"  Part="1" 
AR Path="/59CA64BD/5D2FFAC6/5D2B66B6" Ref="#PWR0802"  Part="1" 
AR Path="/59CA64BD/5D308745/5D2B66B6" Ref="#PWR0902"  Part="1" 
AR Path="/59CA64BD/5D308754/5D2B66B6" Ref="#PWR01002"  Part="1" 
AR Path="/59CA64BD/5D3135E3/5D2B66B6" Ref="#PWR01102"  Part="1" 
AR Path="/59CA64BD/5D3377CB/5D2B66B6" Ref="#PWR01202"  Part="1" 
AR Path="/59CA64BD/5D3377DA/5D2B66B6" Ref="#PWR01302"  Part="1" 
AR Path="/59CA64BD/5D3377E9/5D2B66B6" Ref="#PWR01402"  Part="1" 
AR Path="/59CA64BD/5D3377F2/5D2B66B6" Ref="#PWR01502"  Part="1" 
AR Path="/59CA64BD/5D337807/5D2B66B6" Ref="#PWR01602"  Part="1" 
F 0 "#PWR01602" H 4500 2750 50  0001 C CNN
F 1 "-5V" H 4515 2823 50  0000 C CNN
F 2 "" H 4500 2650 50  0001 C CNN
F 3 "" H 4500 2650 50  0001 C CNN
	1    4500 2650
	-1   0    0    1   
$EndComp
Wire Wire Line
	4500 2650 4500 2600
Wire Wire Line
	4500 2000 4500 1950
$Comp
L power:+5V #PWR0704
U 1 1 5D2B75DE
P 4975 1400
AR Path="/59CA64BD/5D2B3732/5D2B75DE" Ref="#PWR0704"  Part="1" 
AR Path="/59CA64BD/5D2FFAC6/5D2B75DE" Ref="#PWR0804"  Part="1" 
AR Path="/59CA64BD/5D308745/5D2B75DE" Ref="#PWR0904"  Part="1" 
AR Path="/59CA64BD/5D308754/5D2B75DE" Ref="#PWR01004"  Part="1" 
AR Path="/59CA64BD/5D3135E3/5D2B75DE" Ref="#PWR01104"  Part="1" 
AR Path="/59CA64BD/5D3377CB/5D2B75DE" Ref="#PWR01204"  Part="1" 
AR Path="/59CA64BD/5D3377DA/5D2B75DE" Ref="#PWR01304"  Part="1" 
AR Path="/59CA64BD/5D3377E9/5D2B75DE" Ref="#PWR01404"  Part="1" 
AR Path="/59CA64BD/5D3377F2/5D2B75DE" Ref="#PWR01504"  Part="1" 
AR Path="/59CA64BD/5D337807/5D2B75DE" Ref="#PWR01604"  Part="1" 
F 0 "#PWR01604" H 4975 1250 50  0001 C CNN
F 1 "+5V" H 4990 1573 50  0000 C CNN
F 2 "" H 4975 1400 50  0001 C CNN
F 3 "" H 4975 1400 50  0001 C CNN
	1    4975 1400
	1    0    0    -1  
$EndComp
Wire Wire Line
	4975 1450 4975 1400
$Comp
L power:GND #PWR0705
U 1 1 5D2B8DC0
P 4975 1800
AR Path="/59CA64BD/5D2B3732/5D2B8DC0" Ref="#PWR0705"  Part="1" 
AR Path="/59CA64BD/5D2FFAC6/5D2B8DC0" Ref="#PWR0805"  Part="1" 
AR Path="/59CA64BD/5D308745/5D2B8DC0" Ref="#PWR0905"  Part="1" 
AR Path="/59CA64BD/5D308754/5D2B8DC0" Ref="#PWR01005"  Part="1" 
AR Path="/59CA64BD/5D3135E3/5D2B8DC0" Ref="#PWR01105"  Part="1" 
AR Path="/59CA64BD/5D3377CB/5D2B8DC0" Ref="#PWR01205"  Part="1" 
AR Path="/59CA64BD/5D3377DA/5D2B8DC0" Ref="#PWR01305"  Part="1" 
AR Path="/59CA64BD/5D3377E9/5D2B8DC0" Ref="#PWR01405"  Part="1" 
AR Path="/59CA64BD/5D3377F2/5D2B8DC0" Ref="#PWR01505"  Part="1" 
AR Path="/59CA64BD/5D337807/5D2B8DC0" Ref="#PWR01605"  Part="1" 
F 0 "#PWR01605" H 4975 1550 50  0001 C CNN
F 1 "GND" H 4980 1627 50  0000 C CNN
F 2 "" H 4975 1800 50  0001 C CNN
F 3 "" H 4975 1800 50  0001 C CNN
	1    4975 1800
	1    0    0    -1  
$EndComp
Wire Wire Line
	4975 1800 4975 1750
$Comp
L Device:C C702
U 1 1 5D2B944A
P 5450 1600
AR Path="/59CA64BD/5D2B3732/5D2B944A" Ref="C702"  Part="1" 
AR Path="/59CA64BD/5D2FFAC6/5D2B944A" Ref="C802"  Part="1" 
AR Path="/59CA64BD/5D308745/5D2B944A" Ref="C902"  Part="1" 
AR Path="/59CA64BD/5D308754/5D2B944A" Ref="C1002"  Part="1" 
AR Path="/59CA64BD/5D3135E3/5D2B944A" Ref="C1102"  Part="1" 
AR Path="/59CA64BD/5D3377CB/5D2B944A" Ref="C1202"  Part="1" 
AR Path="/59CA64BD/5D3377DA/5D2B944A" Ref="C1302"  Part="1" 
AR Path="/59CA64BD/5D3377E9/5D2B944A" Ref="C1402"  Part="1" 
AR Path="/59CA64BD/5D3377F2/5D2B944A" Ref="C1502"  Part="1" 
AR Path="/59CA64BD/5D337807/5D2B944A" Ref="C1602"  Part="1" 
F 0 "C702" H 5565 1646 50  0000 L CNN
F 1 "0.1uF" H 5565 1555 50  0000 L CNN
F 2 "Capacitor_SMD:C_0805_2012Metric" H 5488 1450 50  0001 C CNN
F 3 "~" H 5450 1600 50  0001 C CNN
	1    5450 1600
	1    0    0    -1  
$EndComp
Wire Wire Line
	5450 1450 5450 1400
$Comp
L power:GND #PWR0707
U 1 1 5D2B945F
P 5450 1800
AR Path="/59CA64BD/5D2B3732/5D2B945F" Ref="#PWR0707"  Part="1" 
AR Path="/59CA64BD/5D2FFAC6/5D2B945F" Ref="#PWR0807"  Part="1" 
AR Path="/59CA64BD/5D308745/5D2B945F" Ref="#PWR0907"  Part="1" 
AR Path="/59CA64BD/5D308754/5D2B945F" Ref="#PWR01007"  Part="1" 
AR Path="/59CA64BD/5D3135E3/5D2B945F" Ref="#PWR01107"  Part="1" 
AR Path="/59CA64BD/5D3377CB/5D2B945F" Ref="#PWR01207"  Part="1" 
AR Path="/59CA64BD/5D3377DA/5D2B945F" Ref="#PWR01307"  Part="1" 
AR Path="/59CA64BD/5D3377E9/5D2B945F" Ref="#PWR01407"  Part="1" 
AR Path="/59CA64BD/5D3377F2/5D2B945F" Ref="#PWR01507"  Part="1" 
AR Path="/59CA64BD/5D337807/5D2B945F" Ref="#PWR01607"  Part="1" 
F 0 "#PWR01607" H 5450 1550 50  0001 C CNN
F 1 "GND" H 5455 1627 50  0000 C CNN
F 2 "" H 5450 1800 50  0001 C CNN
F 3 "" H 5450 1800 50  0001 C CNN
	1    5450 1800
	1    0    0    -1  
$EndComp
Wire Wire Line
	5450 1800 5450 1750
$Comp
L power:-5V #PWR0706
U 1 1 5D2BB52C
P 5450 1400
AR Path="/59CA64BD/5D2B3732/5D2BB52C" Ref="#PWR0706"  Part="1" 
AR Path="/59CA64BD/5D2FFAC6/5D2BB52C" Ref="#PWR0806"  Part="1" 
AR Path="/59CA64BD/5D308745/5D2BB52C" Ref="#PWR0906"  Part="1" 
AR Path="/59CA64BD/5D308754/5D2BB52C" Ref="#PWR01006"  Part="1" 
AR Path="/59CA64BD/5D3135E3/5D2BB52C" Ref="#PWR01106"  Part="1" 
AR Path="/59CA64BD/5D3377CB/5D2BB52C" Ref="#PWR01206"  Part="1" 
AR Path="/59CA64BD/5D3377DA/5D2BB52C" Ref="#PWR01306"  Part="1" 
AR Path="/59CA64BD/5D3377E9/5D2BB52C" Ref="#PWR01406"  Part="1" 
AR Path="/59CA64BD/5D3377F2/5D2BB52C" Ref="#PWR01506"  Part="1" 
AR Path="/59CA64BD/5D337807/5D2BB52C" Ref="#PWR01606"  Part="1" 
F 0 "#PWR01606" H 5450 1500 50  0001 C CNN
F 1 "-5V" H 5465 1573 50  0000 C CNN
F 2 "" H 5450 1400 50  0001 C CNN
F 3 "" H 5450 1400 50  0001 C CNN
	1    5450 1400
	1    0    0    -1  
$EndComp
$Comp
L Device:R R702
U 1 1 5D2BDCA1
P 4000 2300
AR Path="/59CA64BD/5D2B3732/5D2BDCA1" Ref="R702"  Part="1" 
AR Path="/59CA64BD/5D2FFAC6/5D2BDCA1" Ref="R802"  Part="1" 
AR Path="/59CA64BD/5D308745/5D2BDCA1" Ref="R902"  Part="1" 
AR Path="/59CA64BD/5D308754/5D2BDCA1" Ref="R1002"  Part="1" 
AR Path="/59CA64BD/5D3135E3/5D2BDCA1" Ref="R1102"  Part="1" 
AR Path="/59CA64BD/5D3377CB/5D2BDCA1" Ref="R1202"  Part="1" 
AR Path="/59CA64BD/5D3377DA/5D2BDCA1" Ref="R1302"  Part="1" 
AR Path="/59CA64BD/5D3377E9/5D2BDCA1" Ref="R1402"  Part="1" 
AR Path="/59CA64BD/5D3377F2/5D2BDCA1" Ref="R1502"  Part="1" 
AR Path="/59CA64BD/5D337807/5D2BDCA1" Ref="R1602"  Part="1" 
F 0 "R702" H 4070 2346 50  0000 L CNN
F 1 "R" H 4070 2255 50  0000 L CNN
F 2 "Resistor_SMD:R_0805_2012Metric" V 3930 2300 50  0001 C CNN
F 3 "~" H 4000 2300 50  0001 C CNN
	1    4000 2300
	1    0    0    -1  
$EndComp
Wire Wire Line
	4000 2150 4200 2150
Wire Wire Line
	4200 2150 4200 2200
Wire Wire Line
	4000 2450 4200 2450
Wire Wire Line
	4200 2400 4200 2450
$Comp
L power:GND #PWR0703
U 1 1 5D2BECE8
P 4700 2650
AR Path="/59CA64BD/5D2B3732/5D2BECE8" Ref="#PWR0703"  Part="1" 
AR Path="/59CA64BD/5D2FFAC6/5D2BECE8" Ref="#PWR0803"  Part="1" 
AR Path="/59CA64BD/5D308745/5D2BECE8" Ref="#PWR0903"  Part="1" 
AR Path="/59CA64BD/5D308754/5D2BECE8" Ref="#PWR01003"  Part="1" 
AR Path="/59CA64BD/5D3135E3/5D2BECE8" Ref="#PWR01103"  Part="1" 
AR Path="/59CA64BD/5D3377CB/5D2BECE8" Ref="#PWR01203"  Part="1" 
AR Path="/59CA64BD/5D3377DA/5D2BECE8" Ref="#PWR01303"  Part="1" 
AR Path="/59CA64BD/5D3377E9/5D2BECE8" Ref="#PWR01403"  Part="1" 
AR Path="/59CA64BD/5D3377F2/5D2BECE8" Ref="#PWR01503"  Part="1" 
AR Path="/59CA64BD/5D337807/5D2BECE8" Ref="#PWR01603"  Part="1" 
F 0 "#PWR01603" H 4700 2400 50  0001 C CNN
F 1 "GND" H 4705 2477 50  0000 C CNN
F 2 "" H 4700 2650 50  0001 C CNN
F 3 "" H 4700 2650 50  0001 C CNN
	1    4700 2650
	1    0    0    -1  
$EndComp
Wire Wire Line
	4700 2650 4700 2600
Text HLabel 3625 2100 0    60   Input ~ 0
IN-
Text HLabel 3625 2500 0    60   Input ~ 0
IN+
Text HLabel 5050 2300 2    60   Output ~ 0
OUT
Wire Wire Line
	5000 2300 5050 2300
$Comp
L Device:R R701
U 1 1 5D2B5590
P 3750 2300
AR Path="/59CA64BD/5D2B3732/5D2B5590" Ref="R701"  Part="1" 
AR Path="/59CA64BD/5D2FFAC6/5D2B5590" Ref="R801"  Part="1" 
AR Path="/59CA64BD/5D308745/5D2B5590" Ref="R901"  Part="1" 
AR Path="/59CA64BD/5D308754/5D2B5590" Ref="R1001"  Part="1" 
AR Path="/59CA64BD/5D3135E3/5D2B5590" Ref="R1101"  Part="1" 
AR Path="/59CA64BD/5D3377CB/5D2B5590" Ref="R1201"  Part="1" 
AR Path="/59CA64BD/5D3377DA/5D2B5590" Ref="R1301"  Part="1" 
AR Path="/59CA64BD/5D3377E9/5D2B5590" Ref="R1401"  Part="1" 
AR Path="/59CA64BD/5D3377F2/5D2B5590" Ref="R1501"  Part="1" 
AR Path="/59CA64BD/5D337807/5D2B5590" Ref="R1601"  Part="1" 
F 0 "R701" H 3820 2346 50  0000 L CNN
F 1 "5k" H 3820 2255 50  0000 L CNN
F 2 "Resistor_SMD:R_0805_2012Metric" V 3680 2300 50  0001 C CNN
F 3 "~" H 3750 2300 50  0001 C CNN
	1    3750 2300
	1    0    0    -1  
$EndComp
Wire Wire Line
	3625 2100 3750 2100
Wire Wire Line
	3625 2500 3750 2500
Wire Wire Line
	3750 2150 3750 2100
Connection ~ 3750 2100
Wire Wire Line
	3750 2100 4200 2100
Wire Wire Line
	3750 2450 3750 2500
Connection ~ 3750 2500
Wire Wire Line
	3750 2500 4200 2500
$Comp
L Device:Q_NMOS_GSD Q?
U 1 1 5D36CAD3
P 8100 2150
AR Path="/59C5F008/59CBA3F1/5D36CAD3" Ref="Q?"  Part="1" 
AR Path="/59C5F008/59CC6E78/5D36CAD3" Ref="Q?"  Part="1" 
AR Path="/59C5F008/5CF391C7/5D36CAD3" Ref="Q?"  Part="1" 
AR Path="/59CA64BD/5D2B3732/5D36CAD3" Ref="Q701"  Part="1" 
AR Path="/59CA64BD/5D2FFAC6/5D36CAD3" Ref="Q801"  Part="1" 
AR Path="/59CA64BD/5D308745/5D36CAD3" Ref="Q901"  Part="1" 
AR Path="/59CA64BD/5D308754/5D36CAD3" Ref="Q1001"  Part="1" 
AR Path="/59CA64BD/5D3135E3/5D36CAD3" Ref="Q1101"  Part="1" 
AR Path="/59CA64BD/5D3377CB/5D36CAD3" Ref="Q1201"  Part="1" 
AR Path="/59CA64BD/5D3377DA/5D36CAD3" Ref="Q1301"  Part="1" 
AR Path="/59CA64BD/5D3377E9/5D36CAD3" Ref="Q1401"  Part="1" 
AR Path="/59CA64BD/5D3377F2/5D36CAD3" Ref="Q1501"  Part="1" 
AR Path="/59CA64BD/5D337807/5D36CAD3" Ref="Q1601"  Part="1" 
F 0 "Q701" H 8300 2200 50  0000 L CNN
F 1 "BSH105,215" H 8300 2100 50  0000 L CNN
F 2 "Package_TO_SOT_SMD:SOT-23" H 8300 2250 50  0001 C CNN
F 3 "" H 8100 2150 50  0001 C CNN
	1    8100 2150
	1    0    0    -1  
$EndComp
Text Label 7900 2150 2    60   ~ 12
OUT
Wire Wire Line
	8200 1150 8200 1050
Wire Wire Line
	8200 1450 8200 1550
$Comp
L Device:R R?
U 1 1 5D36CADC
P 8200 1700
AR Path="/59C5F008/59CBA3F1/5D36CADC" Ref="R?"  Part="1" 
AR Path="/59C5F008/59CC6E78/5D36CADC" Ref="R?"  Part="1" 
AR Path="/59C5F008/5CF391C7/5D36CADC" Ref="R?"  Part="1" 
AR Path="/59CA64BD/5D2B3732/5D36CADC" Ref="R703"  Part="1" 
AR Path="/59CA64BD/5D2FFAC6/5D36CADC" Ref="R803"  Part="1" 
AR Path="/59CA64BD/5D308745/5D36CADC" Ref="R903"  Part="1" 
AR Path="/59CA64BD/5D308754/5D36CADC" Ref="R1003"  Part="1" 
AR Path="/59CA64BD/5D3135E3/5D36CADC" Ref="R1103"  Part="1" 
AR Path="/59CA64BD/5D3377CB/5D36CADC" Ref="R1203"  Part="1" 
AR Path="/59CA64BD/5D3377DA/5D36CADC" Ref="R1303"  Part="1" 
AR Path="/59CA64BD/5D3377E9/5D36CADC" Ref="R1403"  Part="1" 
AR Path="/59CA64BD/5D3377F2/5D36CADC" Ref="R1503"  Part="1" 
AR Path="/59CA64BD/5D337807/5D36CADC" Ref="R1603"  Part="1" 
F 0 "R703" V 8280 1700 50  0000 C CNN
F 1 "621" V 8200 1700 50  0000 C CNN
F 2 "Resistor_SMD:R_0805_2012Metric" V 8130 1700 50  0001 C CNN
F 3 "" H 8200 1700 50  0001 C CNN
	1    8200 1700
	1    0    0    -1  
$EndComp
$Comp
L Device:LED D?
U 1 1 5D36CAE2
P 8200 1300
AR Path="/59C5F008/59CBA3F1/5D36CAE2" Ref="D?"  Part="1" 
AR Path="/59C5F008/59CC6E78/5D36CAE2" Ref="D?"  Part="1" 
AR Path="/59C5F008/5CF391C7/5D36CAE2" Ref="D?"  Part="1" 
AR Path="/59CA64BD/5D2B3732/5D36CAE2" Ref="D701"  Part="1" 
AR Path="/59CA64BD/5D2FFAC6/5D36CAE2" Ref="D801"  Part="1" 
AR Path="/59CA64BD/5D308745/5D36CAE2" Ref="D901"  Part="1" 
AR Path="/59CA64BD/5D308754/5D36CAE2" Ref="D1001"  Part="1" 
AR Path="/59CA64BD/5D3135E3/5D36CAE2" Ref="D1101"  Part="1" 
AR Path="/59CA64BD/5D3377CB/5D36CAE2" Ref="D1201"  Part="1" 
AR Path="/59CA64BD/5D3377DA/5D36CAE2" Ref="D1301"  Part="1" 
AR Path="/59CA64BD/5D3377E9/5D36CAE2" Ref="D1401"  Part="1" 
AR Path="/59CA64BD/5D3377F2/5D36CAE2" Ref="D1501"  Part="1" 
AR Path="/59CA64BD/5D337807/5D36CAE2" Ref="D1601"  Part="1" 
F 0 "D701" H 8200 1400 50  0000 C CNN
F 1 "LED" H 8200 1200 50  0000 C CNN
F 2 "LED_SMD:LED_1206_3216Metric_Pad1.42x1.75mm_HandSolder" H 8200 1300 50  0001 C CNN
F 3 "" H 8200 1300 50  0001 C CNN
	1    8200 1300
	0    -1   -1   0   
$EndComp
Wire Wire Line
	8200 1950 8200 1850
Wire Wire Line
	8200 2450 8200 2350
$Comp
L power:+3V3 #PWR?
U 1 1 5D36CAEA
P 8200 1050
AR Path="/59C5F008/59CBA3F1/5D36CAEA" Ref="#PWR?"  Part="1" 
AR Path="/59C5F008/59CC6E78/5D36CAEA" Ref="#PWR?"  Part="1" 
AR Path="/59C5F008/5CF391C7/5D36CAEA" Ref="#PWR?"  Part="1" 
AR Path="/59CA64BD/5D2B3732/5D36CAEA" Ref="#PWR0708"  Part="1" 
AR Path="/59CA64BD/5D2FFAC6/5D36CAEA" Ref="#PWR0808"  Part="1" 
AR Path="/59CA64BD/5D308745/5D36CAEA" Ref="#PWR0908"  Part="1" 
AR Path="/59CA64BD/5D308754/5D36CAEA" Ref="#PWR01008"  Part="1" 
AR Path="/59CA64BD/5D3135E3/5D36CAEA" Ref="#PWR01108"  Part="1" 
AR Path="/59CA64BD/5D3377CB/5D36CAEA" Ref="#PWR01208"  Part="1" 
AR Path="/59CA64BD/5D3377DA/5D36CAEA" Ref="#PWR01308"  Part="1" 
AR Path="/59CA64BD/5D3377E9/5D36CAEA" Ref="#PWR01408"  Part="1" 
AR Path="/59CA64BD/5D3377F2/5D36CAEA" Ref="#PWR01508"  Part="1" 
AR Path="/59CA64BD/5D337807/5D36CAEA" Ref="#PWR01608"  Part="1" 
F 0 "#PWR01608" H 8200 900 50  0001 C CNN
F 1 "+3V3" H 8200 1190 50  0000 C CNN
F 2 "" H 8200 1050 50  0001 C CNN
F 3 "" H 8200 1050 50  0001 C CNN
	1    8200 1050
	1    0    0    -1  
$EndComp
$Comp
L power:GND #PWR?
U 1 1 5D36CAF0
P 8200 2450
AR Path="/59C5F008/59CBA3F1/5D36CAF0" Ref="#PWR?"  Part="1" 
AR Path="/59C5F008/59CC6E78/5D36CAF0" Ref="#PWR?"  Part="1" 
AR Path="/59C5F008/5CF391C7/5D36CAF0" Ref="#PWR?"  Part="1" 
AR Path="/59CA64BD/5D2B3732/5D36CAF0" Ref="#PWR0709"  Part="1" 
AR Path="/59CA64BD/5D2FFAC6/5D36CAF0" Ref="#PWR0809"  Part="1" 
AR Path="/59CA64BD/5D308745/5D36CAF0" Ref="#PWR0909"  Part="1" 
AR Path="/59CA64BD/5D308754/5D36CAF0" Ref="#PWR01009"  Part="1" 
AR Path="/59CA64BD/5D3135E3/5D36CAF0" Ref="#PWR01109"  Part="1" 
AR Path="/59CA64BD/5D3377CB/5D36CAF0" Ref="#PWR01209"  Part="1" 
AR Path="/59CA64BD/5D3377DA/5D36CAF0" Ref="#PWR01309"  Part="1" 
AR Path="/59CA64BD/5D3377E9/5D36CAF0" Ref="#PWR01409"  Part="1" 
AR Path="/59CA64BD/5D3377F2/5D36CAF0" Ref="#PWR01509"  Part="1" 
AR Path="/59CA64BD/5D337807/5D36CAF0" Ref="#PWR01609"  Part="1" 
F 0 "#PWR01609" H 8200 2200 50  0001 C CNN
F 1 "GND" H 8200 2300 50  0000 C CNN
F 2 "" H 8200 2450 50  0001 C CNN
F 3 "" H 8200 2450 50  0001 C CNN
	1    8200 2450
	1    0    0    -1  
$EndComp
$EndSCHEMATC
