EESchema Schematic File Version 4
LIBS:pbv3_mass_test_adapter_active-cache
EELAYER 29 0
EELAYER END
$Descr A4 11693 8268
encoding utf-8
Sheet 6 26
Title "Powerboard v3 Massive Active Tester Board"
Date "2019-06-04"
Rev ""
Comp "Lawrence Berkeley National Laboratory"
Comment1 ""
Comment2 ""
Comment3 ""
Comment4 ""
$EndDescr
Text HLabel 800  6600 0    60   BiDi ~ 12
SDA
Text HLabel 800  6700 0    60   Input ~ 12
SCL
Entry Wire Line
	1400 6600 1500 6700
Entry Wire Line
	1400 6700 1500 6800
Entry Wire Line
	1400 6800 1500 6900
Entry Wire Line
	1400 6900 1500 7000
Entry Wire Line
	1400 7000 1500 7100
Entry Wire Line
	1400 7100 1500 7200
Entry Wire Line
	1400 7200 1500 7300
Entry Wire Line
	1400 7300 1500 7400
Entry Wire Line
	1400 7400 1500 7500
Text Label 1300 6600 2    60   ~ 12
HV1
Text Label 1300 6700 2    60   ~ 12
HV2
Text Label 1300 6800 2    60   ~ 12
HV3
Text Label 1300 6900 2    60   ~ 12
HV4
Text Label 1300 7000 2    60   ~ 12
HV5
Text Label 1300 7100 2    60   ~ 12
HV6
Text Label 1300 7200 2    60   ~ 12
HV7
Text Label 1300 7300 2    60   ~ 12
HV8
Text Label 1300 7400 2    60   ~ 12
HV9
Text HLabel 1600 7600 2    60   Input ~ 12
HV[0..9]
Entry Wire Line
	2400 6600 2500 6700
Entry Wire Line
	2400 6700 2500 6800
Entry Wire Line
	2400 6800 2500 6900
Entry Wire Line
	2400 6900 2500 7000
Entry Wire Line
	2400 7000 2500 7100
Text HLabel 2600 7600 2    60   Output ~ 12
HV_RTN[0..9]
Text Label 2300 6600 2    60   ~ 12
HV_RTN1
Text Label 2300 6700 2    60   ~ 12
HV_RTN2
Text Label 2300 6800 2    60   ~ 12
HV_RTN3
Text Label 2300 6900 2    60   ~ 12
HV_RTN4
Text Label 2300 7000 2    60   ~ 12
HV_RTN5
Text Label 2300 7100 2    60   ~ 12
HV_RTN6
Text Label 2300 7200 2    60   ~ 12
HV_RTN7
Text Label 2300 7300 2    60   ~ 12
HV_RTN8
Wire Wire Line
	850  6600 800  6600
Wire Wire Line
	850  6700 800  6700
Wire Wire Line
	1400 6600 1300 6600
Wire Wire Line
	1400 6700 1300 6700
Wire Wire Line
	1400 6800 1300 6800
Wire Wire Line
	1400 6900 1300 6900
Wire Wire Line
	1400 7000 1300 7000
Wire Wire Line
	1400 7100 1300 7100
Wire Wire Line
	1400 7200 1300 7200
Wire Wire Line
	1400 7300 1300 7300
Wire Wire Line
	1400 7400 1300 7400
Wire Wire Line
	2400 6600 2300 6600
Wire Wire Line
	2400 6700 2300 6700
Wire Wire Line
	2400 6800 2300 6800
Wire Wire Line
	2400 6900 2300 6900
Wire Wire Line
	2400 7000 2300 7000
Wire Wire Line
	2400 7100 2300 7100
Wire Bus Line
	2500 7600 2600 7600
Wire Bus Line
	1500 7600 1600 7600
Text Label 1300 6500 2    60   ~ 12
HV0
Entry Wire Line
	1400 6500 1500 6600
Wire Wire Line
	1300 6500 1400 6500
Text Label 2300 6500 2    60   ~ 12
HV_RTN0
Entry Wire Line
	2400 6500 2500 6600
Wire Wire Line
	2300 6500 2400 6500
Wire Wire Line
	2400 7400 2300 7400
Wire Wire Line
	2400 7300 2300 7300
Wire Wire Line
	2400 7200 2300 7200
Text Label 2300 7400 2    60   ~ 12
HV_RTN9
Entry Wire Line
	2400 7400 2500 7500
Entry Wire Line
	2400 7300 2500 7400
Entry Wire Line
	2400 7200 2500 7300
Entry Wire Line
	2400 7100 2500 7200
$Sheet
S 1150 2525 875  450 
U 5D2B3732
F0 "HVDiffAmp0" 60
F1 "HVDiffAmp.sch" 60
F2 "IN-" I L 1150 2600 60 
F3 "IN+" I L 1150 2900 60 
F4 "OUT" O R 2025 2750 60 
$EndSheet
Text Label 1075 2600 2    60   ~ 0
HV0
Text Label 1075 2900 2    60   ~ 0
HV_RTN0
Wire Wire Line
	2025 2750 2100 2750
Text Label 2100 2750 0    60   ~ 0
pHV0
$Sheet
S 1150 3200 875  450 
U 5D2FFAC6
F0 "HVDiffAmp1" 60
F1 "HVDiffAmp.sch" 60
F2 "IN-" I L 1150 3275 60 
F3 "IN+" I L 1150 3575 60 
F4 "OUT" O R 2025 3425 60 
$EndSheet
Text Label 1075 3275 2    60   ~ 0
HV1
Text Label 1075 3575 2    60   ~ 0
HV_RTN1
Wire Wire Line
	2025 3425 2100 3425
Text Label 2100 3425 0    60   ~ 0
pHV1
$Sheet
S 1150 3875 875  450 
U 5D308745
F0 "HVDiffAmp2" 60
F1 "HVDiffAmp.sch" 60
F2 "IN-" I L 1150 3950 60 
F3 "IN+" I L 1150 4250 60 
F4 "OUT" O R 2025 4100 60 
$EndSheet
Text Label 1075 3950 2    60   ~ 0
HV2
Text Label 1075 4250 2    60   ~ 0
HV_RTN2
Wire Wire Line
	2025 4100 2100 4100
Text Label 2100 4100 0    60   ~ 0
pHV2
$Sheet
S 1150 4550 875  450 
U 5D308754
F0 "HVDiffAmp3" 60
F1 "HVDiffAmp.sch" 60
F2 "IN-" I L 1150 4625 60 
F3 "IN+" I L 1150 4925 60 
F4 "OUT" O R 2025 4775 60 
$EndSheet
Text Label 1075 4625 2    60   ~ 0
HV3
Text Label 1075 4925 2    60   ~ 0
HV_RTN3
Wire Wire Line
	2025 4775 2100 4775
Text Label 2100 4775 0    60   ~ 0
pHV3
$Sheet
S 1150 5225 875  450 
U 5D3135E3
F0 "HVDiffAmp4" 60
F1 "HVDiffAmp.sch" 60
F2 "IN-" I L 1150 5300 60 
F3 "IN+" I L 1150 5600 60 
F4 "OUT" O R 2025 5450 60 
$EndSheet
Text Label 1075 5300 2    60   ~ 0
HV4
Text Label 1075 5600 2    60   ~ 0
HV_RTN4
Wire Wire Line
	2025 5450 2100 5450
Text Label 2100 5450 0    60   ~ 0
pHV4
$Sheet
S 3500 2525 875  450 
U 5D3377CB
F0 "HVDiffAmp5" 60
F1 "HVDiffAmp.sch" 60
F2 "IN-" I L 3500 2600 60 
F3 "IN+" I L 3500 2900 60 
F4 "OUT" O R 4375 2750 60 
$EndSheet
Text Label 3425 2600 2    60   ~ 0
HV5
Text Label 3425 2900 2    60   ~ 0
HV_RTN5
Wire Wire Line
	4375 2750 4450 2750
Text Label 4450 2750 0    60   ~ 0
pHV5
$Sheet
S 3500 3200 875  450 
U 5D3377DA
F0 "HVDiffAmp6" 60
F1 "HVDiffAmp.sch" 60
F2 "IN-" I L 3500 3275 60 
F3 "IN+" I L 3500 3575 60 
F4 "OUT" O R 4375 3425 60 
$EndSheet
Text Label 3425 3275 2    60   ~ 0
HV6
Text Label 3425 3575 2    60   ~ 0
HV_RTN6
Wire Wire Line
	4375 3425 4450 3425
Text Label 4450 3425 0    60   ~ 0
pHV6
$Sheet
S 3500 3875 875  450 
U 5D3377E9
F0 "HVDiffAmp7" 60
F1 "HVDiffAmp.sch" 60
F2 "IN-" I L 3500 3950 60 
F3 "IN+" I L 3500 4250 60 
F4 "OUT" O R 4375 4100 60 
$EndSheet
Text Label 3425 3950 2    60   ~ 0
HV7
Text Label 3425 4250 2    60   ~ 0
HV_RTN7
Wire Wire Line
	4375 4100 4450 4100
Text Label 4450 4100 0    60   ~ 0
pHV7
$Sheet
S 3500 4550 875  450 
U 5D3377F2
F0 "HVDiffAmp8" 60
F1 "HVDiffAmp.sch" 60
F2 "IN-" I L 3500 4625 60 
F3 "IN+" I L 3500 4925 60 
F4 "OUT" O R 4375 4775 60 
$EndSheet
Text Label 3425 4625 2    60   ~ 0
HV8
Text Label 3425 4925 2    60   ~ 0
HV_RTN8
Wire Wire Line
	4375 4775 4450 4775
Text Label 4450 4775 0    60   ~ 0
pHV8
$Sheet
S 3500 5225 875  450 
U 5D337807
F0 "HVDiffAmp9" 60
F1 "HVDiffAmp.sch" 60
F2 "IN-" I L 3500 5300 60 
F3 "IN+" I L 3500 5600 60 
F4 "OUT" O R 4375 5450 60 
$EndSheet
Text Label 3425 5300 2    60   ~ 0
HV9
Text Label 3425 5600 2    60   ~ 0
HV_RTN9
Wire Wire Line
	4375 5450 4450 5450
Text Label 4450 5450 0    60   ~ 0
pHV9
$Comp
L lbl_amp:PGA117 U?
U 1 1 5D35BCD5
P 6450 2600
AR Path="/5D35BCD5" Ref="U?"  Part="1" 
AR Path="/59CA64BD/5D35BCD5" Ref="U601"  Part="1" 
F 0 "U601" H 6400 2111 50  0000 C CNN
F 1 "PGA117" H 6400 2020 50  0000 C CNN
F 2 "Package_SO:TSSOP-20_4.4x6.5mm_P0.65mm" H 6050 3400 50  0001 C CNN
F 3 "https://www.ti.com/lit/ds/symlink/pga112.pdf" H 6200 3300 50  0001 C CNN
F 4 "PGA117AIPW" H 6450 2600 50  0001 C CNN "mfg#"
	1    6450 2600
	1    0    0    -1  
$EndComp
$Comp
L Device:C C601
U 1 1 5D361B9F
P 6750 1725
F 0 "C601" H 6865 1771 50  0000 L CNN
F 1 "0.1uF" H 6865 1680 50  0000 L CNN
F 2 "Capacitor_SMD:C_0805_2012Metric" H 6788 1575 50  0001 C CNN
F 3 "~" H 6750 1725 50  0001 C CNN
	1    6750 1725
	1    0    0    -1  
$EndComp
$Comp
L power:+3V3 #PWR0605
U 1 1 5D3622B7
P 6750 1525
F 0 "#PWR0605" H 6750 1375 50  0001 C CNN
F 1 "+3V3" H 6765 1698 50  0000 C CNN
F 2 "" H 6750 1525 50  0001 C CNN
F 3 "" H 6750 1525 50  0001 C CNN
	1    6750 1525
	1    0    0    -1  
$EndComp
Wire Wire Line
	6750 1575 6750 1525
$Comp
L power:GND #PWR0606
U 1 1 5D365B57
P 6750 1925
F 0 "#PWR0606" H 6750 1675 50  0001 C CNN
F 1 "GND" H 6755 1752 50  0000 C CNN
F 2 "" H 6750 1925 50  0001 C CNN
F 3 "" H 6750 1925 50  0001 C CNN
	1    6750 1925
	1    0    0    -1  
$EndComp
Wire Wire Line
	6750 1925 6750 1875
$Comp
L Device:C C602
U 1 1 5D36A7CF
P 7250 1725
F 0 "C602" H 7365 1771 50  0000 L CNN
F 1 "0.1uF" H 7365 1680 50  0000 L CNN
F 2 "Capacitor_SMD:C_0805_2012Metric" H 7288 1575 50  0001 C CNN
F 3 "~" H 7250 1725 50  0001 C CNN
	1    7250 1725
	1    0    0    -1  
$EndComp
Wire Wire Line
	7250 1575 7250 1525
$Comp
L power:GND #PWR0608
U 1 1 5D36A7DA
P 7250 1925
F 0 "#PWR0608" H 7250 1675 50  0001 C CNN
F 1 "GND" H 7255 1752 50  0000 C CNN
F 2 "" H 7250 1925 50  0001 C CNN
F 3 "" H 7250 1925 50  0001 C CNN
	1    7250 1925
	1    0    0    -1  
$EndComp
Wire Wire Line
	7250 1925 7250 1875
$Comp
L power:+3V3 #PWR0603
U 1 1 5D36E526
P 6400 2175
F 0 "#PWR0603" H 6400 2025 50  0001 C CNN
F 1 "+3V3" H 6415 2348 50  0000 C CNN
F 2 "" H 6400 2175 50  0001 C CNN
F 3 "" H 6400 2175 50  0001 C CNN
	1    6400 2175
	1    0    0    -1  
$EndComp
Wire Wire Line
	6450 2200 6450 2175
$Comp
L power:GND #PWR0604
U 1 1 5D3778D1
P 6450 3900
F 0 "#PWR0604" H 6450 3650 50  0001 C CNN
F 1 "GND" H 6455 3727 50  0000 C CNN
F 2 "" H 6450 3900 50  0001 C CNN
F 3 "" H 6450 3900 50  0001 C CNN
	1    6450 3900
	1    0    0    -1  
$EndComp
Wire Wire Line
	6450 3900 6450 3850
Text Label 5900 3200 2    60   ~ 0
pHV0
Text Label 5900 3100 2    60   ~ 0
pHV1
Text Label 5900 3000 2    60   ~ 0
pHV2
Text Label 5900 2900 2    60   ~ 0
pHV3
Text Label 5900 2800 2    60   ~ 0
pHV4
Text Label 5900 2700 2    60   ~ 0
pHV5
Text Label 5900 3400 2    60   ~ 0
pHV6
Text Label 5900 3300 2    60   ~ 0
pHV7
Text Label 5900 3600 2    60   ~ 0
pHV8
Text Label 5900 3500 2    60   ~ 0
pHV9
Wire Wire Line
	5900 2700 5950 2700
Wire Wire Line
	5900 2800 5950 2800
Wire Wire Line
	5900 2900 5950 2900
Wire Wire Line
	5900 3000 5950 3000
Wire Wire Line
	5900 3100 5950 3100
Wire Wire Line
	5900 3200 5950 3200
Wire Wire Line
	5900 3300 5950 3300
Wire Wire Line
	5900 3400 5950 3400
Wire Wire Line
	5900 3500 5950 3500
Wire Wire Line
	5900 3600 5950 3600
$Comp
L power:GND #PWR0602
U 1 1 5D3816CD
P 5725 2400
F 0 "#PWR0602" H 5725 2150 50  0001 C CNN
F 1 "GND" H 5730 2227 50  0000 C CNN
F 2 "" H 5725 2400 50  0001 C CNN
F 3 "" H 5725 2400 50  0001 C CNN
	1    5725 2400
	1    0    0    -1  
$EndComp
Wire Wire Line
	5950 2400 5725 2400
$Comp
L Device:R R601
U 1 1 5D38723F
P 5450 2500
F 0 "R601" V 5350 2500 50  0000 C CNN
F 1 "10K" V 5450 2500 50  0000 C CNN
F 2 "Resistor_SMD:R_0805_2012Metric" V 5380 2500 50  0001 C CNN
F 3 "~" H 5450 2500 50  0001 C CNN
F 4 "CRCW080510K0FKEA" V 5450 2500 50  0001 C CNN "mfg#"
	1    5450 2500
	0    1    1    0   
$EndComp
$Comp
L power:+3V3 #PWR0601
U 1 1 5D387B9B
P 5225 2500
F 0 "#PWR0601" H 5225 2350 50  0001 C CNN
F 1 "+3V3" H 5240 2673 50  0000 C CNN
F 2 "" H 5225 2500 50  0001 C CNN
F 3 "" H 5225 2500 50  0001 C CNN
	1    5225 2500
	1    0    0    -1  
$EndComp
Wire Wire Line
	5225 2500 5300 2500
Wire Wire Line
	5600 2500 5950 2500
$Comp
L power:GND #PWR?
U 1 1 5D3CDC4F
P 9325 5525
AR Path="/5A1D3CA0/5D3CDC4F" Ref="#PWR?"  Part="1" 
AR Path="/59CA64BD/5D3CDC4F" Ref="#PWR0610"  Part="1" 
F 0 "#PWR0610" H 9325 5275 50  0001 C CNN
F 1 "GND" H 9325 5375 50  0000 C CNN
F 2 "" H 9325 5525 50  0001 C CNN
F 3 "" H 9325 5525 50  0001 C CNN
	1    9325 5525
	1    0    0    -1  
$EndComp
$Comp
L Device:C C?
U 1 1 5D3CDC5D
P 9650 4375
AR Path="/5A1D3CA0/5D3CDC5D" Ref="C?"  Part="1" 
AR Path="/59CA64BD/5D3CDC5D" Ref="C604"  Part="1" 
F 0 "C604" H 9675 4475 50  0000 L CNN
F 1 "10uF" H 9675 4275 50  0000 L CNN
F 2 "Capacitor_SMD:C_0805_2012Metric" H 9688 4225 50  0001 C CNN
F 3 "" H 9650 4375 50  0001 C CNN
	1    9650 4375
	1    0    0    -1  
$EndComp
$Comp
L Device:C C?
U 1 1 5D3CDC63
P 9950 4375
AR Path="/5A1D3CA0/5D3CDC63" Ref="C?"  Part="1" 
AR Path="/59CA64BD/5D3CDC63" Ref="C605"  Part="1" 
F 0 "C605" H 9975 4475 50  0000 L CNN
F 1 "0.1uF" H 9975 4275 50  0000 L CNN
F 2 "Capacitor_SMD:C_0805_2012Metric" H 9988 4225 50  0001 C CNN
F 3 "" H 9950 4375 50  0001 C CNN
	1    9950 4375
	1    0    0    -1  
$EndComp
$Comp
L power:GND #PWR?
U 1 1 5D3CDC69
P 9800 4575
AR Path="/5A1D3CA0/5D3CDC69" Ref="#PWR?"  Part="1" 
AR Path="/59CA64BD/5D3CDC69" Ref="#PWR0613"  Part="1" 
F 0 "#PWR0613" H 9800 4325 50  0001 C CNN
F 1 "GND" H 9800 4425 50  0000 C CNN
F 2 "" H 9800 4575 50  0001 C CNN
F 3 "" H 9800 4575 50  0001 C CNN
	1    9800 4575
	1    0    0    -1  
$EndComp
Wire Wire Line
	9650 4525 9800 4525
Connection ~ 9800 4525
Wire Wire Line
	9800 4525 9800 4575
Text HLabel 9775 4925 2    60   Input ~ 12
SCL
Text HLabel 9775 5225 2    60   BiDi ~ 12
SDA
$Comp
L power:+3V3 #PWR?
U 1 1 5D3CDC89
P 9375 4625
AR Path="/5A1D3CA0/5D3CDC89" Ref="#PWR?"  Part="1" 
AR Path="/59CA64BD/5D3CDC89" Ref="#PWR0611"  Part="1" 
F 0 "#PWR0611" H 9375 4475 50  0001 C CNN
F 1 "+3V3" H 9375 4765 50  0000 C CNN
F 2 "" H 9375 4625 50  0001 C CNN
F 3 "" H 9375 4625 50  0001 C CNN
	1    9375 4625
	1    0    0    -1  
$EndComp
Wire Wire Line
	9800 4525 9950 4525
Wire Wire Line
	9650 4225 9800 4225
$Comp
L power:+3V3 #PWR0612
U 1 1 5D3E4C21
P 9800 4150
F 0 "#PWR0612" H 9800 4000 50  0001 C CNN
F 1 "+3V3" H 9815 4323 50  0000 C CNN
F 2 "" H 9800 4150 50  0001 C CNN
F 3 "" H 9800 4150 50  0001 C CNN
	1    9800 4150
	1    0    0    -1  
$EndComp
Wire Wire Line
	9800 4150 9800 4225
Connection ~ 9800 4225
Wire Wire Line
	9800 4225 9950 4225
Text Label 7275 3600 0    60   ~ 0
mHV
Wire Wire Line
	6900 3600 6850 3600
Text Label 8675 5075 2    60   ~ 0
mHV
Wire Wire Line
	6850 2400 6950 2400
Wire Wire Line
	6950 2500 6850 2500
Wire Wire Line
	6850 2600 6950 2600
Wire Wire Line
	6950 2700 6850 2700
Wire Wire Line
	6350 2200 6350 2175
Wire Wire Line
	6350 2175 6400 2175
Wire Wire Line
	6400 2175 6450 2175
Connection ~ 6400 2175
$Comp
L power:+3V3 #PWR0607
U 1 1 5D4A6977
P 7250 1525
F 0 "#PWR0607" H 7250 1375 50  0001 C CNN
F 1 "+3V3" H 7265 1698 50  0000 C CNN
F 2 "" H 7250 1525 50  0001 C CNN
F 3 "" H 7250 1525 50  0001 C CNN
	1    7250 1525
	1    0    0    -1  
$EndComp
$Comp
L Device:R R602
U 1 1 5D4AD6FA
P 7050 3600
F 0 "R602" V 6950 3600 50  0000 C CNN
F 1 "100" V 7050 3600 50  0000 C CNN
F 2 "Resistor_SMD:R_0805_2012Metric" V 6980 3600 50  0001 C CNN
F 3 "~" H 7050 3600 50  0001 C CNN
F 4 "CRCW0805100RFKEA" V 7050 3600 50  0001 C CNN "mfg#"
	1    7050 3600
	0    1    1    0   
$EndComp
Wire Wire Line
	7200 3600 7250 3600
$Comp
L Device:C C603
U 1 1 5D4B45BE
P 7250 3800
F 0 "C603" H 7365 3846 50  0000 L CNN
F 1 "1nF" H 7365 3755 50  0000 L CNN
F 2 "Capacitor_SMD:C_0805_2012Metric" H 7288 3650 50  0001 C CNN
F 3 "~" H 7250 3800 50  0001 C CNN
F 4 "CL21B102KBANNNC" H 7250 3800 50  0001 C CNN "mfg#"
	1    7250 3800
	1    0    0    -1  
$EndComp
Wire Wire Line
	7250 3650 7250 3600
Connection ~ 7250 3600
Wire Wire Line
	7250 3600 7275 3600
$Comp
L power:GND #PWR0609
U 1 1 5D4BB58C
P 7250 4000
F 0 "#PWR0609" H 7250 3750 50  0001 C CNN
F 1 "GND" H 7255 3827 50  0000 C CNN
F 2 "" H 7250 4000 50  0001 C CNN
F 3 "" H 7250 4000 50  0001 C CNN
	1    7250 4000
	1    0    0    -1  
$EndComp
Wire Wire Line
	7250 4000 7250 3950
Wire Wire Line
	1075 2600 1150 2600
Wire Wire Line
	1075 2900 1150 2900
Wire Wire Line
	1075 3275 1150 3275
Wire Wire Line
	1075 3575 1150 3575
Wire Wire Line
	1075 3950 1150 3950
Wire Wire Line
	1075 4250 1150 4250
Wire Wire Line
	1075 4625 1150 4625
Wire Wire Line
	1075 4925 1150 4925
Wire Wire Line
	1075 5300 1150 5300
Wire Wire Line
	1075 5600 1150 5600
Wire Wire Line
	3425 5300 3500 5300
Wire Wire Line
	3425 5600 3500 5600
Wire Wire Line
	3425 4625 3500 4625
Wire Wire Line
	3425 4925 3500 4925
Wire Wire Line
	3425 3950 3500 3950
Wire Wire Line
	3425 4250 3500 4250
Wire Wire Line
	3425 3275 3500 3275
Wire Wire Line
	3425 3575 3500 3575
Wire Wire Line
	3425 2600 3500 2600
Wire Wire Line
	3425 2900 3500 2900
Text HLabel 6950 2700 2    60   Input ~ 0
~CS
Text HLabel 6950 2600 2    60   Output ~ 0
DOUT
Text HLabel 6950 2500 2    60   Input ~ 0
DIN
Text HLabel 6950 2400 2    60   Input ~ 0
SCLK
$Comp
L lbl_adc:LTC2451 U602
U 1 1 5D39CA8B
P 9275 5075
F 0 "U602" H 9625 4625 60  0000 R CNN
F 1 "LTC2451" H 9900 4750 60  0000 R CNN
F 2 "Package_TO_SOT_SMD:TSOT-23-8" H 10375 4475 60  0001 C CNN
F 3 "https://www.analog.com/media/en/technical-documentation/data-sheets/2451fg.pdf" H 9275 5075 60  0001 C CNN
F 4 "LTC2451CTS8#TRMPBF" H 9275 5075 50  0001 C CNN "mfg#"
	1    9275 5075
	1    0    0    -1  
$EndComp
Wire Wire Line
	9175 4725 9375 4725
Wire Wire Line
	9375 4625 9375 4725
Connection ~ 9375 4725
Wire Wire Line
	9175 5425 9325 5425
Connection ~ 9325 5425
Wire Wire Line
	9325 5425 9425 5425
Wire Wire Line
	9325 5425 9325 5525
Wire Bus Line
	2500 6600 2500 7600
Wire Bus Line
	1500 6600 1500 7600
$EndSCHEMATC
