EESchema Schematic File Version 4
LIBS:pbv3_mass_test_adapter_active-cache
EELAYER 29 0
EELAYER END
$Descr A4 11693 8268
encoding utf-8
Sheet 19 26
Title "Powerboard v3 Massive Active Tester Board"
Date "2019-06-04"
Rev ""
Comp "Lawrence Berkeley National Laboratory"
Comment1 ""
Comment2 ""
Comment3 ""
Comment4 ""
$EndDescr
Entry Wire Line
	4900 900  5000 1000
Entry Wire Line
	5000 900  5100 1000
Entry Wire Line
	5100 900  5200 1000
Entry Wire Line
	5200 900  5300 1000
Entry Wire Line
	5300 900  5400 1000
Entry Wire Line
	5400 900  5500 1000
Entry Wire Line
	5500 900  5600 1000
Entry Wire Line
	5600 900  5700 1000
Text HLabel 6000 1000 2    60   BiDi ~ 12
SCL[0..7]
Text Label 5000 800  1    60   ~ 12
SCL1
Text Label 5100 800  1    60   ~ 12
SCL2
Text Label 5200 800  1    60   ~ 12
SCL3
Text Label 5300 800  1    60   ~ 12
SCL4
Text Label 5400 800  1    60   ~ 12
SCL5
Text Label 5500 800  1    60   ~ 12
SCL6
Text Label 5600 800  1    60   ~ 12
SCL7
Entry Wire Line
	4900 1400 5000 1500
Entry Wire Line
	5000 1400 5100 1500
Entry Wire Line
	5100 1400 5200 1500
Entry Wire Line
	5200 1400 5300 1500
Entry Wire Line
	5300 1400 5400 1500
Entry Wire Line
	5400 1400 5500 1500
Entry Wire Line
	5500 1400 5600 1500
Entry Wire Line
	5600 1400 5700 1500
Text Label 5000 1300 1    60   ~ 12
SDA1
Text Label 5100 1300 1    60   ~ 12
SDA2
Text Label 5200 1300 1    60   ~ 12
SDA3
Text Label 5300 1300 1    60   ~ 12
SDA4
Text Label 5400 1300 1    60   ~ 12
SDA5
Text Label 5500 1300 1    60   ~ 12
SDA6
Text Label 5600 1300 1    60   ~ 12
SDA7
Text HLabel 6000 1500 2    60   BiDi ~ 12
SDA[0..7]
Text HLabel 850  1650 0    60   BiDi ~ 12
SCL
Text HLabel 850  1750 0    60   BiDi ~ 12
SDA
$Comp
L Device:R R1902
U 1 1 59C650B0
P 1250 1350
F 0 "R1902" V 1330 1350 50  0000 C CNN
F 1 "2k" V 1250 1350 50  0000 C CNN
F 2 "Resistor_SMD:R_0805_2012Metric" V 1180 1350 50  0001 C CNN
F 3 "" H 1250 1350 50  0001 C CNN
	1    1250 1350
	1    0    0    -1  
$EndComp
$Comp
L Device:R R1901
U 1 1 59C650B6
P 1050 1350
F 0 "R1901" V 1130 1350 50  0000 C CNN
F 1 "2k" V 1050 1350 50  0000 C CNN
F 2 "Resistor_SMD:R_0805_2012Metric" V 980 1350 50  0001 C CNN
F 3 "" H 1050 1350 50  0001 C CNN
F 4 "CRCW08052K00FKEAC" V 1050 1350 50  0001 C CNN "mfg#"
	1    1050 1350
	1    0    0    -1  
$EndComp
$Comp
L Device:R R1903
U 1 1 59C650BC
P 1450 1350
F 0 "R1903" V 1530 1350 50  0000 C CNN
F 1 "2k" V 1450 1350 50  0000 C CNN
F 2 "Resistor_SMD:R_0805_2012Metric" V 1380 1350 50  0001 C CNN
F 3 "" H 1450 1350 50  0001 C CNN
	1    1450 1350
	1    0    0    -1  
$EndComp
$Comp
L Interface_Expansion:TCA9548APWR U1901
U 1 1 59C6864F
P 1900 2350
F 0 "U1901" H 1550 3200 50  0000 L CNN
F 1 "TCA9548APWR" H 1950 3200 50  0000 L CNN
F 2 "Package_SO:TSSOP-24_4.4x7.8mm_P0.65mm" H 2900 1450 50  0001 C CNN
F 3 "" H 1950 2600 50  0000 C CNN
F 4 "TCA9548APWR" H 1900 2350 50  0001 C CNN "mfg#"
	1    1900 2350
	1    0    0    -1  
$EndComp
$Comp
L Device:R R1904
U 1 1 59C68658
P 2450 1350
F 0 "R1904" V 2530 1350 50  0000 C CNN
F 1 "2k" V 2450 1350 50  0000 C CNN
F 2 "Resistor_SMD:R_0805_2012Metric" V 2380 1350 50  0001 C CNN
F 3 "" H 2450 1350 50  0001 C CNN
	1    2450 1350
	1    0    0    -1  
$EndComp
$Comp
L Device:R R1906
U 1 1 59C6865E
P 2650 1350
F 0 "R1906" V 2730 1350 50  0000 C CNN
F 1 "2k" V 2650 1350 50  0000 C CNN
F 2 "Resistor_SMD:R_0805_2012Metric" V 2580 1350 50  0001 C CNN
F 3 "" H 2650 1350 50  0001 C CNN
	1    2650 1350
	1    0    0    -1  
$EndComp
$Comp
L Device:R R1905
U 1 1 59C68664
P 2550 1050
F 0 "R1905" V 2630 1050 50  0000 C CNN
F 1 "2k" V 2550 1050 50  0000 C CNN
F 2 "Resistor_SMD:R_0805_2012Metric" V 2480 1050 50  0001 C CNN
F 3 "" H 2550 1050 50  0001 C CNN
	1    2550 1050
	1    0    0    -1  
$EndComp
$Comp
L Device:R R1907
U 1 1 59C6866A
P 2750 1050
F 0 "R1907" V 2830 1050 50  0000 C CNN
F 1 "2k" V 2750 1050 50  0000 C CNN
F 2 "Resistor_SMD:R_0805_2012Metric" V 2680 1050 50  0001 C CNN
F 3 "" H 2750 1050 50  0001 C CNN
	1    2750 1050
	1    0    0    -1  
$EndComp
$Comp
L Device:R R1908
U 1 1 59C68670
P 2850 1350
F 0 "R1908" V 2930 1350 50  0000 C CNN
F 1 "2k" V 2850 1350 50  0000 C CNN
F 2 "Resistor_SMD:R_0805_2012Metric" V 2780 1350 50  0001 C CNN
F 3 "" H 2850 1350 50  0001 C CNN
	1    2850 1350
	1    0    0    -1  
$EndComp
$Comp
L Device:R R1910
U 1 1 59C68676
P 3050 1350
F 0 "R1910" V 3130 1350 50  0000 C CNN
F 1 "2k" V 3050 1350 50  0000 C CNN
F 2 "Resistor_SMD:R_0805_2012Metric" V 2980 1350 50  0001 C CNN
F 3 "" H 3050 1350 50  0001 C CNN
	1    3050 1350
	1    0    0    -1  
$EndComp
$Comp
L Device:R R1909
U 1 1 59C6867C
P 2950 1050
F 0 "R1909" V 3030 1050 50  0000 C CNN
F 1 "2k" V 2950 1050 50  0000 C CNN
F 2 "Resistor_SMD:R_0805_2012Metric" V 2880 1050 50  0001 C CNN
F 3 "" H 2950 1050 50  0001 C CNN
	1    2950 1050
	1    0    0    -1  
$EndComp
$Comp
L Device:R R1911
U 1 1 59C68682
P 3150 1050
F 0 "R1911" V 3230 1050 50  0000 C CNN
F 1 "2k" V 3150 1050 50  0000 C CNN
F 2 "Resistor_SMD:R_0805_2012Metric" V 3080 1050 50  0001 C CNN
F 3 "" H 3150 1050 50  0001 C CNN
	1    3150 1050
	1    0    0    -1  
$EndComp
$Comp
L power:GND #PWR01903
U 1 1 59C686C8
P 1900 3400
F 0 "#PWR01903" H 1900 3150 50  0001 C CNN
F 1 "GND" H 1900 3250 50  0000 C CNN
F 2 "" H 1900 3400 50  0001 C CNN
F 3 "" H 1900 3400 50  0001 C CNN
	1    1900 3400
	1    0    0    -1  
$EndComp
$Comp
L Device:R R1912
U 1 1 5B3DDE49
P 3250 1350
F 0 "R1912" V 3330 1350 50  0000 C CNN
F 1 "2k" V 3250 1350 50  0000 C CNN
F 2 "Resistor_SMD:R_0805_2012Metric" V 3180 1350 50  0001 C CNN
F 3 "" H 3250 1350 50  0001 C CNN
	1    3250 1350
	1    0    0    -1  
$EndComp
$Comp
L Device:R R1913
U 1 1 5B3DDEB6
P 3350 1050
F 0 "R1913" V 3430 1050 50  0000 C CNN
F 1 "2k" V 3350 1050 50  0000 C CNN
F 2 "Resistor_SMD:R_0805_2012Metric" V 3280 1050 50  0001 C CNN
F 3 "" H 3350 1050 50  0001 C CNN
	1    3350 1050
	1    0    0    -1  
$EndComp
$Comp
L Device:R R1914
U 1 1 5B3DDFE5
P 3450 1350
F 0 "R1914" V 3530 1350 50  0000 C CNN
F 1 "2k" V 3450 1350 50  0000 C CNN
F 2 "Resistor_SMD:R_0805_2012Metric" V 3380 1350 50  0001 C CNN
F 3 "" H 3450 1350 50  0001 C CNN
	1    3450 1350
	1    0    0    -1  
$EndComp
$Comp
L Device:R R1915
U 1 1 5B3DDFEB
P 3550 1050
F 0 "R1915" V 3630 1050 50  0000 C CNN
F 1 "2k" V 3550 1050 50  0000 C CNN
F 2 "Resistor_SMD:R_0805_2012Metric" V 3480 1050 50  0001 C CNN
F 3 "" H 3550 1050 50  0001 C CNN
	1    3550 1050
	1    0    0    -1  
$EndComp
$Comp
L Device:R R1916
U 1 1 5B3DE141
P 3650 1350
F 0 "R1916" V 3730 1350 50  0000 C CNN
F 1 "2k" V 3650 1350 50  0000 C CNN
F 2 "Resistor_SMD:R_0805_2012Metric" V 3580 1350 50  0001 C CNN
F 3 "" H 3650 1350 50  0001 C CNN
	1    3650 1350
	1    0    0    -1  
$EndComp
$Comp
L Device:R R1917
U 1 1 5B3DE147
P 3750 1050
F 0 "R1917" V 3830 1050 50  0000 C CNN
F 1 "2k" V 3750 1050 50  0000 C CNN
F 2 "Resistor_SMD:R_0805_2012Metric" V 3680 1050 50  0001 C CNN
F 3 "" H 3750 1050 50  0001 C CNN
	1    3750 1050
	1    0    0    -1  
$EndComp
$Comp
L Device:R R1918
U 1 1 5B3DE14D
P 3850 1350
F 0 "R1918" V 3930 1350 50  0000 C CNN
F 1 "2k" V 3850 1350 50  0000 C CNN
F 2 "Resistor_SMD:R_0805_2012Metric" V 3780 1350 50  0001 C CNN
F 3 "" H 3850 1350 50  0001 C CNN
	1    3850 1350
	1    0    0    -1  
$EndComp
$Comp
L Device:R R1919
U 1 1 5B3DE153
P 3950 1050
F 0 "R1919" V 4030 1050 50  0000 C CNN
F 1 "2k" V 3950 1050 50  0000 C CNN
F 2 "Resistor_SMD:R_0805_2012Metric" V 3880 1050 50  0001 C CNN
F 3 "" H 3950 1050 50  0001 C CNN
	1    3950 1050
	1    0    0    -1  
$EndComp
$Comp
L power:+3V3 #PWR01904
U 1 1 5B406AA3
P 2450 700
F 0 "#PWR01904" H 2450 550 50  0001 C CNN
F 1 "+3V3" H 2450 840 50  0000 C CNN
F 2 "" H 2450 700 50  0001 C CNN
F 3 "" H 2450 700 50  0001 C CNN
	1    2450 700 
	1    0    0    -1  
$EndComp
Wire Wire Line
	4900 900  4900 800 
Wire Wire Line
	5000 900  5000 800 
Wire Wire Line
	5100 900  5100 800 
Wire Wire Line
	5200 900  5200 800 
Wire Wire Line
	5300 900  5300 800 
Wire Wire Line
	5400 900  5400 800 
Wire Wire Line
	5500 900  5500 800 
Wire Wire Line
	5600 900  5600 800 
Wire Wire Line
	4900 1400 4900 1300
Wire Wire Line
	5000 1400 5000 1300
Wire Wire Line
	5100 1400 5100 1300
Wire Wire Line
	5200 1400 5200 1300
Wire Wire Line
	5300 1400 5300 1300
Wire Wire Line
	5400 1400 5400 1300
Wire Wire Line
	5500 1400 5500 1300
Wire Wire Line
	5600 1400 5600 1300
Wire Wire Line
	850  1650 1050 1650
Wire Wire Line
	1050 1650 1050 1500
Wire Wire Line
	850  1750 1250 1750
Wire Wire Line
	1250 1750 1250 1500
Wire Wire Line
	1450 2150 1450 1500
Wire Wire Line
	1050 1200 1050 700 
Connection ~ 1050 700 
Wire Wire Line
	1250 700  1250 1200
Wire Wire Line
	1450 700  1450 1200
Wire Wire Line
	1900 700  1900 1450
Wire Wire Line
	2300 1750 2550 1750
Wire Wire Line
	2550 1750 2550 1200
Wire Wire Line
	2300 1850 2650 1850
Wire Wire Line
	2650 1850 2650 1500
Wire Wire Line
	2750 1950 2750 1200
Wire Wire Line
	2950 1200 2950 2150
Wire Wire Line
	2850 2050 2850 1500
Wire Wire Line
	3050 1500 3050 2250
Wire Wire Line
	3150 2350 3150 1200
Wire Wire Line
	3050 700  3050 1200
Connection ~ 3050 700 
Wire Wire Line
	2850 700  2850 1200
Connection ~ 2850 700 
Wire Wire Line
	2650 700  2650 1200
Connection ~ 2650 700 
Wire Wire Line
	2750 700  2750 900 
Connection ~ 2750 700 
Wire Wire Line
	2950 700  2950 900 
Connection ~ 2950 700 
Wire Wire Line
	2450 1650 2450 1500
Wire Wire Line
	2300 1650 2450 1650
Connection ~ 1050 1650
Connection ~ 1250 1750
Wire Wire Line
	3150 700  3150 900 
Wire Wire Line
	2300 2550 3350 2550
Wire Wire Line
	2300 2750 3550 2750
Connection ~ 2450 1650
Connection ~ 2550 1750
Connection ~ 2650 1850
Connection ~ 2750 1950
Connection ~ 2850 2050
Connection ~ 2950 2150
Connection ~ 3050 2250
Connection ~ 3150 2350
Wire Wire Line
	1500 2150 1450 2150
Connection ~ 3150 700 
Wire Wire Line
	2300 2850 3650 2850
Wire Wire Line
	2300 3150 3950 3150
Wire Wire Line
	2300 3050 3850 3050
Wire Wire Line
	2300 2950 3750 2950
Wire Wire Line
	2300 2650 3450 2650
Wire Wire Line
	2300 2450 3250 2450
Wire Wire Line
	2300 2350 3150 2350
Wire Wire Line
	2300 2250 3050 2250
Wire Wire Line
	2300 2150 2950 2150
Wire Wire Line
	2300 2050 2850 2050
Wire Wire Line
	2300 1950 2750 1950
Wire Wire Line
	3350 900  3350 700 
Connection ~ 3350 700 
Wire Wire Line
	3550 900  3550 700 
Connection ~ 3550 700 
Wire Wire Line
	3450 1200 3450 700 
Connection ~ 3450 700 
Wire Wire Line
	3250 1200 3250 700 
Connection ~ 3250 700 
Wire Wire Line
	3250 1500 3250 2450
Connection ~ 3250 2450
Wire Wire Line
	3350 1200 3350 2550
Connection ~ 3350 2550
Wire Wire Line
	3450 1500 3450 2650
Connection ~ 3450 2650
Wire Wire Line
	3550 1200 3550 2750
Connection ~ 3550 2750
Wire Wire Line
	3650 1500 3650 2850
Connection ~ 3650 2850
Wire Wire Line
	3750 1200 3750 2950
Connection ~ 3750 2950
Wire Wire Line
	3850 1500 3850 3050
Connection ~ 3850 3050
Wire Wire Line
	3950 3150 3950 1200
Connection ~ 3950 3150
Wire Wire Line
	2450 1200 2450 700 
Wire Wire Line
	2550 900  2550 700 
Connection ~ 2550 700 
Wire Wire Line
	3650 1200 3650 700 
Wire Wire Line
	3750 900  3750 700 
Connection ~ 3650 700 
Wire Wire Line
	1900 3400 1900 3350
Wire Wire Line
	1400 2850 1500 2850
Wire Wire Line
	1500 2750 1400 2750
Wire Wire Line
	1400 2650 1500 2650
Wire Wire Line
	1050 700  850  700 
Wire Wire Line
	1250 700  1050 700 
Wire Wire Line
	3050 700  2950 700 
Wire Wire Line
	2850 700  2750 700 
Wire Wire Line
	2650 700  2550 700 
Wire Wire Line
	2750 700  2650 700 
Wire Wire Line
	2950 700  2850 700 
Wire Wire Line
	1050 1650 1500 1650
Wire Wire Line
	1250 1750 1500 1750
Wire Wire Line
	2450 1650 4000 1650
Wire Wire Line
	2550 1750 4000 1750
Wire Wire Line
	2650 1850 4000 1850
Wire Wire Line
	2750 1950 4000 1950
Wire Wire Line
	2850 2050 4000 2050
Wire Wire Line
	2950 2150 4000 2150
Wire Wire Line
	3050 2250 4000 2250
Wire Wire Line
	3150 2350 4000 2350
Wire Wire Line
	3150 700  3050 700 
Wire Wire Line
	3350 700  3250 700 
Wire Wire Line
	3550 700  3450 700 
Wire Wire Line
	3450 700  3350 700 
Wire Wire Line
	3250 700  3150 700 
Wire Wire Line
	3250 2450 4000 2450
Wire Wire Line
	3350 2550 4000 2550
Wire Wire Line
	3450 2650 4000 2650
Wire Wire Line
	3550 2750 4000 2750
Wire Wire Line
	3650 2850 4000 2850
Wire Wire Line
	3750 2950 4000 2950
Wire Wire Line
	3850 3050 4000 3050
Wire Wire Line
	3950 3150 4000 3150
Wire Wire Line
	2550 700  2450 700 
Wire Wire Line
	3750 700  3650 700 
Wire Wire Line
	3650 700  3550 700 
Text Label 4000 1750 0    60   ~ 12
SDA0
Text Label 4000 1950 0    60   ~ 12
SDA1
Text Label 4000 2150 0    60   ~ 12
SDA2
Text Label 4000 2350 0    60   ~ 12
SDA3
Text Label 4000 2550 0    60   ~ 12
SDA4
Text Label 4000 2750 0    60   ~ 12
SDA5
Text Label 4000 2950 0    60   ~ 12
SDA6
Text Label 4000 3150 0    60   ~ 12
SDA7
Wire Wire Line
	3750 700  3850 700 
Wire Wire Line
	3950 700  3950 900 
Connection ~ 3750 700 
Wire Wire Line
	3850 1200 3850 700 
Connection ~ 3850 700 
Wire Wire Line
	3850 700  3950 700 
Text Label 4900 800  1    60   ~ 12
SCL0
Text Label 4900 1300 1    60   ~ 12
SDA0
Text Label 4000 1650 0    60   ~ 12
SCL0
Text Label 4000 1850 0    60   ~ 12
SCL1
Text Label 4000 2050 0    60   ~ 12
SCL2
Text Label 4000 2250 0    60   ~ 12
SCL3
Text Label 4000 2450 0    60   ~ 12
SCL4
Text Label 4000 2650 0    60   ~ 12
SCL5
Text Label 4000 2850 0    60   ~ 12
SCL6
Text Label 4000 3050 0    60   ~ 12
SCL7
Wire Wire Line
	1400 2650 1400 2750
Connection ~ 1400 2750
Wire Wire Line
	1400 2750 1400 2850
Connection ~ 1400 2850
$Comp
L power:GND #PWR01902
U 1 1 5D1E0206
P 1400 3400
F 0 "#PWR01902" H 1400 3150 50  0001 C CNN
F 1 "GND" H 1405 3227 50  0000 C CNN
F 2 "" H 1400 3400 50  0001 C CNN
F 3 "" H 1400 3400 50  0001 C CNN
	1    1400 3400
	1    0    0    -1  
$EndComp
Wire Wire Line
	1400 2850 1400 3400
$Comp
L power:+2V5 #PWR01901
U 1 1 5D2FF0D7
P 850 700
F 0 "#PWR01901" H 850 550 50  0001 C CNN
F 1 "+2V5" H 865 873 50  0000 C CNN
F 2 "" H 850 700 50  0001 C CNN
F 3 "" H 850 700 50  0001 C CNN
	1    850  700 
	1    0    0    -1  
$EndComp
Wire Wire Line
	1450 700  1900 700 
Connection ~ 2450 700 
Wire Wire Line
	1450 700  1250 700 
Connection ~ 1450 700 
Connection ~ 1250 700 
Wire Bus Line
	5000 1500 6000 1500
Wire Bus Line
	5000 1000 6000 1000
$EndSCHEMATC
