EESchema Schematic File Version 4
LIBS:pbv3_mass_test_adapter_active-cache
LIBS:pbv3_test_adapter_massive-cache
EELAYER 29 0
EELAYER END
$Descr A4 11693 8268
encoding utf-8
Sheet 6 21
Title "Powerboard v2 Massive Active Tester Board"
Date "2018-08-03"
Rev ""
Comp "Lawrence Berkeley National Laboratory"
Comment1 ""
Comment2 ""
Comment3 ""
Comment4 ""
$EndDescr
$Comp
L Amplifier_Operational:LM324 U103
U 1 1 59C5D053
P 4050 4150
F 0 "U103" H 4050 4350 50  0000 L CNN
F 1 "LM324" H 4050 3950 50  0000 L CNN
F 2 "Housings_SSOP:TSSOP-14_4.4x5mm_Pitch0.65mm" H 4000 4250 50  0001 C CNN
F 3 "" H 4100 4350 50  0001 C CNN
	1    4050 4150
	1    0    0    -1  
$EndComp
Text HLabel 1550 2050 2    60   Input ~ 0
VOUT1
Text HLabel 1550 1500 2    60   Input ~ 0
VDAC1
$Comp
L Amplifier_Operational:LM324 U103
U 2 1 5B3D2EA2
P 1550 4150
F 0 "U103" H 1550 4350 50  0000 L CNN
F 1 "LM324" H 1550 3950 50  0000 L CNN
F 2 "Housings_SSOP:TSSOP-14_4.4x5mm_Pitch0.65mm" H 1500 4250 50  0001 C CNN
F 3 "" H 1600 4350 50  0001 C CNN
	2    1550 4150
	1    0    0    -1  
$EndComp
$Comp
L Device:R R139
U 1 1 5A1CE87A
P 1000 4350
F 0 "R139" V 1080 4350 50  0000 C CNN
F 1 "5k" V 1000 4350 50  0000 C CNN
F 2 "Resistors_SMD:R_0805" V 930 4350 50  0001 C CNN
F 3 "" H 1000 4350 50  0001 C CNN
	1    1000 4350
	1    0    0    -1  
$EndComp
$Comp
L Device:R R129
U 1 1 5A1CE880
P 1000 3750
F 0 "R129" V 1080 3750 50  0000 C CNN
F 1 "100k" V 1000 3750 50  0000 C CNN
F 2 "Resistors_SMD:R_0805" V 930 3750 50  0001 C CNN
F 3 "" H 1000 3750 50  0001 C CNN
	1    1000 3750
	1    0    0    -1  
$EndComp
$Comp
L Device:R R119
U 1 1 5A1CE88C
P 2700 4750
F 0 "R119" V 2780 4750 50  0000 C CNN
F 1 "25m" V 2700 4750 50  0000 C CNN
F 2 "Resistors_SMD:R_2512" V 2630 4750 50  0001 C CNN
F 3 "" H 2700 4750 50  0001 C CNN
	1    2700 4750
	1    0    0    -1  
$EndComp
$Comp
L power:GND #PWR098
U 1 1 5B3D2EA7
P 2700 5000
F 0 "#PWR098" H 2700 4750 50  0001 C CNN
F 1 "GND" H 2700 4850 50  0000 C CNN
F 2 "" H 2700 5000 50  0001 C CNN
F 3 "" H 2700 5000 50  0001 C CNN
	1    2700 5000
	1    0    0    -1  
$EndComp
Text Label 2800 3450 0    60   ~ 0
VOUT1
$Comp
L power:GND #PWR099
U 1 1 5B3D2EA8
P 3400 1200
F 0 "#PWR099" H 3400 950 50  0001 C CNN
F 1 "GND" H 3400 1050 50  0000 C CNN
F 2 "" H 3400 1200 50  0001 C CNN
F 3 "" H 3400 1200 50  0001 C CNN
	1    3400 1200
	1    0    0    -1  
$EndComp
$Comp
L Device:C C106
U 1 1 5B3D2EA9
P 3150 1150
F 0 "C106" H 3175 1250 50  0000 L CNN
F 1 "0.1uF" H 3175 1050 50  0000 L CNN
F 2 "Capacitors_SMD:C_0805" H 3188 1000 50  0001 C CNN
F 3 "" H 3150 1150 50  0001 C CNN
	1    3150 1150
	0    -1   -1   0   
$EndComp
$Comp
L Device:C C605
U 1 1 5B3D2EAA
P 3150 2350
F 0 "C605" H 3175 2450 50  0000 L CNN
F 1 "0.1uF" H 3175 2250 50  0000 L CNN
F 2 "Capacitors_SMD:C_0805" H 3188 2200 50  0001 C CNN
F 3 "" H 3150 2350 50  0001 C CNN
	1    3150 2350
	0    -1   -1   0   
$EndComp
$Comp
L power:GND #PWR0100
U 1 1 5B3D2EAB
P 3350 2600
F 0 "#PWR0100" H 3350 2350 50  0001 C CNN
F 1 "GND" H 3350 2450 50  0000 C CNN
F 2 "" H 3350 2600 50  0001 C CNN
F 3 "" H 3350 2600 50  0001 C CNN
	1    3350 2600
	1    0    0    -1  
$EndComp
$Comp
L power:-5V #PWR0605
U 1 1 5B3D2EAC
P 2950 2600
F 0 "#PWR0605" H 2950 2700 50  0001 C CNN
F 1 "-5V" H 2950 2750 50  0000 C CNN
F 2 "" H 2950 2600 50  0001 C CNN
F 3 "" H 2950 2600 50  0001 C CNN
	1    2950 2600
	-1   0    0    1   
$EndComp
$Comp
L power:+5V #PWR0101
U 1 1 5A1CE8D4
P 2950 1050
F 0 "#PWR0101" H 2950 900 50  0001 C CNN
F 1 "+5V" H 2950 1190 50  0000 C CNN
F 2 "" H 2950 1050 50  0001 C CNN
F 3 "" H 2950 1050 50  0001 C CNN
	1    2950 1050
	1    0    0    -1  
$EndComp
Text HLabel 1550 2750 2    60   Input ~ 0
VOUT_RTN1
Text Label 2850 4950 0    60   ~ 0
VOUT_RTN1
Wire Wire Line
	1250 4050 1000 4050
Wire Wire Line
	1250 4250 1150 4250
Wire Wire Line
	1150 4250 1150 4550
Wire Wire Line
	1000 3900 1000 4050
Connection ~ 1000 4050
Wire Wire Line
	1000 3600 1000 3500
Wire Wire Line
	1000 3500 900  3500
Wire Wire Line
	1000 4500 1000 5000
Wire Wire Line
	2700 4350 2700 4550
Wire Wire Line
	2700 3950 2700 3450
Wire Wire Line
	2700 3450 2800 3450
Wire Wire Line
	2950 2050 2950 2350
Wire Wire Line
	2950 1050 2950 1150
Connection ~ 2700 4550
Wire Wire Line
	2700 4900 2700 4950
Wire Wire Line
	1850 4150 1950 4150
Wire Wire Line
	3300 1150 3400 1150
Wire Wire Line
	3400 1150 3400 1200
Wire Wire Line
	3300 2350 3350 2350
Wire Wire Line
	3350 2350 3350 2600
Wire Wire Line
	3000 2350 2950 2350
Connection ~ 2950 2350
Wire Wire Line
	3000 1150 2950 1150
Connection ~ 2950 1150
Wire Wire Line
	2700 4950 2850 4950
Connection ~ 2700 4950
$Comp
L Device:R R149
U 1 1 5B3D2EAF
P 2150 4150
F 0 "R149" V 2230 4150 50  0000 C CNN
F 1 "10k" V 2150 4150 50  0000 C CNN
F 2 "Resistors_SMD:R_0805" V 2080 4150 50  0001 C CNN
F 3 "" H 2150 4150 50  0001 C CNN
	1    2150 4150
	0    1    1    0   
$EndComp
$Comp
L Device:R R159
U 1 1 5B3D2EB0
P 2150 4550
F 0 "R159" V 2230 4550 50  0000 C CNN
F 1 "10k" V 2150 4550 50  0000 C CNN
F 2 "Resistors_SMD:R_0805" V 2080 4550 50  0001 C CNN
F 3 "" H 2150 4550 50  0001 C CNN
	1    2150 4550
	0    1    1    0   
$EndComp
$Comp
L Device:C C119
U 1 1 5B3D2EB1
P 1950 4350
F 0 "C119" H 2050 4350 50  0000 L CNN
F 1 "0.1uF" H 1975 4250 50  0000 L CNN
F 2 "Capacitors_SMD:C_0805" H 1988 4200 50  0001 C CNN
F 3 "" H 1950 4350 50  0001 C CNN
	1    1950 4350
	1    0    0    -1  
$EndComp
Wire Wire Line
	2300 4150 2400 4150
Wire Wire Line
	1950 4200 1950 4150
Connection ~ 1950 4150
Wire Wire Line
	1950 4500 1950 4550
Wire Wire Line
	1150 4550 1950 4550
Connection ~ 1950 4550
Wire Wire Line
	2300 4550 2700 4550
$Comp
L Amplifier_Operational:LM324 U103
U 3 1 5B366CA8
P 6550 4150
F 0 "U103" H 6550 4350 50  0000 L CNN
F 1 "LM324" H 6550 3950 50  0000 L CNN
F 2 "Housings_SSOP:TSSOP-14_4.4x5mm_Pitch0.65mm" H 6500 4250 50  0001 C CNN
F 3 "" H 6600 4350 50  0001 C CNN
	3    6550 4150
	1    0    0    -1  
$EndComp
$Comp
L Amplifier_Operational:LM324 U103
U 4 1 5B3681EF
P 9050 4150
F 0 "U103" H 9050 4350 50  0000 L CNN
F 1 "LM324" H 9050 3950 50  0000 L CNN
F 2 "Housings_SSOP:TSSOP-14_4.4x5mm_Pitch0.65mm" H 9000 4250 50  0001 C CNN
F 3 "" H 9100 4350 50  0001 C CNN
	4    9050 4150
	1    0    0    -1  
$EndComp
NoConn ~ 3750 4050
NoConn ~ 3750 4250
NoConn ~ 4350 4150
NoConn ~ 6250 4050
NoConn ~ 6250 4250
NoConn ~ 6850 4150
NoConn ~ 8750 4250
NoConn ~ 9350 4150
Text Label 900  3500 2    60   ~ 0
VDAC1
NoConn ~ 8750 4050
$Comp
L Device:Q_NMOS_GSD Q109
U 1 1 5B3F8832
P 1200 6200
F 0 "Q109" H 1400 6250 50  0000 L CNN
F 1 "BSH105,215" H 1400 6150 50  0000 L CNN
F 2 "TO_SOT_Packages_SMD:SOT-23" H 1400 6300 50  0001 C CNN
F 3 "" H 1200 6200 50  0001 C CNN
	1    1200 6200
	1    0    0    -1  
$EndComp
Text Label 1000 6200 2    60   ~ 0
VOUT1
Wire Wire Line
	1300 6000 1300 5900
Wire Wire Line
	1300 6400 1300 6500
$Comp
L Device:R R109
U 1 1 5B3F8842
P 1300 6650
F 0 "R109" V 1380 6650 50  0000 C CNN
F 1 "621" V 1300 6650 50  0000 C CNN
F 2 "Resistors_SMD:R_0805" V 1230 6650 50  0001 C CNN
F 3 "" H 1300 6650 50  0001 C CNN
	1    1300 6650
	1    0    0    -1  
$EndComp
$Comp
L Device:LED D109
U 1 1 5B3F8849
P 1300 7050
F 0 "D109" H 1300 7150 50  0000 C CNN
F 1 "LED" H 1300 6950 50  0000 C CNN
F 2 "LEDs:LED_1206_HandSoldering" H 1300 7050 50  0001 C CNN
F 3 "" H 1300 7050 50  0001 C CNN
	1    1300 7050
	0    -1   -1   0   
$EndComp
Wire Wire Line
	1300 6900 1300 6800
Wire Wire Line
	1300 7300 1300 7200
$Comp
L power:GND #PWR0102
U 1 1 5B3F8852
P 1300 7300
F 0 "#PWR0102" H 1300 7050 50  0001 C CNN
F 1 "GND" H 1300 7150 50  0000 C CNN
F 2 "" H 1300 7300 50  0001 C CNN
F 3 "" H 1300 7300 50  0001 C CNN
	1    1300 7300
	1    0    0    -1  
$EndComp
$Comp
L power:+3V3 #PWR0103
U 1 1 5B403731
P 1300 5900
F 0 "#PWR0103" H 1300 5750 50  0001 C CNN
F 1 "+3V3" H 1300 6040 50  0000 C CNN
F 2 "" H 1300 5900 50  0001 C CNN
F 3 "" H 1300 5900 50  0001 C CNN
	1    1300 5900
	1    0    0    -1  
$EndComp
$Comp
L Device:Q_NMOS_GDS Q119
U 1 1 5B41672C
P 2600 4150
F 0 "Q119" H 2800 4200 50  0000 L CNN
F 1 "NTD4858N" H 2800 4100 50  0000 L CNN
F 2 "TO_SOT_Packages_SMD:TO-252-2" H 2800 4250 50  0001 C CNN
F 3 "" H 2600 4150 50  0001 C CNN
	1    2600 4150
	1    0    0    -1  
$EndComp
$Comp
L power:GND #PWR0104
U 1 1 5B40835E
P 1000 5000
F 0 "#PWR0104" H 1000 4750 50  0001 C CNN
F 1 "GND" H 1000 4850 50  0000 C CNN
F 2 "" H 1000 5000 50  0001 C CNN
F 3 "" H 1000 5000 50  0001 C CNN
	1    1000 5000
	1    0    0    -1  
$EndComp
Wire Wire Line
	1000 4050 1000 4200
Wire Wire Line
	2700 4550 2700 4600
Wire Wire Line
	2950 2350 2950 2600
Wire Wire Line
	2950 1150 2950 1450
Wire Wire Line
	2700 4950 2700 5000
Wire Wire Line
	1950 4150 2000 4150
Wire Wire Line
	1950 4550 2000 4550
$Comp
L Amplifier_Operational:LM324 U103
U 5 1 5CA82500
P 3050 1750
F 0 "U103" H 3008 1796 50  0000 L CNN
F 1 "LM324" H 3008 1705 50  0000 L CNN
F 2 "" H 3000 1850 50  0001 C CNN
F 3 "http://www.ti.com/lit/ds/symlink/lm2902-n.pdf" H 3100 1950 50  0001 C CNN
	5    3050 1750
	1    0    0    -1  
$EndComp
$EndSCHEMATC
