EESchema Schematic File Version 4
LIBS:pbv3_mass_test_adapter_active-cache
EELAYER 29 0
EELAYER END
$Descr A4 11693 8268
encoding utf-8
Sheet 2 26
Title "Powerboard v3 Massive Active Tester Board"
Date "2019-06-04"
Rev ""
Comp "Lawrence Berkeley National Laboratory"
Comment1 ""
Comment2 ""
Comment3 ""
Comment4 ""
$EndDescr
Text HLabel 900  700  0    60   BiDi ~ 12
SDA
Text HLabel 900  800  0    60   Input ~ 12
SCL
Entry Wire Line
	8850 1900 8950 2000
Entry Wire Line
	8950 1900 9050 2000
Entry Wire Line
	9050 1900 9150 2000
Entry Wire Line
	9150 1900 9250 2000
Entry Wire Line
	9250 1900 9350 2000
Entry Wire Line
	9350 1900 9450 2000
Entry Wire Line
	9450 1900 9550 2000
Entry Wire Line
	9550 1900 9650 2000
Text HLabel 9850 2000 2    60   Input ~ 12
VOUT[0..11]
$Sheet
S 6000 600  1200 400 
U 59CBA3F1
F0 "LVLoad4a" 60
F1 "LVLoad4.sch" 60
F2 "VOUT[0..3]" I R 7200 700 60 
F3 "VDAC[0..3]" I L 6000 700 60 
F4 "VOUT_RTN[0..3]" I R 7200 800 60 
F5 "VSET[0..3]" O R 7200 900 60 
$EndSheet
Text Label 8550 2650 2    60   ~ 12
VDAC1
Text Label 8550 2750 2    60   ~ 12
VDAC2
Text Label 8550 2850 2    60   ~ 12
VDAC3
Text Label 8550 2950 2    60   ~ 12
VDAC4
Text Label 8550 3050 2    60   ~ 12
VDAC5
Text Label 8550 3150 2    60   ~ 12
VDAC6
Text Label 8550 3250 2    60   ~ 12
VDAC7
Text Label 5800 700  2    60   ~ 12
VDACa[0..3]
Text Label 7400 700  0    60   ~ 12
VOUTa[0..3]
Entry Wire Line
	9500 2550 9600 2650
Entry Wire Line
	9500 2650 9600 2750
Entry Wire Line
	9500 2750 9600 2850
Entry Wire Line
	9500 2850 9600 2950
Text Label 9600 3050 3    60   ~ 12
VDACa[0..3]
Entry Wire Line
	9400 2950 9500 3050
Entry Wire Line
	9400 3050 9500 3150
Entry Wire Line
	9400 3150 9500 3250
Entry Wire Line
	9400 3250 9500 3350
Entry Wire Line
	9500 4650 9600 4750
Entry Wire Line
	9500 4750 9600 4850
Entry Wire Line
	9500 4850 9600 4950
Entry Wire Line
	9500 4950 9600 5050
Text Label 9600 5150 3    60   ~ 12
VOUTa[0..3]
Entry Wire Line
	9400 5050 9500 5150
Entry Wire Line
	9400 5150 9500 5250
Entry Wire Line
	9400 5250 9500 5350
Entry Wire Line
	9400 5350 9500 5450
Text Label 9500 5550 3    60   ~ 12
VOUTb[0..3]
Entry Wire Line
	9650 1900 9750 2000
Text Label 8550 3350 2    60   ~ 12
VDAC8
Text Label 8650 1850 1    60   ~ 12
VOUT1
Text Label 8750 1850 1    60   ~ 12
VOUT2
Text Label 8850 1850 1    60   ~ 12
VOUT3
Text Label 8950 1850 1    60   ~ 12
VOUT4
Text Label 9050 1850 1    60   ~ 12
VOUT5
Text Label 9150 1850 1    60   ~ 12
VOUT6
Text Label 9250 1850 1    60   ~ 12
VOUT7
Text Label 9350 1850 1    60   ~ 12
VOUT8
Text Label 9450 1850 1    60   ~ 12
VOUT9
Entry Wire Line
	11050 1350 10950 1250
Entry Wire Line
	10950 1350 10850 1250
Entry Wire Line
	10850 1350 10750 1250
Entry Wire Line
	10750 1350 10650 1250
Entry Wire Line
	10650 1350 10550 1250
Entry Wire Line
	10550 1350 10450 1250
Entry Wire Line
	10450 1350 10350 1250
Entry Wire Line
	10350 1350 10250 1250
Text HLabel 9850 1250 0    60   Output ~ 12
VOUT_RTN[0..11]
Text Label 11050 1400 3    60   ~ 12
VOUT_RTN1
Text Label 10950 1400 3    60   ~ 12
VOUT_RTN2
Text Label 10850 1400 3    60   ~ 12
VOUT_RTN3
Text Label 10750 1400 3    60   ~ 12
VOUT_RTN4
Text Label 10650 1400 3    60   ~ 12
VOUT_RTN5
Text Label 10550 1400 3    60   ~ 12
VOUT_RTN6
Text Label 10450 1400 3    60   ~ 12
VOUT_RTN7
Text Label 10350 1400 3    60   ~ 12
VOUT_RTN8
Text Label 10250 1400 3    60   ~ 12
VOUT_RTN9
Text Label 8550 4750 2    60   ~ 12
VOUT1
Text Label 8550 4850 2    60   ~ 12
VOUT2
Text Label 8550 4950 2    60   ~ 12
VOUT3
Text Label 8550 5050 2    60   ~ 12
VOUT4
Text Label 8550 5150 2    60   ~ 12
VOUT5
Text Label 8550 5250 2    60   ~ 12
VOUT6
Text Label 8550 5350 2    60   ~ 12
VOUT7
Text Label 8550 5450 2    60   ~ 12
VOUT8
Entry Wire Line
	9950 5650 9850 5550
Entry Wire Line
	9950 5550 9850 5450
Entry Wire Line
	9950 5450 9850 5350
Entry Wire Line
	9950 5350 9850 5250
Entry Wire Line
	10050 5250 9950 5150
Entry Wire Line
	10050 5150 9950 5050
Entry Wire Line
	10050 5050 9950 4950
Entry Wire Line
	10050 4950 9950 4850
Text Label 9850 5150 1    60   ~ 12
VOUT_RTNb[0..3]
Text Label 9950 4750 1    60   ~ 12
VOUT_RTNa[0..3]
Text Label 10700 5050 0    60   ~ 12
VOUT_RTN1
Text Label 10700 5150 0    60   ~ 12
VOUT_RTN2
Text Label 10700 5250 0    60   ~ 12
VOUT_RTN3
Text Label 10700 5350 0    60   ~ 12
VOUT_RTN4
Text Label 10700 5450 0    60   ~ 12
VOUT_RTN5
Text Label 10700 5550 0    60   ~ 12
VOUT_RTN6
Text Label 10700 5650 0    60   ~ 12
VOUT_RTN7
Text Label 10700 5750 0    60   ~ 12
VOUT_RTN8
Text Label 7400 800  0    60   ~ 12
VOUT_RTNa[0..3]
$Sheet
S 6000 1200 1200 400 
U 59CC6E78
F0 "LVLoad4b" 60
F1 "LVLoad4.sch" 60
F2 "VOUT[0..3]" I R 7200 1300 60 
F3 "VDAC[0..3]" I L 6000 1300 60 
F4 "VOUT_RTN[0..3]" I R 7200 1400 60 
F5 "VSET[0..3]" O R 7200 1500 60 
$EndSheet
Text Label 5800 1300 2    60   ~ 12
VDACb[0..3]
Text Label 7400 1300 0    60   ~ 12
VOUTb[0..3]
Text Label 7400 1400 0    60   ~ 12
VOUT_RTNb[0..3]
Wire Wire Line
	950  700  900  700 
Wire Wire Line
	950  800  900  800 
Wire Wire Line
	8850 1900 8850 1850
Wire Wire Line
	8950 1900 8950 1850
Wire Wire Line
	9050 1900 9050 1850
Wire Wire Line
	9150 1900 9150 1850
Wire Wire Line
	9250 1900 9250 1850
Wire Wire Line
	9350 1900 9350 1850
Wire Wire Line
	9450 1900 9450 1850
Wire Wire Line
	9550 1900 9550 1850
Wire Wire Line
	8550 2550 9500 2550
Wire Wire Line
	8550 2650 9500 2650
Wire Wire Line
	8550 2750 9500 2750
Wire Wire Line
	8550 2850 9500 2850
Wire Wire Line
	8550 2950 9400 2950
Wire Wire Line
	8550 3050 9400 3050
Wire Wire Line
	8550 3150 9400 3150
Wire Wire Line
	8550 3250 9400 3250
Wire Wire Line
	8550 4650 9500 4650
Wire Wire Line
	8550 4750 9500 4750
Wire Wire Line
	8550 4950 9500 4950
Wire Wire Line
	8550 5050 9400 5050
Wire Wire Line
	8550 5150 9400 5150
Wire Wire Line
	8550 5250 9400 5250
Wire Wire Line
	8550 5350 9400 5350
Wire Bus Line
	6000 700  5800 700 
Wire Bus Line
	7200 700  7400 700 
Wire Wire Line
	9650 1850 9650 1900
Wire Wire Line
	11050 1350 11050 1400
Wire Wire Line
	10950 1350 10950 1400
Wire Wire Line
	10850 1350 10850 1400
Wire Wire Line
	10750 1350 10750 1400
Wire Wire Line
	10650 1350 10650 1400
Wire Wire Line
	10550 1350 10550 1400
Wire Wire Line
	10450 1350 10450 1400
Wire Wire Line
	10350 1350 10350 1400
Wire Wire Line
	10250 1400 10250 1350
Wire Wire Line
	9950 5650 10700 5650
Wire Wire Line
	9950 5550 10700 5550
Wire Wire Line
	9950 5450 10700 5450
Wire Wire Line
	9950 5350 10700 5350
Wire Wire Line
	10050 5250 10700 5250
Wire Wire Line
	10050 5150 10700 5150
Wire Wire Line
	10050 5050 10700 5050
Wire Wire Line
	10050 4950 10700 4950
Wire Bus Line
	7200 800  7400 800 
Wire Bus Line
	6000 1300 5800 1300
Wire Bus Line
	7200 1300 7400 1300
Wire Bus Line
	7200 1400 7400 1400
Text Label 9500 3450 3    60   ~ 12
VDACb[0..3]
Wire Wire Line
	2100 4300 2150 4300
Wire Wire Line
	2150 4000 2150 4050
Connection ~ 2150 4300
$Comp
L power:GND #PWR0215
U 1 1 5B3FCA64
P 2150 6100
F 0 "#PWR0215" H 2150 5850 50  0001 C CNN
F 1 "GND" H 2150 5950 50  0000 C CNN
F 2 "" H 2150 6100 50  0001 C CNN
F 3 "" H 2150 6100 50  0001 C CNN
	1    2150 6100
	1    0    0    -1  
$EndComp
Wire Wire Line
	2150 6100 2150 6000
Connection ~ 2150 6000
Text Label 1300 5200 2    60   ~ 12
SCL
Text Label 1300 5300 2    60   ~ 12
SDA
$Comp
L power:GND #PWR0206
U 1 1 5B3FD336
P 1000 5500
F 0 "#PWR0206" H 1000 5250 50  0001 C CNN
F 1 "GND" H 1000 5350 50  0000 C CNN
F 2 "" H 1000 5500 50  0001 C CNN
F 3 "" H 1000 5500 50  0001 C CNN
	1    1000 5500
	1    0    0    -1  
$EndComp
NoConn ~ 1300 4900
$Comp
L power:GND #PWR0205
U 1 1 5B3FD4A5
P 1000 5000
F 0 "#PWR0205" H 1000 4750 50  0001 C CNN
F 1 "GND" H 1000 4850 50  0000 C CNN
F 2 "" H 1000 5000 50  0001 C CNN
F 3 "" H 1000 5000 50  0001 C CNN
	1    1000 5000
	1    0    0    -1  
$EndComp
Wire Wire Line
	1300 5000 1000 5000
Wire Wire Line
	1300 5500 1000 5500
$Comp
L Device:C C205
U 1 1 5B3FDF81
P 2400 4200
F 0 "C205" H 2425 4300 50  0000 L CNN
F 1 "10uF" H 2425 4100 50  0000 L CNN
F 2 "Capacitor_SMD:C_0805_2012Metric" H 2438 4050 50  0001 C CNN
F 3 "" H 2400 4200 50  0001 C CNN
F 4 "CL21A106KPFNNNG" H 2400 4200 50  0001 C CNN "mfg#"
	1    2400 4200
	1    0    0    -1  
$EndComp
$Comp
L Device:C C207
U 1 1 5B3FE01E
P 2700 4200
F 0 "C207" H 2725 4300 50  0000 L CNN
F 1 "0.1uF" H 2725 4100 50  0000 L CNN
F 2 "Capacitor_SMD:C_0805_2012Metric" H 2738 4050 50  0001 C CNN
F 3 "" H 2700 4200 50  0001 C CNN
	1    2700 4200
	1    0    0    -1  
$EndComp
$Comp
L power:GND #PWR0219
U 1 1 5B3FE1F4
P 2550 4400
F 0 "#PWR0219" H 2550 4150 50  0001 C CNN
F 1 "GND" H 2550 4250 50  0000 C CNN
F 2 "" H 2550 4400 50  0001 C CNN
F 3 "" H 2550 4400 50  0001 C CNN
	1    2550 4400
	1    0    0    -1  
$EndComp
Wire Wire Line
	2700 4350 2550 4350
Connection ~ 2550 4350
Connection ~ 2150 4050
Wire Wire Line
	2550 4350 2550 4400
$Comp
L Device:C C204
U 1 1 5B3FF3F0
P 1150 4500
F 0 "C204" H 1175 4600 50  0000 L CNN
F 1 "10uF" H 1175 4400 50  0000 L CNN
F 2 "Capacitor_SMD:C_0805_2012Metric" H 1188 4350 50  0001 C CNN
F 3 "" H 1150 4500 50  0001 C CNN
	1    1150 4500
	-1   0    0    -1  
$EndComp
$Comp
L Device:C C202
U 1 1 5B3FF3F6
P 850 4500
F 0 "C202" H 875 4600 50  0000 L CNN
F 1 "0.1uF" H 875 4400 50  0000 L CNN
F 2 "Capacitor_SMD:C_0805_2012Metric" H 888 4350 50  0001 C CNN
F 3 "" H 850 4500 50  0001 C CNN
	1    850  4500
	-1   0    0    -1  
$EndComp
$Comp
L power:GND #PWR0204
U 1 1 5B3FF3FC
P 1000 4700
F 0 "#PWR0204" H 1000 4450 50  0001 C CNN
F 1 "GND" H 1000 4550 50  0000 C CNN
F 2 "" H 1000 4700 50  0001 C CNN
F 3 "" H 1000 4700 50  0001 C CNN
	1    1000 4700
	-1   0    0    -1  
$EndComp
Wire Wire Line
	850  4650 1000 4650
Connection ~ 1000 4650
Wire Wire Line
	1000 4650 1000 4700
Wire Wire Line
	1300 4700 1300 4350
$Comp
L lbl_adc:AD7997 U201
U 1 1 5B3FB70A
P 1300 4700
F 0 "U201" H 1600 3650 60  0000 C CNN
F 1 "AD7997" H 1750 4850 60  0000 C CNN
F 2 "Package_SO:TSSOP-20_4.4x6.5mm_P0.65mm" H 2600 3650 60  0001 C CNN
F 3 "" H 1300 4700 60  0000 C CNN
F 4 "AD7997BRUZ-0" H 1300 4700 50  0001 C CNN "mfg#"
	1    1300 4700
	1    0    0    -1  
$EndComp
Wire Wire Line
	4800 4300 4850 4300
Wire Wire Line
	4850 4000 4850 4050
Connection ~ 4850 4300
$Comp
L power:GND #PWR0236
U 1 1 5B4002FC
P 4850 6100
F 0 "#PWR0236" H 4850 5850 50  0001 C CNN
F 1 "GND" H 4850 5950 50  0000 C CNN
F 2 "" H 4850 6100 50  0001 C CNN
F 3 "" H 4850 6100 50  0001 C CNN
	1    4850 6100
	1    0    0    -1  
$EndComp
Wire Wire Line
	4850 6100 4850 6000
Connection ~ 4850 6000
Text Label 4000 5200 2    60   ~ 12
SCL
Text Label 4000 5300 2    60   ~ 12
SDA
NoConn ~ 4000 4900
$Comp
L power:GND #PWR0229
U 1 1 5B400315
P 3700 5000
F 0 "#PWR0229" H 3700 4750 50  0001 C CNN
F 1 "GND" H 3700 4850 50  0000 C CNN
F 2 "" H 3700 5000 50  0001 C CNN
F 3 "" H 3700 5000 50  0001 C CNN
	1    3700 5000
	1    0    0    -1  
$EndComp
Wire Wire Line
	4000 5000 3700 5000
$Comp
L Device:C C213
U 1 1 5B400323
P 5100 4200
F 0 "C213" H 5125 4300 50  0000 L CNN
F 1 "10uF" H 5125 4100 50  0000 L CNN
F 2 "Capacitor_SMD:C_0805_2012Metric" H 5138 4050 50  0001 C CNN
F 3 "" H 5100 4200 50  0001 C CNN
	1    5100 4200
	1    0    0    -1  
$EndComp
$Comp
L Device:C C214
U 1 1 5B400329
P 5400 4200
F 0 "C214" H 5425 4300 50  0000 L CNN
F 1 "0.1uF" H 5425 4100 50  0000 L CNN
F 2 "Capacitor_SMD:C_0805_2012Metric" H 5438 4050 50  0001 C CNN
F 3 "" H 5400 4200 50  0001 C CNN
	1    5400 4200
	1    0    0    -1  
$EndComp
$Comp
L power:GND #PWR0239
U 1 1 5B40032F
P 5250 4400
F 0 "#PWR0239" H 5250 4150 50  0001 C CNN
F 1 "GND" H 5250 4250 50  0000 C CNN
F 2 "" H 5250 4400 50  0001 C CNN
F 3 "" H 5250 4400 50  0001 C CNN
	1    5250 4400
	1    0    0    -1  
$EndComp
Wire Wire Line
	5400 4350 5250 4350
Connection ~ 5250 4350
Connection ~ 4850 4050
Wire Wire Line
	5250 4350 5250 4400
$Comp
L Device:C C210
U 1 1 5B40033B
P 3850 4500
F 0 "C210" H 3875 4600 50  0000 L CNN
F 1 "10uF" H 3875 4400 50  0000 L CNN
F 2 "Capacitor_SMD:C_0805_2012Metric" H 3888 4350 50  0001 C CNN
F 3 "" H 3850 4500 50  0001 C CNN
	1    3850 4500
	-1   0    0    -1  
$EndComp
$Comp
L Device:C C209
U 1 1 5B400341
P 3550 4500
F 0 "C209" H 3575 4600 50  0000 L CNN
F 1 "0.1uF" H 3575 4400 50  0000 L CNN
F 2 "Capacitor_SMD:C_0805_2012Metric" H 3588 4350 50  0001 C CNN
F 3 "" H 3550 4500 50  0001 C CNN
	1    3550 4500
	-1   0    0    -1  
$EndComp
$Comp
L power:GND #PWR0228
U 1 1 5B400347
P 3700 4700
F 0 "#PWR0228" H 3700 4450 50  0001 C CNN
F 1 "GND" H 3700 4550 50  0000 C CNN
F 2 "" H 3700 4700 50  0001 C CNN
F 3 "" H 3700 4700 50  0001 C CNN
	1    3700 4700
	-1   0    0    -1  
$EndComp
Wire Wire Line
	3550 4650 3700 4650
Connection ~ 3700 4650
Wire Wire Line
	3700 4650 3700 4700
Wire Wire Line
	4000 4700 4000 4350
$Comp
L lbl_adc:AD7997 U204
U 1 1 5B400353
P 4000 4700
F 0 "U204" H 4300 3650 60  0000 C CNN
F 1 "AD7997" H 4450 4850 60  0000 C CNN
F 2 "Package_SO:TSSOP-20_4.4x6.5mm_P0.65mm" H 5300 3650 60  0001 C CNN
F 3 "" H 4000 4700 60  0000 C CNN
	1    4000 4700
	1    0    0    -1  
$EndComp
$Comp
L Device:R R201
U 1 1 5B4069D2
P 1100 7300
F 0 "R201" V 1180 7300 50  0000 C CNN
F 1 "10k" V 1100 7300 50  0000 C CNN
F 2 "Resistor_SMD:R_0805_2012Metric" V 1030 7300 50  0001 C CNN
F 3 "" H 1100 7300 50  0001 C CNN
	1    1100 7300
	1    0    0    -1  
$EndComp
$Comp
L Device:Thermistor_NTC TH201
U 1 1 5B406C6A
P 1100 6900
F 0 "TH201" V 925 6900 50  0000 C CNN
F 1 "Thermistor_NTC" V 1225 6900 50  0000 C CNN
F 2 "Resistor_SMD:R_0805_2012Metric" H 1100 6950 50  0001 C CNN
F 3 "" H 1100 6950 50  0001 C CNN
F 4 "NTCG203NH103JTDS" V 1100 6900 50  0001 C CNN "mfg#"
	1    1100 6900
	1    0    0    -1  
$EndComp
Wire Wire Line
	1100 7150 1100 7100
Wire Wire Line
	1100 6750 1100 6550
$Comp
L pbv3_mass_test_adapter_active-rescue:+3.3V- #PWR?
U 1 1 5B406F6B
P 1100 6550
AR Path="/5B406F6B" Ref="#PWR?"  Part="1" 
AR Path="/59C5F008/5B406F6B" Ref="#PWR0207"  Part="1" 
F 0 "#PWR0207" H 1100 6400 50  0001 C CNN
F 1 "+3.3V" H 1100 6690 50  0000 C CNN
F 2 "" H 1100 6550 50  0001 C CNN
F 3 "" H 1100 6550 50  0001 C CNN
	1    1100 6550
	1    0    0    -1  
$EndComp
Wire Wire Line
	1100 7100 850  7100
Connection ~ 1100 7100
Text Label 850  7100 2    60   ~ 12
VNTC0
$Comp
L power:GND #PWR0208
U 1 1 5B407162
P 1100 7550
F 0 "#PWR0208" H 1100 7300 50  0001 C CNN
F 1 "GND" H 1100 7400 50  0000 C CNN
F 2 "" H 1100 7550 50  0001 C CNN
F 3 "" H 1100 7550 50  0001 C CNN
	1    1100 7550
	1    0    0    -1  
$EndComp
Wire Wire Line
	1100 7550 1100 7450
$Comp
L Device:R R202
U 1 1 5B4074C3
P 1800 7300
F 0 "R202" V 1880 7300 50  0000 C CNN
F 1 "10k" V 1800 7300 50  0000 C CNN
F 2 "Resistor_SMD:R_0805_2012Metric" V 1730 7300 50  0001 C CNN
F 3 "" H 1800 7300 50  0001 C CNN
	1    1800 7300
	1    0    0    -1  
$EndComp
$Comp
L Device:Thermistor_NTC TH202
U 1 1 5B4074C9
P 1800 6900
F 0 "TH202" V 1625 6900 50  0000 C CNN
F 1 "Thermistor_NTC" V 1925 6900 50  0000 C CNN
F 2 "Resistor_SMD:R_0805_2012Metric" H 1800 6950 50  0001 C CNN
F 3 "" H 1800 6950 50  0001 C CNN
	1    1800 6900
	1    0    0    -1  
$EndComp
Wire Wire Line
	1800 7150 1800 7100
Wire Wire Line
	1800 6750 1800 6550
$Comp
L pbv3_mass_test_adapter_active-rescue:+3.3V- #PWR?
U 1 1 5B4074D1
P 1800 6550
AR Path="/5B4074D1" Ref="#PWR?"  Part="1" 
AR Path="/59C5F008/5B4074D1" Ref="#PWR0212"  Part="1" 
F 0 "#PWR0212" H 1800 6400 50  0001 C CNN
F 1 "+3.3V" H 1800 6690 50  0000 C CNN
F 2 "" H 1800 6550 50  0001 C CNN
F 3 "" H 1800 6550 50  0001 C CNN
	1    1800 6550
	1    0    0    -1  
$EndComp
Wire Wire Line
	1800 7100 1550 7100
Connection ~ 1800 7100
Text Label 1550 7100 2    60   ~ 12
VNTC1
$Comp
L power:GND #PWR0213
U 1 1 5B4074DA
P 1800 7550
F 0 "#PWR0213" H 1800 7300 50  0001 C CNN
F 1 "GND" H 1800 7400 50  0000 C CNN
F 2 "" H 1800 7550 50  0001 C CNN
F 3 "" H 1800 7550 50  0001 C CNN
	1    1800 7550
	1    0    0    -1  
$EndComp
Wire Wire Line
	1800 7550 1800 7450
$Comp
L Device:R R203
U 1 1 5B4076E1
P 2500 7300
F 0 "R203" V 2580 7300 50  0000 C CNN
F 1 "10k" V 2500 7300 50  0000 C CNN
F 2 "Resistor_SMD:R_0805_2012Metric" V 2430 7300 50  0001 C CNN
F 3 "" H 2500 7300 50  0001 C CNN
	1    2500 7300
	1    0    0    -1  
$EndComp
$Comp
L Device:Thermistor_NTC TH203
U 1 1 5B4076E7
P 2500 6900
F 0 "TH203" V 2325 6900 50  0000 C CNN
F 1 "Thermistor_NTC" V 2625 6900 50  0000 C CNN
F 2 "Resistor_SMD:R_0805_2012Metric" H 2500 6950 50  0001 C CNN
F 3 "" H 2500 6950 50  0001 C CNN
	1    2500 6900
	1    0    0    -1  
$EndComp
Wire Wire Line
	2500 7150 2500 7100
Wire Wire Line
	2500 6750 2500 6550
$Comp
L pbv3_mass_test_adapter_active-rescue:+3.3V- #PWR?
U 1 1 5B4076EF
P 2500 6550
AR Path="/5B4076EF" Ref="#PWR?"  Part="1" 
AR Path="/59C5F008/5B4076EF" Ref="#PWR0217"  Part="1" 
F 0 "#PWR0217" H 2500 6400 50  0001 C CNN
F 1 "+3.3V" H 2500 6690 50  0000 C CNN
F 2 "" H 2500 6550 50  0001 C CNN
F 3 "" H 2500 6550 50  0001 C CNN
	1    2500 6550
	1    0    0    -1  
$EndComp
Wire Wire Line
	2500 7100 2250 7100
Connection ~ 2500 7100
Text Label 2250 7100 2    60   ~ 12
VNTC2
$Comp
L power:GND #PWR0218
U 1 1 5B4076F8
P 2500 7550
F 0 "#PWR0218" H 2500 7300 50  0001 C CNN
F 1 "GND" H 2500 7400 50  0000 C CNN
F 2 "" H 2500 7550 50  0001 C CNN
F 3 "" H 2500 7550 50  0001 C CNN
	1    2500 7550
	1    0    0    -1  
$EndComp
Wire Wire Line
	2500 7550 2500 7450
$Comp
L Device:R R205
U 1 1 5B4076FF
P 3200 7300
F 0 "R205" V 3280 7300 50  0000 C CNN
F 1 "10k" V 3200 7300 50  0000 C CNN
F 2 "Resistor_SMD:R_0805_2012Metric" V 3130 7300 50  0001 C CNN
F 3 "" H 3200 7300 50  0001 C CNN
	1    3200 7300
	1    0    0    -1  
$EndComp
$Comp
L Device:Thermistor_NTC TH204
U 1 1 5B407705
P 3200 6900
F 0 "TH204" V 3025 6900 50  0000 C CNN
F 1 "Thermistor_NTC" V 3325 6900 50  0000 C CNN
F 2 "Resistor_SMD:R_0805_2012Metric" H 3200 6950 50  0001 C CNN
F 3 "" H 3200 6950 50  0001 C CNN
	1    3200 6900
	1    0    0    -1  
$EndComp
Wire Wire Line
	3200 7150 3200 7100
Wire Wire Line
	3200 6750 3200 6550
$Comp
L pbv3_mass_test_adapter_active-rescue:+3.3V- #PWR?
U 1 1 5B40770D
P 3200 6550
AR Path="/5B40770D" Ref="#PWR?"  Part="1" 
AR Path="/59C5F008/5B40770D" Ref="#PWR0223"  Part="1" 
F 0 "#PWR0223" H 3200 6400 50  0001 C CNN
F 1 "+3.3V" H 3200 6690 50  0000 C CNN
F 2 "" H 3200 6550 50  0001 C CNN
F 3 "" H 3200 6550 50  0001 C CNN
	1    3200 6550
	1    0    0    -1  
$EndComp
Wire Wire Line
	3200 7100 2950 7100
Connection ~ 3200 7100
Text Label 2950 7100 2    60   ~ 12
VNTC3
$Comp
L power:GND #PWR0224
U 1 1 5B407716
P 3200 7550
F 0 "#PWR0224" H 3200 7300 50  0001 C CNN
F 1 "GND" H 3200 7400 50  0000 C CNN
F 2 "" H 3200 7550 50  0001 C CNN
F 3 "" H 3200 7550 50  0001 C CNN
	1    3200 7550
	1    0    0    -1  
$EndComp
Wire Wire Line
	3200 7550 3200 7450
Text Label 3000 4900 0    60   ~ 12
VNTC1
Text Label 5700 4900 0    60   ~ 12
VNTC3
Text Label 3000 5500 0    60   ~ 12
VOUT0
Text Label 5700 5100 0    60   ~ 12
VNTC2
$Comp
L Device:R R206
U 1 1 5B40B5AC
P 3800 5500
F 0 "R206" V 3880 5500 50  0000 C CNN
F 1 "100k" V 3800 5500 50  0000 C CNN
F 2 "Resistor_SMD:R_0805_2012Metric" V 3730 5500 50  0001 C CNN
F 3 "" H 3800 5500 50  0001 C CNN
F 4 "CRCW0805100KFKEA" V 3800 5500 50  0001 C CNN "mfg#"
	1    3800 5500
	0    1    1    0   
$EndComp
Wire Wire Line
	4000 5500 3950 5500
Wire Wire Line
	3650 5500 3650 5450
$Comp
L pbv3_mass_test_adapter_active-rescue:+3.3V- #PWR?
U 1 1 5B40B8D7
P 3650 5450
AR Path="/5B40B8D7" Ref="#PWR?"  Part="1" 
AR Path="/59C5F008/5B40B8D7" Ref="#PWR0227"  Part="1" 
F 0 "#PWR0227" H 3650 5300 50  0001 C CNN
F 1 "+3.3V" H 3650 5590 50  0000 C CNN
F 2 "" H 3650 5450 50  0001 C CNN
F 3 "" H 3650 5450 50  0001 C CNN
	1    3650 5450
	1    0    0    -1  
$EndComp
$Comp
L power:+3V3 #PWR0235
U 1 1 5B40274A
P 4850 4000
F 0 "#PWR0235" H 4850 3850 50  0001 C CNN
F 1 "+3V3" H 4850 4140 50  0000 C CNN
F 2 "" H 4850 4000 50  0001 C CNN
F 3 "" H 4850 4000 50  0001 C CNN
	1    4850 4000
	1    0    0    -1  
$EndComp
$Comp
L power:+3V3 #PWR0214
U 1 1 5B4027DC
P 2150 4000
F 0 "#PWR0214" H 2150 3850 50  0001 C CNN
F 1 "+3V3" H 2150 4140 50  0000 C CNN
F 2 "" H 2150 4000 50  0001 C CNN
F 3 "" H 2150 4000 50  0001 C CNN
	1    2150 4000
	1    0    0    -1  
$EndComp
$Comp
L power:+3V3 #PWR0209
U 1 1 5B40286E
P 1300 4350
F 0 "#PWR0209" H 1300 4200 50  0001 C CNN
F 1 "+3V3" H 1300 4490 50  0000 C CNN
F 2 "" H 1300 4350 50  0001 C CNN
F 3 "" H 1300 4350 50  0001 C CNN
	1    1300 4350
	1    0    0    -1  
$EndComp
$Comp
L power:+3V3 #PWR0230
U 1 1 5B4029FC
P 4000 4350
F 0 "#PWR0230" H 4000 4200 50  0001 C CNN
F 1 "+3V3" H 4000 4490 50  0000 C CNN
F 2 "" H 4000 4350 50  0001 C CNN
F 3 "" H 4000 4350 50  0001 C CNN
	1    4000 4350
	1    0    0    -1  
$EndComp
Text Label 2200 2350 0    60   ~ 12
VDAC3
Text Label 2200 2150 0    60   ~ 12
VDAC0
Text Label 2200 2250 0    60   ~ 12
VDAC1
Text Label 2200 2050 0    60   ~ 12
VDAC2
$Comp
L Device:C C201
U 1 1 5B401528
P 800 1550
F 0 "C201" H 825 1650 50  0000 L CNN
F 1 "0.1uF" H 825 1450 50  0000 L CNN
F 2 "Capacitor_SMD:C_0805_2012Metric" H 838 1400 50  0001 C CNN
F 3 "" H 800 1550 50  0001 C CNN
	1    800  1550
	1    0    0    -1  
$EndComp
$Comp
L Device:C C203
U 1 1 5B40152F
P 1000 1550
F 0 "C203" H 1025 1650 50  0000 L CNN
F 1 "10uF" H 1025 1450 50  0000 L CNN
F 2 "Capacitor_SMD:C_0805_2012Metric" H 1038 1400 50  0001 C CNN
F 3 "" H 1000 1550 50  0001 C CNN
	1    1000 1550
	1    0    0    -1  
$EndComp
Wire Wire Line
	2050 2050 2200 2050
Wire Wire Line
	2050 2150 2200 2150
Wire Wire Line
	2050 2250 2200 2250
Wire Wire Line
	2050 2350 2200 2350
Wire Wire Line
	1050 2050 1000 2050
Wire Wire Line
	1050 2150 1000 2150
$Comp
L power:GND #PWR0202
U 1 1 5B40153C
P 900 1750
F 0 "#PWR0202" H 900 1500 50  0001 C CNN
F 1 "GND" H 900 1600 50  0000 C CNN
F 2 "" H 900 1750 50  0001 C CNN
F 3 "" H 900 1750 50  0001 C CNN
	1    900  1750
	1    0    0    -1  
$EndComp
Wire Wire Line
	800  1700 900  1700
Wire Wire Line
	900  1750 900  1700
Connection ~ 900  1700
Wire Wire Line
	800  1400 800  1350
Wire Wire Line
	1000 1400 1000 1350
$Comp
L power:+3V3 #PWR0210
U 1 1 5B401547
P 1550 1700
F 0 "#PWR0210" H 1550 1550 50  0001 C CNN
F 1 "+3V3" H 1550 1840 50  0000 C CNN
F 2 "" H 1550 1700 50  0001 C CNN
F 3 "" H 1550 1700 50  0001 C CNN
	1    1550 1700
	1    0    0    -1  
$EndComp
$Comp
L lbl_dac:DAC5574 U202
U 1 1 5B40154D
P 1550 2450
F 0 "U202" H 1200 3050 50  0000 L CNN
F 1 "DAC5574" H 1700 3050 50  0000 L CNN
F 2 "Package_SO:MSOP-10_3x3mm_P0.5mm" H 2450 2350 50  0001 C CIN
F 3 "" H 1550 2250 50  0001 C CNN
F 4 "DAC5574IDGSR" H 1550 2450 50  0001 C CNN "mfg#"
	1    1550 2450
	1    0    0    -1  
$EndComp
Wire Wire Line
	1000 1350 900  1350
Wire Wire Line
	900  1350 900  1250
Connection ~ 900  1350
$Comp
L power:+3V3 #PWR0201
U 1 1 5B401559
P 900 1250
F 0 "#PWR0201" H 900 1100 50  0001 C CNN
F 1 "+3V3" H 900 1390 50  0000 C CNN
F 2 "" H 900 1250 50  0001 C CNN
F 3 "" H 900 1250 50  0001 C CNN
	1    900  1250
	1    0    0    -1  
$EndComp
$Comp
L power:GND #PWR0211
U 1 1 5B40155F
P 1550 2700
F 0 "#PWR0211" H 1550 2450 50  0001 C CNN
F 1 "GND" H 1550 2550 50  0000 C CNN
F 2 "" H 1550 2700 50  0001 C CNN
F 3 "" H 1550 2700 50  0001 C CNN
	1    1550 2700
	1    0    0    -1  
$EndComp
Wire Wire Line
	1550 2700 1550 2650
Wire Wire Line
	1550 1750 1550 1700
$Comp
L power:GND #PWR0203
U 1 1 5B40193E
P 1000 2700
F 0 "#PWR0203" H 1000 2450 50  0001 C CNN
F 1 "GND" H 1000 2550 50  0000 C CNN
F 2 "" H 1000 2700 50  0001 C CNN
F 3 "" H 1000 2700 50  0001 C CNN
	1    1000 2700
	1    0    0    -1  
$EndComp
Wire Wire Line
	1050 2300 1000 2300
Wire Wire Line
	1000 2300 1000 2400
Wire Wire Line
	1050 2400 1000 2400
Connection ~ 1000 2400
Text Label 3950 2150 0    60   ~ 12
VDAC4
Text Label 3950 2250 0    60   ~ 12
VDAC5
Text Label 3950 2050 0    60   ~ 12
VDAC6
Text Label 3950 2350 0    60   ~ 12
VDAC7
$Comp
L Device:C C206
U 1 1 5B40214A
P 2550 1550
F 0 "C206" H 2575 1650 50  0000 L CNN
F 1 "0.1uF" H 2575 1450 50  0000 L CNN
F 2 "Capacitor_SMD:C_0805_2012Metric" H 2588 1400 50  0001 C CNN
F 3 "" H 2550 1550 50  0001 C CNN
	1    2550 1550
	1    0    0    -1  
$EndComp
$Comp
L Device:C C208
U 1 1 5B402150
P 2750 1550
F 0 "C208" H 2775 1650 50  0000 L CNN
F 1 "10uF" H 2775 1450 50  0000 L CNN
F 2 "Capacitor_SMD:C_0805_2012Metric" H 2788 1400 50  0001 C CNN
F 3 "" H 2750 1550 50  0001 C CNN
	1    2750 1550
	1    0    0    -1  
$EndComp
Wire Wire Line
	3800 2050 3950 2050
Wire Wire Line
	3800 2150 3950 2150
Wire Wire Line
	3800 2250 3950 2250
Wire Wire Line
	3800 2350 3950 2350
Wire Wire Line
	2800 2050 2750 2050
Wire Wire Line
	2800 2150 2750 2150
$Comp
L power:GND #PWR0221
U 1 1 5B40215C
P 2650 1750
F 0 "#PWR0221" H 2650 1500 50  0001 C CNN
F 1 "GND" H 2650 1600 50  0000 C CNN
F 2 "" H 2650 1750 50  0001 C CNN
F 3 "" H 2650 1750 50  0001 C CNN
	1    2650 1750
	1    0    0    -1  
$EndComp
Wire Wire Line
	2550 1700 2650 1700
Wire Wire Line
	2650 1750 2650 1700
Connection ~ 2650 1700
Wire Wire Line
	2550 1400 2550 1350
Wire Wire Line
	2750 1400 2750 1350
$Comp
L power:+3V3 #PWR0225
U 1 1 5B402167
P 3300 1700
F 0 "#PWR0225" H 3300 1550 50  0001 C CNN
F 1 "+3V3" H 3300 1840 50  0000 C CNN
F 2 "" H 3300 1700 50  0001 C CNN
F 3 "" H 3300 1700 50  0001 C CNN
	1    3300 1700
	1    0    0    -1  
$EndComp
$Comp
L lbl_dac:DAC5574 U203
U 1 1 5B40216D
P 3300 2450
F 0 "U203" H 2950 3050 50  0000 L CNN
F 1 "DAC5574" H 3450 3050 50  0000 L CNN
F 2 "Package_SO:MSOP-10_3x3mm_P0.5mm" H 4200 2350 50  0001 C CIN
F 3 "" H 3300 2250 50  0001 C CNN
	1    3300 2450
	1    0    0    -1  
$EndComp
Wire Wire Line
	2750 1350 2650 1350
Wire Wire Line
	2650 1350 2650 1250
Connection ~ 2650 1350
$Comp
L power:+3V3 #PWR0220
U 1 1 5B402178
P 2650 1250
F 0 "#PWR0220" H 2650 1100 50  0001 C CNN
F 1 "+3V3" H 2650 1390 50  0000 C CNN
F 2 "" H 2650 1250 50  0001 C CNN
F 3 "" H 2650 1250 50  0001 C CNN
	1    2650 1250
	1    0    0    -1  
$EndComp
$Comp
L power:GND #PWR0226
U 1 1 5B40217E
P 3300 2700
F 0 "#PWR0226" H 3300 2450 50  0001 C CNN
F 1 "GND" H 3300 2550 50  0000 C CNN
F 2 "" H 3300 2700 50  0001 C CNN
F 3 "" H 3300 2700 50  0001 C CNN
	1    3300 2700
	1    0    0    -1  
$EndComp
Wire Wire Line
	3300 2700 3300 2650
Wire Wire Line
	3300 1750 3300 1700
$Comp
L power:GND #PWR0222
U 1 1 5B402186
P 2750 2700
F 0 "#PWR0222" H 2750 2450 50  0001 C CNN
F 1 "GND" H 2750 2550 50  0000 C CNN
F 2 "" H 2750 2700 50  0001 C CNN
F 3 "" H 2750 2700 50  0001 C CNN
	1    2750 2700
	1    0    0    -1  
$EndComp
Wire Wire Line
	2600 2300 2800 2300
Wire Wire Line
	2800 2400 2750 2400
Text Label 1000 2050 2    60   ~ 12
SDA
Text Label 2750 2050 2    60   ~ 12
SDA
Text Label 1000 2150 2    60   ~ 12
SCL
Text Label 2750 2150 2    60   ~ 12
SCL
Text Label 5700 2150 0    60   ~ 12
VDAC8
$Comp
L Device:C C211
U 1 1 5B4034CA
P 4300 1550
F 0 "C211" H 4325 1650 50  0000 L CNN
F 1 "0.1uF" H 4325 1450 50  0000 L CNN
F 2 "Capacitor_SMD:C_0805_2012Metric" H 4338 1400 50  0001 C CNN
F 3 "" H 4300 1550 50  0001 C CNN
	1    4300 1550
	1    0    0    -1  
$EndComp
$Comp
L Device:C C212
U 1 1 5B4034D0
P 4500 1550
F 0 "C212" H 4525 1650 50  0000 L CNN
F 1 "10uF" H 4525 1450 50  0000 L CNN
F 2 "Capacitor_SMD:C_0805_2012Metric" H 4538 1400 50  0001 C CNN
F 3 "" H 4500 1550 50  0001 C CNN
	1    4500 1550
	1    0    0    -1  
$EndComp
Wire Wire Line
	4550 2050 4500 2050
Wire Wire Line
	4550 2150 4500 2150
$Comp
L power:GND #PWR0233
U 1 1 5B4034DC
P 4400 1750
F 0 "#PWR0233" H 4400 1500 50  0001 C CNN
F 1 "GND" H 4400 1600 50  0000 C CNN
F 2 "" H 4400 1750 50  0001 C CNN
F 3 "" H 4400 1750 50  0001 C CNN
	1    4400 1750
	1    0    0    -1  
$EndComp
Wire Wire Line
	4300 1700 4400 1700
Wire Wire Line
	4400 1750 4400 1700
Connection ~ 4400 1700
Wire Wire Line
	4300 1400 4300 1350
Wire Wire Line
	4500 1400 4500 1350
$Comp
L power:+3V3 #PWR0237
U 1 1 5B4034E7
P 5050 1700
F 0 "#PWR0237" H 5050 1550 50  0001 C CNN
F 1 "+3V3" H 5050 1840 50  0000 C CNN
F 2 "" H 5050 1700 50  0001 C CNN
F 3 "" H 5050 1700 50  0001 C CNN
	1    5050 1700
	1    0    0    -1  
$EndComp
Wire Wire Line
	4500 1350 4400 1350
Wire Wire Line
	4400 1350 4400 1250
Connection ~ 4400 1350
$Comp
L power:+3V3 #PWR0232
U 1 1 5B4034F6
P 4400 1250
F 0 "#PWR0232" H 4400 1100 50  0001 C CNN
F 1 "+3V3" H 4400 1390 50  0000 C CNN
F 2 "" H 4400 1250 50  0001 C CNN
F 3 "" H 4400 1250 50  0001 C CNN
	1    4400 1250
	1    0    0    -1  
$EndComp
$Comp
L power:GND #PWR0238
U 1 1 5B4034FC
P 5050 2700
F 0 "#PWR0238" H 5050 2450 50  0001 C CNN
F 1 "GND" H 5050 2550 50  0000 C CNN
F 2 "" H 5050 2700 50  0001 C CNN
F 3 "" H 5050 2700 50  0001 C CNN
	1    5050 2700
	1    0    0    -1  
$EndComp
Wire Wire Line
	5050 2700 5050 2650
Wire Wire Line
	5050 1750 5050 1700
$Comp
L power:GND #PWR0234
U 1 1 5B403504
P 4500 2700
F 0 "#PWR0234" H 4500 2450 50  0001 C CNN
F 1 "GND" H 4500 2550 50  0000 C CNN
F 2 "" H 4500 2700 50  0001 C CNN
F 3 "" H 4500 2700 50  0001 C CNN
	1    4500 2700
	1    0    0    -1  
$EndComp
Wire Wire Line
	4550 2300 4500 2300
Wire Wire Line
	4500 2300 4500 2700
Text Label 4500 2050 2    60   ~ 12
SDA
Text Label 4500 2150 2    60   ~ 12
SCL
$Comp
L Device:R R204
U 1 1 5B404CF3
P 2600 2450
F 0 "R204" V 2680 2450 50  0000 C CNN
F 1 "100k" V 2600 2450 50  0000 C CNN
F 2 "Resistor_SMD:R_0805_2012Metric" V 2530 2450 50  0001 C CNN
F 3 "" H 2600 2450 50  0001 C CNN
	1    2600 2450
	1    0    0    -1  
$EndComp
Wire Wire Line
	2750 2400 2750 2700
$Comp
L power:+3V3 #PWR0216
U 1 1 5B40501F
P 2450 2600
F 0 "#PWR0216" H 2450 2450 50  0001 C CNN
F 1 "+3V3" H 2450 2740 50  0000 C CNN
F 2 "" H 2450 2600 50  0001 C CNN
F 3 "" H 2450 2600 50  0001 C CNN
	1    2450 2600
	1    0    0    -1  
$EndComp
Wire Wire Line
	2450 2600 2600 2600
$Comp
L Device:R R207
U 1 1 5B405880
P 4350 2550
F 0 "R207" V 4430 2550 50  0000 C CNN
F 1 "100k" V 4350 2550 50  0000 C CNN
F 2 "Resistor_SMD:R_0805_2012Metric" V 4280 2550 50  0001 C CNN
F 3 "" H 4350 2550 50  0001 C CNN
	1    4350 2550
	1    0    0    -1  
$EndComp
Wire Wire Line
	4550 2400 4350 2400
$Comp
L power:+3V3 #PWR0231
U 1 1 5B405A42
P 4200 2700
F 0 "#PWR0231" H 4200 2550 50  0001 C CNN
F 1 "+3V3" H 4200 2840 50  0000 C CNN
F 2 "" H 4200 2700 50  0001 C CNN
F 3 "" H 4200 2700 50  0001 C CNN
	1    4200 2700
	1    0    0    -1  
$EndComp
Wire Wire Line
	4200 2700 4350 2700
Wire Wire Line
	5700 2150 5550 2150
Wire Wire Line
	2150 4300 2200 4300
Wire Wire Line
	2550 4350 2400 4350
Wire Wire Line
	2150 4050 2150 4300
Wire Wire Line
	1000 4650 1150 4650
Wire Wire Line
	4850 4300 4900 4300
Wire Wire Line
	5250 4350 5100 4350
Wire Wire Line
	4850 4050 4850 4300
Wire Wire Line
	3700 4650 3850 4650
Wire Wire Line
	1100 7100 1100 7050
Wire Wire Line
	1800 7100 1800 7050
Wire Wire Line
	2500 7100 2500 7050
Wire Wire Line
	3200 7100 3200 7050
Wire Wire Line
	900  1700 1000 1700
Wire Wire Line
	900  1350 800  1350
Wire Wire Line
	1000 2400 1000 2700
Wire Wire Line
	2650 1700 2750 1700
Wire Wire Line
	2650 1350 2550 1350
Wire Wire Line
	4400 1700 4500 1700
Wire Wire Line
	4400 1350 4300 1350
Wire Wire Line
	2000 6000 2100 6000
Wire Wire Line
	2150 4050 2400 4050
Wire Wire Line
	850  4350 1150 4350
Wire Wire Line
	4700 6000 4800 6000
Wire Wire Line
	4850 4050 5100 4050
Wire Wire Line
	3550 4350 3850 4350
Wire Wire Line
	2150 6000 2200 6000
Wire Wire Line
	4850 6000 4900 6000
Connection ~ 2100 6000
Wire Wire Line
	2100 6000 2150 6000
Connection ~ 2200 6000
Wire Wire Line
	2200 6000 2300 6000
Connection ~ 1150 4350
Wire Wire Line
	1150 4350 1300 4350
Connection ~ 3850 4350
Wire Wire Line
	3850 4350 4000 4350
Connection ~ 4800 6000
Wire Wire Line
	4800 6000 4850 6000
Connection ~ 4900 6000
Wire Wire Line
	4900 6000 5000 6000
Connection ~ 2400 4050
Wire Wire Line
	2400 4050 2700 4050
Connection ~ 5100 4050
Wire Wire Line
	5100 4050 5400 4050
Text Label 5700 2250 0    60   ~ 12
VDAC9
Wire Wire Line
	5700 2250 5550 2250
Text Label 5700 5300 0    60   ~ 12
VOUT7
Text Label 5700 5500 0    60   ~ 12
VOUT6
Text Label 5700 5400 0    60   ~ 12
VOUT8
Text Label 3000 4800 0    60   ~ 12
VOUT5
Text Label 3000 5000 0    60   ~ 12
VOUT4
Text Label 5700 5200 0    60   ~ 12
VOUT9
Text Label 3000 5400 0    60   ~ 12
VOUT2
Text Label 8550 1850 1    60   ~ 12
VOUT0
Entry Wire Line
	8750 1900 8850 2000
Wire Wire Line
	8750 1900 8750 1850
Text Label 11150 1400 3    60   ~ 12
VOUT_RTN0
Entry Wire Line
	11150 1350 11050 1250
Wire Wire Line
	11150 1350 11150 1400
Text Label 8550 2550 2    60   ~ 12
VDAC0
Text Label 8550 3450 2    60   ~ 12
VDAC9
Text Label 9200 2550 2    60   ~ 12
VDACa0
Text Label 9200 2650 2    60   ~ 12
VDACa1
Text Label 9200 2750 2    60   ~ 12
VDACa2
Text Label 9200 2850 2    60   ~ 12
VDACa3
Text Label 9200 2950 2    60   ~ 12
VDACb0
Text Label 9200 3050 2    60   ~ 12
VDACb1
Text Label 9200 3150 2    60   ~ 12
VDACb2
Text Label 9200 3250 2    60   ~ 12
VDACb3
Text Label 9200 3350 2    60   ~ 12
VDACc0
Text Label 9200 3450 2    60   ~ 12
VDACc1
Text Label 9400 3850 3    60   ~ 12
VDACc[0..3]
Entry Wire Line
	9300 3350 9400 3450
Entry Wire Line
	9300 3450 9400 3550
Entry Wire Line
	9300 3550 9400 3650
Entry Wire Line
	9300 3650 9400 3750
Wire Wire Line
	9300 3350 8550 3350
Wire Wire Line
	9300 3450 8550 3450
Wire Wire Line
	9300 3550 8550 3550
Wire Wire Line
	9300 3650 8550 3650
$Sheet
S 8900 600  1200 400 
U 5CF391C7
F0 "LVLoad4c" 60
F1 "LVLoad4.sch" 60
F2 "VOUT[0..3]" I R 10100 700 60 
F3 "VDAC[0..3]" I L 8900 700 60 
F4 "VOUT_RTN[0..3]" I R 10100 800 60 
F5 "VSET[0..3]" O R 10100 900 60 
$EndSheet
Text Label 8700 700  2    60   ~ 12
VDACc[0..3]
Text Label 10300 700  0    60   ~ 12
VOUTc[0..3]
Text Label 10300 800  0    60   ~ 12
VOUT_RTNc[0..3]
Wire Bus Line
	8900 700  8700 700 
Wire Bus Line
	10100 700  10300 700 
Wire Bus Line
	10100 800  10300 800 
Text Label 8550 4650 2    60   ~ 12
VOUT0
Text Label 8550 5550 2    60   ~ 12
VOUT9
Entry Wire Line
	9300 5750 9400 5850
Text Label 9400 5950 3    60   ~ 12
VOUTc[0..3]
Entry Wire Line
	9300 5450 9400 5550
Entry Wire Line
	9300 5550 9400 5650
Entry Wire Line
	9300 5650 9400 5750
Wire Wire Line
	8550 5450 9300 5450
Wire Wire Line
	9300 5550 8550 5550
Wire Wire Line
	9300 5650 8550 5650
Wire Wire Line
	9300 5750 8550 5750
Wire Wire Line
	8550 4850 9500 4850
Text Label 9200 4650 2    60   ~ 12
VOUTa0
Text Label 9200 4750 2    60   ~ 12
VOUTa1
Text Label 9200 4850 2    60   ~ 12
VOUTa2
Text Label 9200 4950 2    60   ~ 12
VOUTa3
Text Label 9200 5050 2    60   ~ 12
VOUTb0
Text Label 9200 5150 2    60   ~ 12
VOUTb1
Text Label 9200 5250 2    60   ~ 12
VOUTb2
Text Label 9200 5350 2    60   ~ 12
VOUTb3
Text Label 9200 5450 2    60   ~ 12
VOUTc0
Text Label 9200 5550 2    60   ~ 12
VOUTc1
Text Label 9200 5650 2    60   ~ 12
VOUTc2
Text Label 9200 5750 2    60   ~ 12
VOUTc3
Text Label 10700 4950 0    60   ~ 12
VOUT_RTN0
Text Label 10700 5850 0    60   ~ 12
VOUT_RTN9
Entry Wire Line
	9850 6050 9750 5950
Entry Wire Line
	9850 5950 9750 5850
Entry Wire Line
	9850 5850 9750 5750
Entry Wire Line
	9850 5750 9750 5650
Text Label 9750 5550 1    60   ~ 12
VOUT_RTNc[0..3]
Wire Wire Line
	9850 5750 10700 5750
Wire Wire Line
	9850 5850 10700 5850
Wire Wire Line
	9850 5950 10700 5950
Wire Wire Line
	9850 6050 10700 6050
Text Label 10100 4950 0    60   ~ 12
VOUT_RTNa0
Text Label 10100 5050 0    60   ~ 12
VOUT_RTNa1
Text Label 10100 5150 0    60   ~ 12
VOUT_RTNa2
Text Label 10100 5250 0    60   ~ 12
VOUT_RTNa3
Text Label 10100 5350 0    60   ~ 12
VOUT_RTNb0
Text Label 10100 5450 0    60   ~ 12
VOUT_RTNb1
Text Label 10100 5550 0    60   ~ 12
VOUT_RTNb2
Text Label 10100 5650 0    60   ~ 12
VOUT_RTNb3
Text Label 10100 5750 0    60   ~ 12
VOUT_RTNc0
Text Label 10100 5850 0    60   ~ 12
VOUT_RTNc1
Text Label 10100 5950 0    60   ~ 12
VOUT_RTNc2
Text Label 10100 6050 0    60   ~ 12
VOUT_RTNc3
$Comp
L power:GND #PWR?
U 1 1 5D55F554
P 6900 4900
AR Path="/59CA64BD/5D55F554" Ref="#PWR?"  Part="1" 
AR Path="/59C5F008/5D55F554" Ref="#PWR0243"  Part="1" 
F 0 "#PWR0243" H 6900 4650 50  0001 C CNN
F 1 "GND" H 6900 4750 50  0000 C CNN
F 2 "" H 6900 4900 50  0001 C CNN
F 3 "" H 6900 4900 50  0001 C CNN
	1    6900 4900
	-1   0    0    -1  
$EndComp
Text Label 7300 4100 0    60   ~ 12
SDA
Text Label 7300 4000 0    60   ~ 12
SCL
$Comp
L Device:C C?
U 1 1 5D55F560
P 7550 3750
AR Path="/59CA64BD/5D55F560" Ref="C?"  Part="1" 
AR Path="/59C5F008/5D55F560" Ref="C216"  Part="1" 
F 0 "C216" H 7575 3850 50  0000 L CNN
F 1 "0.1uF" H 7575 3650 50  0000 L CNN
F 2 "Capacitor_SMD:C_0805_2012Metric" H 7588 3600 50  0001 C CNN
F 3 "" H 7550 3750 50  0001 C CNN
	1    7550 3750
	-1   0    0    -1  
$EndComp
$Comp
L Device:C C?
U 1 1 5D55F56A
P 7850 3750
AR Path="/59CA64BD/5D55F56A" Ref="C?"  Part="1" 
AR Path="/59C5F008/5D55F56A" Ref="C219"  Part="1" 
F 0 "C219" H 7875 3850 50  0000 L CNN
F 1 "10uF" H 7875 3650 50  0000 L CNN
F 2 "Capacitor_SMD:C_0805_2012Metric" H 7888 3600 50  0001 C CNN
F 3 "" H 7850 3750 50  0001 C CNN
	1    7850 3750
	-1   0    0    -1  
$EndComp
$Comp
L power:GND #PWR?
U 1 1 5D55F574
P 7700 3950
AR Path="/59CA64BD/5D55F574" Ref="#PWR?"  Part="1" 
AR Path="/59C5F008/5D55F574" Ref="#PWR0249"  Part="1" 
F 0 "#PWR0249" H 7700 3700 50  0001 C CNN
F 1 "GND" H 7700 3800 50  0000 C CNN
F 2 "" H 7700 3950 50  0001 C CNN
F 3 "" H 7700 3950 50  0001 C CNN
	1    7700 3950
	1    0    0    -1  
$EndComp
$Comp
L power:+3V3 #PWR?
U 1 1 5D55F57E
P 6900 3650
AR Path="/59CA64BD/5D55F57E" Ref="#PWR?"  Part="1" 
AR Path="/59C5F008/5D55F57E" Ref="#PWR0242"  Part="1" 
F 0 "#PWR0242" H 6900 3500 50  0001 C CNN
F 1 "+3V3" H 6900 3790 50  0000 C CNN
F 2 "" H 6900 3650 50  0001 C CNN
F 3 "" H 6900 3650 50  0001 C CNN
	1    6900 3650
	1    0    0    -1  
$EndComp
$Comp
L Analog_ADC:MCP3428 U?
U 1 1 5D55F588
P 6900 4200
AR Path="/59CA64BD/5D55F588" Ref="U?"  Part="1" 
AR Path="/59C5F008/5D55F588" Ref="U207"  Part="1" 
F 0 "U207" H 6750 4650 50  0000 R CNN
F 1 "MCP3428" H 7000 4650 50  0000 L CNN
F 2 "Package_SO:TSSOP-14_4.4x5mm_P0.65mm" H 6900 4200 50  0001 C CNN
F 3 "" H 6900 4200 50  0001 C CNN
F 4 "MCP3428-E/SL" H 6900 4200 50  0001 C CNN "mfg#"
	1    6900 4200
	1    0    0    -1  
$EndComp
Wire Wire Line
	6900 4900 6900 4850
Connection ~ 6900 4850
Wire Wire Line
	7700 3950 7700 3900
Wire Wire Line
	7550 3900 7700 3900
Connection ~ 7700 3900
Wire Wire Line
	7850 3600 7700 3600
Wire Wire Line
	7700 3600 7700 3550
Connection ~ 7700 3600
Wire Wire Line
	7300 4300 7350 4300
Wire Wire Line
	7350 4850 6900 4850
Wire Wire Line
	6900 4850 6900 4800
Wire Wire Line
	7700 3900 7850 3900
Wire Wire Line
	7700 3600 7550 3600
$Comp
L power:+3V3 #PWR0248
U 1 1 5D55F5A3
P 7700 3550
F 0 "#PWR0248" H 7700 3400 50  0001 C CNN
F 1 "+3V3" H 7715 3723 50  0000 C CNN
F 2 "" H 7700 3550 50  0001 C CNN
F 3 "" H 7700 3550 50  0001 C CNN
	1    7700 3550
	1    0    0    -1  
$EndComp
Wire Wire Line
	6900 3650 6900 3700
$Comp
L power:GND #PWR?
U 1 1 5D572DD6
P 6900 6550
AR Path="/59CA64BD/5D572DD6" Ref="#PWR?"  Part="1" 
AR Path="/59C5F008/5D572DD6" Ref="#PWR0245"  Part="1" 
F 0 "#PWR0245" H 6900 6300 50  0001 C CNN
F 1 "GND" H 6900 6400 50  0000 C CNN
F 2 "" H 6900 6550 50  0001 C CNN
F 3 "" H 6900 6550 50  0001 C CNN
	1    6900 6550
	-1   0    0    -1  
$EndComp
Text Label 7300 5750 0    60   ~ 12
SDA
Text Label 7300 5650 0    60   ~ 12
SCL
$Comp
L Device:C C?
U 1 1 5D572DE2
P 7550 5400
AR Path="/59CA64BD/5D572DE2" Ref="C?"  Part="1" 
AR Path="/59C5F008/5D572DE2" Ref="C217"  Part="1" 
F 0 "C217" H 7575 5500 50  0000 L CNN
F 1 "0.1uF" H 7575 5300 50  0000 L CNN
F 2 "Capacitor_SMD:C_0805_2012Metric" H 7588 5250 50  0001 C CNN
F 3 "" H 7550 5400 50  0001 C CNN
	1    7550 5400
	-1   0    0    -1  
$EndComp
$Comp
L Device:C C?
U 1 1 5D572DEC
P 7850 5400
AR Path="/59CA64BD/5D572DEC" Ref="C?"  Part="1" 
AR Path="/59C5F008/5D572DEC" Ref="C220"  Part="1" 
F 0 "C220" H 7875 5500 50  0000 L CNN
F 1 "10uF" H 7875 5300 50  0000 L CNN
F 2 "Capacitor_SMD:C_0805_2012Metric" H 7888 5250 50  0001 C CNN
F 3 "" H 7850 5400 50  0001 C CNN
	1    7850 5400
	-1   0    0    -1  
$EndComp
$Comp
L power:GND #PWR?
U 1 1 5D572DF6
P 7700 5600
AR Path="/59CA64BD/5D572DF6" Ref="#PWR?"  Part="1" 
AR Path="/59C5F008/5D572DF6" Ref="#PWR0251"  Part="1" 
F 0 "#PWR0251" H 7700 5350 50  0001 C CNN
F 1 "GND" H 7700 5450 50  0000 C CNN
F 2 "" H 7700 5600 50  0001 C CNN
F 3 "" H 7700 5600 50  0001 C CNN
	1    7700 5600
	1    0    0    -1  
$EndComp
$Comp
L power:+3V3 #PWR?
U 1 1 5D572E00
P 6900 5300
AR Path="/59CA64BD/5D572E00" Ref="#PWR?"  Part="1" 
AR Path="/59C5F008/5D572E00" Ref="#PWR0244"  Part="1" 
F 0 "#PWR0244" H 6900 5150 50  0001 C CNN
F 1 "+3V3" H 6900 5440 50  0000 C CNN
F 2 "" H 6900 5300 50  0001 C CNN
F 3 "" H 6900 5300 50  0001 C CNN
	1    6900 5300
	1    0    0    -1  
$EndComp
$Comp
L Analog_ADC:MCP3428 U?
U 1 1 5D572E0A
P 6900 5850
AR Path="/59CA64BD/5D572E0A" Ref="U?"  Part="1" 
AR Path="/59C5F008/5D572E0A" Ref="U208"  Part="1" 
F 0 "U208" H 6750 6300 50  0000 R CNN
F 1 "MCP3428" H 7000 6300 50  0000 L CNN
F 2 "Package_SO:TSSOP-14_4.4x5mm_P0.65mm" H 6900 5850 50  0001 C CNN
F 3 "" H 6900 5850 50  0001 C CNN
	1    6900 5850
	1    0    0    -1  
$EndComp
Wire Wire Line
	6900 6550 6900 6500
Connection ~ 6900 6500
Wire Wire Line
	7700 5600 7700 5550
Wire Wire Line
	7550 5550 7700 5550
Connection ~ 7700 5550
Wire Wire Line
	7850 5250 7700 5250
Wire Wire Line
	7700 5250 7700 5200
Connection ~ 7700 5250
Wire Wire Line
	7300 6050 7350 6050
Wire Wire Line
	7350 6500 6900 6500
Wire Wire Line
	6900 6500 6900 6450
Wire Wire Line
	7700 5550 7850 5550
Wire Wire Line
	7700 5250 7550 5250
Wire Wire Line
	7350 6050 7350 6500
$Comp
L power:+3V3 #PWR0250
U 1 1 5D572E25
P 7700 5200
F 0 "#PWR0250" H 7700 5050 50  0001 C CNN
F 1 "+3V3" H 7715 5373 50  0000 C CNN
F 2 "" H 7700 5200 50  0001 C CNN
F 3 "" H 7700 5200 50  0001 C CNN
	1    7700 5200
	1    0    0    -1  
$EndComp
Wire Wire Line
	6900 5300 6900 5350
Text Label 6500 4100 2    60   ~ 12
VSET4
Text Label 6500 4300 2    60   ~ 12
VSET5
Text Label 6500 3900 2    60   ~ 12
VSET6
Text Label 6500 4500 2    60   ~ 12
VSET7
Text Label 6500 5750 2    60   ~ 12
VSET8
Text Label 6500 5950 2    60   ~ 12
VSET9
Text Label 6500 5550 2    60   ~ 12
VSET10
Text Label 6500 6150 2    60   ~ 12
VSET11
Text Label 6500 4200 2    60   ~ 12
VOUT_RTN4
Text Label 6500 4400 2    60   ~ 12
VOUT_RTN5
Text Label 6500 4000 2    60   ~ 12
VOUT_RTN6
Text Label 6500 4600 2    60   ~ 12
VOUT_RTN7
Text Label 6500 5850 2    60   ~ 12
VOUT_RTN8
Text Label 6500 6050 2    60   ~ 12
VOUT_RTN9
Text Label 6500 5650 2    60   ~ 12
VOUT_RTN10
Text Label 6500 6250 2    60   ~ 12
VOUT_RTN11
$Comp
L Device:R R208
U 1 1 5D5DB42F
P 7500 4550
F 0 "R208" H 7570 4596 50  0000 L CNN
F 1 "10k" H 7570 4505 50  0000 L CNN
F 2 "Resistor_SMD:R_0805_2012Metric" V 7430 4550 50  0001 C CNN
F 3 "~" H 7500 4550 50  0001 C CNN
	1    7500 4550
	1    0    0    -1  
$EndComp
$Comp
L power:+3V3 #PWR0252
U 1 1 5D5DC334
P 7750 4700
F 0 "#PWR0252" H 7750 4550 50  0001 C CNN
F 1 "+3V3" H 7765 4873 50  0000 C CNN
F 2 "" H 7750 4700 50  0001 C CNN
F 3 "" H 7750 4700 50  0001 C CNN
	1    7750 4700
	1    0    0    -1  
$EndComp
Wire Wire Line
	7750 4700 7500 4700
Wire Wire Line
	7300 4400 7500 4400
Wire Wire Line
	7350 4850 7350 4300
$Comp
L Device:R R209
U 1 1 5D61079A
P 7500 6100
F 0 "R209" H 7570 6146 50  0000 L CNN
F 1 "10k" H 7570 6055 50  0000 L CNN
F 2 "Resistor_SMD:R_0805_2012Metric" V 7430 6100 50  0001 C CNN
F 3 "~" H 7500 6100 50  0001 C CNN
	1    7500 6100
	1    0    0    -1  
$EndComp
$Comp
L power:+3V3 #PWR0253
U 1 1 5D6107A4
P 7750 6250
F 0 "#PWR0253" H 7750 6100 50  0001 C CNN
F 1 "+3V3" H 7765 6423 50  0000 C CNN
F 2 "" H 7750 6250 50  0001 C CNN
F 3 "" H 7750 6250 50  0001 C CNN
	1    7750 6250
	1    0    0    -1  
$EndComp
Wire Wire Line
	7750 6250 7500 6250
Wire Wire Line
	7300 5950 7500 5950
Text Label 6500 2950 2    60   ~ 12
VOUT_RTN3
Text Label 6500 2350 2    60   ~ 12
VOUT_RTN2
Text Label 6500 2750 2    60   ~ 12
VOUT_RTN1
Text Label 6500 2850 2    60   ~ 12
VSET3
Text Label 6500 2250 2    60   ~ 12
VSET2
Text Label 6500 2650 2    60   ~ 12
VSET1
Text Label 6500 2450 2    60   ~ 12
VSET0
Text Label 6500 2550 2    60   ~ 12
VOUT_RTN0
Wire Wire Line
	6900 2000 6900 2050
$Comp
L power:+3V3 #PWR0246
U 1 1 5D538895
P 7700 1900
F 0 "#PWR0246" H 7700 1750 50  0001 C CNN
F 1 "+3V3" H 7715 2073 50  0000 C CNN
F 2 "" H 7700 1900 50  0001 C CNN
F 3 "" H 7700 1900 50  0001 C CNN
	1    7700 1900
	1    0    0    -1  
$EndComp
Wire Wire Line
	7350 2750 7350 3200
Wire Wire Line
	7700 1950 7550 1950
Wire Wire Line
	7700 2250 7850 2250
Wire Wire Line
	6900 3200 6900 3150
Wire Wire Line
	7350 3200 6900 3200
Connection ~ 7350 2750
Wire Wire Line
	7300 2750 7350 2750
Wire Wire Line
	7350 2650 7350 2750
Wire Wire Line
	7300 2650 7350 2650
Connection ~ 7700 1950
Wire Wire Line
	7700 1950 7700 1900
Wire Wire Line
	7850 1950 7700 1950
Connection ~ 7700 2250
Wire Wire Line
	7550 2250 7700 2250
Wire Wire Line
	7700 2300 7700 2250
Connection ~ 6900 3200
Wire Wire Line
	6900 3250 6900 3200
$Comp
L Analog_ADC:MCP3428 U?
U 1 1 5D501754
P 6900 2550
AR Path="/59CA64BD/5D501754" Ref="U?"  Part="1" 
AR Path="/59C5F008/5D501754" Ref="U206"  Part="1" 
F 0 "U206" H 6750 3000 50  0000 R CNN
F 1 "MCP3428" H 7000 3000 50  0000 L CNN
F 2 "Package_SO:TSSOP-14_4.4x5mm_P0.65mm" H 6900 2550 50  0001 C CNN
F 3 "" H 6900 2550 50  0001 C CNN
	1    6900 2550
	1    0    0    -1  
$EndComp
$Comp
L power:+3V3 #PWR?
U 1 1 5D50174E
P 6900 2000
AR Path="/59CA64BD/5D50174E" Ref="#PWR?"  Part="1" 
AR Path="/59C5F008/5D50174E" Ref="#PWR0240"  Part="1" 
F 0 "#PWR0240" H 6900 1850 50  0001 C CNN
F 1 "+3V3" H 6900 2140 50  0000 C CNN
F 2 "" H 6900 2000 50  0001 C CNN
F 3 "" H 6900 2000 50  0001 C CNN
	1    6900 2000
	1    0    0    -1  
$EndComp
$Comp
L power:GND #PWR?
U 1 1 5D501748
P 7700 2300
AR Path="/59CA64BD/5D501748" Ref="#PWR?"  Part="1" 
AR Path="/59C5F008/5D501748" Ref="#PWR0247"  Part="1" 
F 0 "#PWR0247" H 7700 2050 50  0001 C CNN
F 1 "GND" H 7700 2150 50  0000 C CNN
F 2 "" H 7700 2300 50  0001 C CNN
F 3 "" H 7700 2300 50  0001 C CNN
	1    7700 2300
	1    0    0    -1  
$EndComp
$Comp
L Device:C C?
U 1 1 5D501729
P 7850 2100
AR Path="/59CA64BD/5D501729" Ref="C?"  Part="1" 
AR Path="/59C5F008/5D501729" Ref="C218"  Part="1" 
F 0 "C218" H 7875 2200 50  0000 L CNN
F 1 "10uF" H 7875 2000 50  0000 L CNN
F 2 "Capacitor_SMD:C_0805_2012Metric" H 7888 1950 50  0001 C CNN
F 3 "" H 7850 2100 50  0001 C CNN
	1    7850 2100
	-1   0    0    -1  
$EndComp
$Comp
L Device:C C?
U 1 1 5D501723
P 7550 2100
AR Path="/59CA64BD/5D501723" Ref="C?"  Part="1" 
AR Path="/59C5F008/5D501723" Ref="C215"  Part="1" 
F 0 "C215" H 7575 2200 50  0000 L CNN
F 1 "0.1uF" H 7575 2000 50  0000 L CNN
F 2 "Capacitor_SMD:C_0805_2012Metric" H 7588 1950 50  0001 C CNN
F 3 "" H 7550 2100 50  0001 C CNN
	1    7550 2100
	-1   0    0    -1  
$EndComp
Text Label 7300 2350 0    60   ~ 12
SCL
Text Label 7300 2450 0    60   ~ 12
SDA
$Comp
L power:GND #PWR?
U 1 1 5D50171B
P 6900 3250
AR Path="/59CA64BD/5D50171B" Ref="#PWR?"  Part="1" 
AR Path="/59C5F008/5D50171B" Ref="#PWR0241"  Part="1" 
F 0 "#PWR0241" H 6900 3000 50  0001 C CNN
F 1 "GND" H 6900 3100 50  0000 C CNN
F 2 "" H 6900 3250 50  0001 C CNN
F 3 "" H 6900 3250 50  0001 C CNN
	1    6900 3250
	-1   0    0    -1  
$EndComp
Text Label 7400 1500 0    60   ~ 12
VSETb[0..3]
Wire Bus Line
	7200 1500 7400 1500
Text Label 7400 900  0    60   ~ 12
VSETa[0..3]
Wire Bus Line
	7200 900  7400 900 
Text Label 10300 900  0    60   ~ 12
VSETc[0..3]
Wire Bus Line
	10100 900  10300 900 
Entry Wire Line
	9950 3550 9850 3450
Entry Wire Line
	9950 3450 9850 3350
Entry Wire Line
	9950 3350 9850 3250
Entry Wire Line
	9950 3250 9850 3150
Entry Wire Line
	10050 3150 9950 3050
Entry Wire Line
	10050 3050 9950 2950
Entry Wire Line
	10050 2950 9950 2850
Entry Wire Line
	10050 2850 9950 2750
Text Label 9850 3050 1    60   ~ 12
VSETb[0..3]
Text Label 9950 2650 1    60   ~ 12
VSETa[0..3]
Wire Wire Line
	9950 3550 10700 3550
Wire Wire Line
	9950 3450 10700 3450
Wire Wire Line
	9950 3350 10700 3350
Wire Wire Line
	9950 3250 10700 3250
Wire Wire Line
	10050 3150 10700 3150
Wire Wire Line
	10050 3050 10700 3050
Wire Wire Line
	10050 2950 10700 2950
Wire Wire Line
	10050 2850 10700 2850
Entry Wire Line
	9850 3950 9750 3850
Entry Wire Line
	9850 3850 9750 3750
Entry Wire Line
	9850 3750 9750 3650
Entry Wire Line
	9850 3650 9750 3550
Text Label 9750 3450 1    60   ~ 12
VSETc[0..3]
Wire Wire Line
	9850 3650 10700 3650
Wire Wire Line
	9850 3750 10700 3750
Wire Wire Line
	9850 3850 10700 3850
Wire Wire Line
	9850 3950 10700 3950
Text Label 10700 2850 0    60   ~ 12
VSET0
Text Label 10700 2950 0    60   ~ 12
VSET1
Text Label 10700 3050 0    60   ~ 12
VSET2
Text Label 10700 3150 0    60   ~ 12
VSET3
Text Label 10700 3250 0    60   ~ 12
VSET4
Text Label 10700 3350 0    60   ~ 12
VSET5
Text Label 10700 3450 0    60   ~ 12
VSET6
Text Label 10700 3550 0    60   ~ 12
VSET7
Text Label 10700 3650 0    60   ~ 12
VSET8
Text Label 10700 3750 0    60   ~ 12
VSET9
Text Label 10100 2850 0    60   ~ 12
VSETa0
Text Label 10100 2950 0    60   ~ 12
VSETa1
Text Label 10100 3050 0    60   ~ 12
VSETa2
Text Label 10100 3150 0    60   ~ 12
VSETa3
Text Label 10100 3250 0    60   ~ 12
VSETb0
Text Label 10100 3350 0    60   ~ 12
VSETb1
Text Label 10100 3450 0    60   ~ 12
VSETb2
Text Label 10100 3550 0    60   ~ 12
VSETb3
Text Label 10100 3650 0    60   ~ 12
VSETc0
Text Label 10100 3750 0    60   ~ 12
VSETc1
Text Label 10100 3850 0    60   ~ 12
VSETc2
Text Label 10100 3950 0    60   ~ 12
VSETc3
Text Label 10700 3850 0    60   ~ 12
VSET10
Text Label 10700 3950 0    60   ~ 12
VSET11
Text Label 8550 3550 2    60   ~ 12
VDAC10
Text Label 8550 3650 2    60   ~ 12
VDAC11
Text Label 9200 3550 2    60   ~ 12
VDACc2
Text Label 9200 3650 2    60   ~ 12
VDACc3
$Comp
L lbl_dac:DAC5574 U205
U 1 1 5B4034ED
P 5050 2450
F 0 "U205" H 4700 3050 50  0000 L CNN
F 1 "DAC5574" H 5200 3050 50  0000 L CNN
F 2 "Package_SO:MSOP-10_3x3mm_P0.5mm" H 5950 2350 50  0001 C CIN
F 3 "" H 5050 2250 50  0001 C CNN
	1    5050 2450
	1    0    0    -1  
$EndComp
Wire Wire Line
	5550 2350 5700 2350
Text Label 5700 2350 0    60   ~ 12
VDAC11
Text Label 5700 2050 0    60   ~ 12
VDAC10
Wire Wire Line
	5700 2050 5550 2050
Text Label 8550 5650 2    60   ~ 12
VOUT10
Text Label 8550 5750 2    60   ~ 12
VOUT11
Text Label 10700 5950 0    60   ~ 12
VOUT_RTN10
Text Label 10700 6050 0    60   ~ 12
VOUT_RTN11
Text Label 5700 4800 0    60   ~ 12
VOUT10
Text Label 5700 5000 0    60   ~ 12
VOUT11
Entry Wire Line
	10250 1350 10150 1250
Entry Wire Line
	10150 1350 10050 1250
Entry Wire Line
	10050 1350 9950 1250
Text Label 10150 1400 3    60   ~ 12
VOUT_RTN10
Text Label 10050 1400 3    60   ~ 12
VOUT_RTN11
Wire Wire Line
	10150 1350 10150 1400
Wire Wire Line
	10050 1400 10050 1350
Entry Wire Line
	8650 1900 8750 2000
Wire Wire Line
	8650 1900 8650 1850
Entry Wire Line
	8550 1900 8650 2000
Wire Wire Line
	8550 1900 8550 1850
Text Label 9550 1850 1    60   ~ 12
VOUT10
Text Label 9650 1850 1    60   ~ 12
VOUT11
Text Label 3000 5200 0    60   ~ 0
VOUT3
Text Label 3000 5100 0    60   ~ 12
VNTC0
Text Label 3000 5300 0    60   ~ 12
VOUT1
Wire Bus Line
	9750 5550 9750 5950
Wire Bus Line
	9400 5550 9400 5950
Wire Bus Line
	9400 3450 9400 3850
Wire Bus Line
	9950 4750 9950 5150
Wire Bus Line
	9850 5150 9850 5550
Wire Bus Line
	9500 5150 9500 5550
Wire Bus Line
	9600 4750 9600 5150
Wire Bus Line
	9500 3050 9500 3450
Wire Bus Line
	9600 2650 9600 3050
Wire Bus Line
	9750 3450 9750 3850
Wire Bus Line
	9950 2650 9950 3050
Wire Bus Line
	9850 3050 9850 3450
Wire Bus Line
	8650 2000 9850 2000
Wire Bus Line
	9850 1250 11050 1250
$EndSCHEMATC
