EESchema Schematic File Version 4
LIBS:pbv3_mass_test_adapter_active-cache
EELAYER 29 0
EELAYER END
$Descr A4 11693 8268
encoding utf-8
Sheet 26 26
Title "Powerboard v3 Massive Active Tester Board"
Date "2019-06-04"
Rev ""
Comp "Lawrence Berkeley National Laboratory"
Comment1 ""
Comment2 ""
Comment3 ""
Comment4 ""
$EndDescr
$Comp
L power:+5V #PWR02612
U 1 1 5A260093
P 6650 3750
AR Path="/59C2F489/5A260093" Ref="#PWR02612"  Part="1" 
AR Path="/5D418DA8/5A260093" Ref="#PWR?"  Part="1" 
F 0 "#PWR02612" H 6650 3600 50  0001 C CNN
F 1 "+5V" H 6650 3890 50  0000 C CNN
F 2 "" H 6650 3750 50  0001 C CNN
F 3 "" H 6650 3750 50  0001 C CNN
	1    6650 3750
	1    0    0    -1  
$EndComp
$Comp
L power:+5V #PWR02620
U 1 1 5A2600D2
P 10350 3750
AR Path="/59C2F489/5A2600D2" Ref="#PWR02620"  Part="1" 
AR Path="/5D418DA8/5A2600D2" Ref="#PWR?"  Part="1" 
F 0 "#PWR02620" H 10350 3600 50  0001 C CNN
F 1 "+5V" H 10350 3890 50  0000 C CNN
F 2 "" H 10350 3750 50  0001 C CNN
F 3 "" H 10350 3750 50  0001 C CNN
	1    10350 3750
	-1   0    0    -1  
$EndComp
$Comp
L power:+5V #PWR02622
U 1 1 5A2600F2
P 10650 1500
AR Path="/59C2F489/5A2600F2" Ref="#PWR02622"  Part="1" 
AR Path="/5D418DA8/5A2600F2" Ref="#PWR?"  Part="1" 
F 0 "#PWR02622" H 10650 1350 50  0001 C CNN
F 1 "+5V" H 10650 1640 50  0000 C CNN
F 2 "" H 10650 1500 50  0001 C CNN
F 3 "" H 10650 1500 50  0001 C CNN
	1    10650 1500
	-1   0    0    -1  
$EndComp
Text HLabel 10100 1400 2    60   Output ~ 12
PWR_EN
$Comp
L power:GND #PWR02615
U 1 1 5A260431
P 6950 6050
AR Path="/59C2F489/5A260431" Ref="#PWR02615"  Part="1" 
AR Path="/5D418DA8/5A260431" Ref="#PWR?"  Part="1" 
F 0 "#PWR02615" H 6950 5800 50  0001 C CNN
F 1 "GND" H 6950 5900 50  0000 C CNN
F 2 "" H 6950 6050 50  0001 C CNN
F 3 "" H 6950 6050 50  0001 C CNN
	1    6950 6050
	1    0    0    -1  
$EndComp
$Comp
L power:GND #PWR02617
U 1 1 5A260590
P 10050 6050
AR Path="/59C2F489/5A260590" Ref="#PWR02617"  Part="1" 
AR Path="/5D418DA8/5A260590" Ref="#PWR?"  Part="1" 
F 0 "#PWR02617" H 10050 5800 50  0001 C CNN
F 1 "GND" H 10050 5900 50  0000 C CNN
F 2 "" H 10050 6050 50  0001 C CNN
F 3 "" H 10050 6050 50  0001 C CNN
	1    10050 6050
	-1   0    0    -1  
$EndComp
NoConn ~ 9500 1000
NoConn ~ 9500 1200
NoConn ~ 9500 1600
NoConn ~ 9500 5600
NoConn ~ 9500 5700
NoConn ~ 9500 5900
NoConn ~ 7500 1100
NoConn ~ 7500 1200
NoConn ~ 7500 1400
NoConn ~ 2900 1000
NoConn ~ 2900 1100
NoConn ~ 2900 1200
NoConn ~ 2900 1300
NoConn ~ 2900 5800
NoConn ~ 2900 5900
NoConn ~ 4900 1000
NoConn ~ 4900 1100
NoConn ~ 4900 1200
NoConn ~ 4900 1300
NoConn ~ 4900 5800
NoConn ~ 4900 5900
Wire Wire Line
	10350 3750 10350 3800
Connection ~ 10350 3800
Wire Wire Line
	9500 1400 10100 1400
Wire Wire Line
	2900 5700 2350 5700
Connection ~ 2350 5700
Wire Wire Line
	2900 4800 2350 4800
Connection ~ 2350 4800
Wire Wire Line
	2900 5200 2350 5200
Connection ~ 2350 5200
Wire Wire Line
	2900 4500 2350 4500
Connection ~ 2350 4500
Wire Wire Line
	2900 4200 2350 4200
Connection ~ 2350 4200
Wire Wire Line
	2900 3500 2350 3500
Connection ~ 2350 3500
Wire Wire Line
	2900 3200 2350 3200
Connection ~ 2350 3200
Wire Wire Line
	2900 2900 2350 2900
Connection ~ 2350 2900
Wire Wire Line
	2900 2600 2350 2600
Connection ~ 2350 2600
Wire Wire Line
	6950 5500 7500 5500
Connection ~ 6950 5500
Wire Wire Line
	6950 4800 7500 4800
Connection ~ 6950 4800
Wire Wire Line
	6950 5200 7500 5200
Connection ~ 6950 5200
Wire Wire Line
	6950 4500 7500 4500
Connection ~ 6950 4500
Wire Wire Line
	6950 4200 7500 4200
Connection ~ 6950 4200
Wire Wire Line
	6950 3500 7500 3500
Connection ~ 6950 3500
Wire Wire Line
	6950 3200 7500 3200
Connection ~ 6950 3200
Wire Wire Line
	6950 2900 7500 2900
Connection ~ 6950 2900
Wire Wire Line
	10050 5500 9500 5500
Wire Wire Line
	10050 5200 9500 5200
Wire Wire Line
	10050 4500 9500 4500
Wire Wire Line
	10050 4200 9500 4200
Wire Wire Line
	10050 3500 9500 3500
Wire Wire Line
	10050 3200 9500 3200
Wire Wire Line
	10050 2900 9500 2900
Wire Wire Line
	10050 2600 9500 2600
Connection ~ 10050 2600
Wire Wire Line
	10050 2300 9500 2300
Connection ~ 10050 2300
Wire Wire Line
	9500 2000 10050 2000
Wire Wire Line
	9500 1700 10050 1700
Wire Wire Line
	4900 5700 5450 5700
Connection ~ 5450 5700
Wire Wire Line
	4900 5200 5450 5200
Connection ~ 5450 5200
Wire Wire Line
	4900 4500 5450 4500
Connection ~ 5450 4500
Wire Wire Line
	4900 4200 5450 4200
Connection ~ 5450 4200
Wire Wire Line
	4900 3500 5450 3500
Connection ~ 5450 3500
Wire Wire Line
	4900 3200 5450 3200
Connection ~ 5450 3200
Wire Wire Line
	4900 2900 5450 2900
Connection ~ 5450 2900
Wire Wire Line
	4900 2600 5450 2600
Wire Wire Line
	10350 4750 10350 4800
Connection ~ 10350 4800
Wire Wire Line
	9500 5800 9750 5800
Wire Wire Line
	9750 5800 9750 5750
NoConn ~ 4900 1400
NoConn ~ 2900 1400
Wire Wire Line
	9500 1500 10650 1500
NoConn ~ 7500 1500
$Comp
L power:GND #PWR02603
U 1 1 5B6420DB
P 2350 6250
AR Path="/59C2F489/5B6420DB" Ref="#PWR02603"  Part="1" 
AR Path="/5D418DA8/5B6420DB" Ref="#PWR?"  Part="1" 
F 0 "#PWR02603" H 2350 6000 50  0001 C CNN
F 1 "GND" H 2350 6100 50  0000 C CNN
F 2 "" H 2350 6250 50  0001 C CNN
F 3 "" H 2350 6250 50  0001 C CNN
	1    2350 6250
	1    0    0    -1  
$EndComp
$Comp
L power:GND #PWR02608
U 1 1 5B6426A9
P 5450 6250
AR Path="/59C2F489/5B6426A9" Ref="#PWR02608"  Part="1" 
AR Path="/5D418DA8/5B6426A9" Ref="#PWR?"  Part="1" 
F 0 "#PWR02608" H 5450 6000 50  0001 C CNN
F 1 "GND" H 5450 6100 50  0000 C CNN
F 2 "" H 5450 6250 50  0001 C CNN
F 3 "" H 5450 6250 50  0001 C CNN
	1    5450 6250
	1    0    0    -1  
$EndComp
Wire Wire Line
	10350 3800 10350 3900
Wire Wire Line
	2350 5700 2350 6250
Wire Wire Line
	2350 4800 2350 5200
Wire Wire Line
	2350 5200 2350 5700
Wire Wire Line
	2350 4500 2350 4800
Wire Wire Line
	2350 4200 2350 4500
Wire Wire Line
	2350 3500 2350 4200
Wire Wire Line
	2350 3200 2350 3500
Wire Wire Line
	2350 2900 2350 3200
Wire Wire Line
	2350 2600 2350 2900
Wire Wire Line
	6950 5500 6950 6050
Wire Wire Line
	6950 4800 6950 5200
Wire Wire Line
	6950 5200 6950 5500
Wire Wire Line
	6950 4500 6950 4800
Wire Wire Line
	6950 4200 6950 4500
Wire Wire Line
	6950 3500 6950 4200
Wire Wire Line
	6950 3200 6950 3500
Wire Wire Line
	6950 2900 6950 3200
Wire Wire Line
	6950 2600 6950 2900
Wire Wire Line
	10050 5500 10050 6050
Wire Wire Line
	10050 2600 10050 2900
Wire Wire Line
	10050 2300 10050 2600
Wire Wire Line
	10050 2000 10050 2300
Wire Wire Line
	5450 5700 5450 6250
Wire Wire Line
	5450 5200 5450 5700
Wire Wire Line
	5450 4500 5450 5200
Wire Wire Line
	5450 4200 5450 4500
Wire Wire Line
	5450 3500 5450 4200
Wire Wire Line
	5450 3200 5450 3500
Wire Wire Line
	5450 2900 5450 3200
Wire Wire Line
	5450 2600 5450 2900
Wire Wire Line
	10350 4800 10350 4900
Text HLabel 9500 1800 2    60   Output ~ 12
A0_CMDin_P
Text HLabel 9500 1900 2    60   Output ~ 12
A0_CMDin_N
Text HLabel 7500 2400 0    60   Input ~ 12
A0_CMDout_P
Text HLabel 7500 2500 0    60   Input ~ 12
A0_CMDout_N
Wire Wire Line
	9500 3800 10350 3800
Wire Wire Line
	9500 3900 10350 3900
Text HLabel 9500 2200 2    60   BiDi ~ 12
A0_SDA
Text HLabel 9500 2100 2    60   Output ~ 12
A0_SCL
Text HLabel 7500 3000 0    60   Output ~ 12
A1_CMDin_P
Text HLabel 7500 3100 0    60   Output ~ 12
A1_CMDin_N
Text HLabel 7500 3300 0    60   Input ~ 12
A1_CMDout_P
Text HLabel 7500 3400 0    60   Input ~ 12
A1_CMDout_N
Text HLabel 7500 2700 0    60   BiDi ~ 12
A1_SDA
Text HLabel 7500 2800 0    60   Output ~ 12
A1_SCL
Wire Wire Line
	9500 4800 10350 4800
Wire Wire Line
	9500 4900 10350 4900
Wire Wire Line
	10050 2900 10050 3200
Connection ~ 10050 2900
Connection ~ 10050 5500
Connection ~ 10050 3200
Wire Wire Line
	10050 3200 10050 3500
Connection ~ 10050 3500
Wire Wire Line
	10050 3500 10050 4200
Connection ~ 10050 4200
Wire Wire Line
	10050 4200 10050 4500
Connection ~ 10050 4500
Wire Wire Line
	10050 4500 10050 5200
Connection ~ 10050 5200
Wire Wire Line
	10050 5200 10050 5500
Text HLabel 7500 4600 0    60   Output ~ 12
A2_CMDin_P
Text HLabel 7500 4700 0    60   Output ~ 12
A2_CMDin_N
Text HLabel 7500 5000 0    60   Input ~ 12
A2_CMDout_P
Text HLabel 7500 5100 0    60   Input ~ 12
A2_CMDout_N
Text HLabel 7500 4300 0    60   BiDi ~ 12
A2_SDA
Text HLabel 7500 4400 0    60   Output ~ 12
A2_SCL
Text HLabel 4900 4000 2    60   Output ~ 12
A3_CMDin_P
Text HLabel 4900 4100 2    60   Output ~ 12
A3_CMDin_N
Text HLabel 4900 1500 2    60   Input ~ 12
A3_CMDout_P
Text HLabel 4900 1600 2    60   Input ~ 12
A3_CMDout_N
Text HLabel 4900 4400 2    60   BiDi ~ 12
A3_SDA
Text HLabel 4900 4300 2    60   Output ~ 12
A3_SCL
Wire Wire Line
	6650 3900 6650 3800
Wire Wire Line
	6650 3800 6650 3750
Connection ~ 6650 3800
Wire Wire Line
	6650 3900 7500 3900
Wire Wire Line
	6650 3800 7500 3800
Wire Wire Line
	6950 2600 7500 2600
Text HLabel 4900 2500 2    60   Output ~ 12
A4_SCL
Text HLabel 4900 2400 2    60   BiDi ~ 12
A4_SDA
NoConn ~ 2900 1500
Text Label 2900 5100 2    60   ~ 12
CMDin_P0
Text Label 2900 5000 2    60   ~ 12
CMDin_N0
$Comp
L power:+5V #PWR02601
U 1 1 5D08A98B
P 2050 3750
AR Path="/59C2F489/5D08A98B" Ref="#PWR02601"  Part="1" 
AR Path="/5D418DA8/5D08A98B" Ref="#PWR?"  Part="1" 
F 0 "#PWR02601" H 2050 3600 50  0001 C CNN
F 1 "+5V" H 2050 3890 50  0000 C CNN
F 2 "" H 2050 3750 50  0001 C CNN
F 3 "" H 2050 3750 50  0001 C CNN
	1    2050 3750
	1    0    0    -1  
$EndComp
Wire Wire Line
	2050 3900 2050 3800
Wire Wire Line
	2050 3800 2050 3750
Connection ~ 2050 3800
Wire Wire Line
	2050 3900 2900 3900
Wire Wire Line
	2050 3800 2900 3800
Text Label 9500 3000 0    60   ~ 12
CMDin_P6
Text Label 9500 3100 0    60   ~ 12
CMDin_N6
Text Label 9500 3600 0    60   ~ 12
CMDin_P7
Text Label 9500 3700 0    60   ~ 12
CMDin_N7
Text Label 9500 4300 0    60   ~ 12
CMDin_P8
Text Label 9500 4400 0    60   ~ 12
CMDin_N8
Text Label 9500 5000 0    60   ~ 12
CMDin_P9
Text Label 9500 5100 0    60   ~ 12
CMDin_N9
Wire Wire Line
	2050 4900 2050 4850
Wire Wire Line
	2050 4900 2900 4900
$Comp
L power:+5V #PWR02609
U 1 1 5D0C680F
P 5750 3750
AR Path="/59C2F489/5D0C680F" Ref="#PWR02609"  Part="1" 
AR Path="/5D418DA8/5D0C680F" Ref="#PWR?"  Part="1" 
F 0 "#PWR02609" H 5750 3600 50  0001 C CNN
F 1 "+5V" H 5750 3890 50  0000 C CNN
F 2 "" H 5750 3750 50  0001 C CNN
F 3 "" H 5750 3750 50  0001 C CNN
	1    5750 3750
	-1   0    0    -1  
$EndComp
Wire Wire Line
	5750 3750 5750 3800
Connection ~ 5750 3800
Wire Wire Line
	5750 3800 5750 3900
Wire Wire Line
	4900 3800 5750 3800
Wire Wire Line
	4900 3900 5750 3900
Wire Wire Line
	5750 4750 5750 4800
Connection ~ 5750 4800
Wire Wire Line
	5750 4800 5750 4900
Wire Wire Line
	4900 4800 5750 4800
Wire Wire Line
	4900 4900 5750 4900
Wire Wire Line
	6650 4900 6650 4850
Text Label 9500 2700 0    60   ~ 12
CMDout_P5
Text Label 9500 2800 0    60   ~ 12
CMDout_N5
Text Label 9500 3300 0    60   ~ 12
CMDout_P6
Text Label 9500 3400 0    60   ~ 12
CMDout_N6
Text Label 9500 4000 0    60   ~ 12
CMDout_P7
Text Label 9500 4100 0    60   ~ 12
CMDout_N7
Text Label 9500 4600 0    60   ~ 12
CMDout_P8
Text Label 9500 5300 0    60   ~ 12
CMDout_P9
Text Label 9500 5400 0    60   ~ 12
CMDout_N9
Wire Bus Line
	1300 550  1250 550 
Entry Wire Line
	1300 600  1400 700 
Entry Wire Line
	1300 700  1400 800 
Entry Wire Line
	1300 800  1400 900 
Entry Wire Line
	1300 900  1400 1000
Entry Wire Line
	1300 1000 1400 1100
Entry Wire Line
	1300 1100 1400 1200
Entry Wire Line
	1300 1200 1400 1300
Entry Wire Line
	1300 1300 1400 1400
Entry Wire Line
	1300 1400 1400 1500
Wire Wire Line
	1400 700  1450 700 
Wire Wire Line
	1400 800  1450 800 
Wire Wire Line
	1400 900  1450 900 
Wire Wire Line
	1400 1000 1450 1000
Wire Wire Line
	1400 1100 1450 1100
Wire Wire Line
	1400 1200 1450 1200
Wire Wire Line
	1400 1300 1450 1300
Wire Wire Line
	1400 1400 1450 1400
Wire Wire Line
	1400 1500 1450 1500
Entry Wire Line
	1300 1500 1400 1600
Wire Wire Line
	1400 1600 1450 1600
Text HLabel 1250 550  0    60   Output ~ 12
CMDin_P[0..9]
Wire Bus Line
	1300 1700 1250 1700
Entry Wire Line
	1300 1750 1400 1850
Entry Wire Line
	1300 1850 1400 1950
Entry Wire Line
	1300 1950 1400 2050
Entry Wire Line
	1300 2050 1400 2150
Entry Wire Line
	1300 2150 1400 2250
Entry Wire Line
	1300 2250 1400 2350
Entry Wire Line
	1300 2350 1400 2450
Entry Wire Line
	1300 2450 1400 2550
Entry Wire Line
	1300 2550 1400 2650
Wire Wire Line
	1400 1850 1450 1850
Wire Wire Line
	1400 1950 1450 1950
Wire Wire Line
	1400 2050 1450 2050
Wire Wire Line
	1400 2150 1450 2150
Wire Wire Line
	1400 2250 1450 2250
Wire Wire Line
	1400 2350 1450 2350
Wire Wire Line
	1400 2450 1450 2450
Wire Wire Line
	1400 2550 1450 2550
Wire Wire Line
	1400 2650 1450 2650
Entry Wire Line
	1300 2650 1400 2750
Wire Wire Line
	1400 2750 1450 2750
Text HLabel 1250 1700 0    60   Output ~ 12
CMDin_N[0..9]
Wire Bus Line
	1300 2850 1250 2850
Entry Wire Line
	1300 2900 1400 3000
Entry Wire Line
	1300 3000 1400 3100
Entry Wire Line
	1300 3100 1400 3200
Entry Wire Line
	1300 3200 1400 3300
Entry Wire Line
	1300 3300 1400 3400
Entry Wire Line
	1300 3400 1400 3500
Entry Wire Line
	1300 3500 1400 3600
Entry Wire Line
	1300 3600 1400 3700
Entry Wire Line
	1300 3700 1400 3800
Wire Wire Line
	1400 3000 1450 3000
Wire Wire Line
	1400 3100 1450 3100
Wire Wire Line
	1400 3200 1450 3200
Wire Wire Line
	1400 3300 1450 3300
Wire Wire Line
	1400 3400 1450 3400
Wire Wire Line
	1400 3500 1450 3500
Wire Wire Line
	1400 3600 1450 3600
Wire Wire Line
	1400 3700 1450 3700
Wire Wire Line
	1400 3800 1450 3800
Entry Wire Line
	1300 3800 1400 3900
Wire Wire Line
	1400 3900 1450 3900
Text HLabel 1250 2850 0    60   Input ~ 12
CMDout_P[0..9]
Wire Bus Line
	1300 4000 1250 4000
Entry Wire Line
	1300 4050 1400 4150
Entry Wire Line
	1300 4150 1400 4250
Entry Wire Line
	1300 4250 1400 4350
Entry Wire Line
	1300 4350 1400 4450
Entry Wire Line
	1300 4450 1400 4550
Entry Wire Line
	1300 4550 1400 4650
Entry Wire Line
	1300 4650 1400 4750
Entry Wire Line
	1300 4750 1400 4850
Entry Wire Line
	1300 4850 1400 4950
Wire Wire Line
	1400 4150 1450 4150
Wire Wire Line
	1400 4250 1450 4250
Wire Wire Line
	1400 4350 1450 4350
Wire Wire Line
	1400 4450 1450 4450
Wire Wire Line
	1400 4550 1450 4550
Wire Wire Line
	1400 4650 1450 4650
Wire Wire Line
	1400 4750 1450 4750
Wire Wire Line
	1400 4850 1450 4850
Wire Wire Line
	1400 4950 1450 4950
Entry Wire Line
	1300 4950 1400 5050
Wire Wire Line
	1400 5050 1450 5050
Text HLabel 1250 4000 0    60   Input ~ 12
CMDout_N[0..9]
Text Label 1450 700  0    60   ~ 12
CMDin_P0
Text Label 1450 800  0    60   ~ 12
CMDin_P1
Text Label 1450 900  0    60   ~ 12
CMDin_P2
Text Label 1450 1000 0    60   ~ 12
CMDin_P3
Text Label 1450 1100 0    60   ~ 12
CMDin_P4
Text Label 1450 1200 0    60   ~ 12
CMDin_P5
Text Label 1450 1300 0    60   ~ 12
CMDin_P6
Text Label 1450 1400 0    60   ~ 12
CMDin_P7
Text Label 1450 1500 0    60   ~ 12
CMDin_P8
Text Label 1450 1600 0    60   ~ 12
CMDin_P9
Text Label 1450 3000 0    60   ~ 12
CMDout_P0
Text Label 1450 3100 0    60   ~ 12
CMDout_P1
Text Label 1450 3200 0    60   ~ 12
CMDout_P2
Text Label 1450 1850 0    60   ~ 12
CMDin_N0
Text Label 1450 1950 0    60   ~ 12
CMDin_N1
Text Label 1450 2050 0    60   ~ 12
CMDin_N2
Text Label 1450 2150 0    60   ~ 12
CMDin_N3
Text Label 1450 2250 0    60   ~ 12
CMDin_N4
Text Label 1450 2350 0    60   ~ 12
CMDin_N5
Text Label 1450 2450 0    60   ~ 12
CMDin_N6
Text Label 1450 2550 0    60   ~ 12
CMDin_N7
Text Label 1450 2650 0    60   ~ 12
CMDin_N8
Text Label 1450 2750 0    60   ~ 12
CMDin_N9
Text Label 1450 4150 0    60   ~ 12
CMDout_N0
Text Label 1450 4250 0    60   ~ 12
CMDout_N1
Text Label 1450 4350 0    60   ~ 12
CMDout_N2
Text Label 1450 4450 0    60   ~ 12
CMDout_N3
Text Label 1450 4550 0    60   ~ 12
CMDout_N4
Text Label 1450 4650 0    60   ~ 12
CMDout_N5
Text Label 1450 4750 0    60   ~ 12
CMDout_N6
Text Label 1450 4850 0    60   ~ 12
CMDout_N7
Text Label 1450 4950 0    60   ~ 12
CMDout_N8
Text Label 1450 5050 0    60   ~ 12
CMDout_N9
Text Label 1450 3400 0    60   ~ 12
CMDout_P4
Text Label 1450 3900 0    60   ~ 12
CMDout_P9
Text Label 1450 3800 0    60   ~ 12
CMDout_P8
Text Label 1450 3700 0    60   ~ 12
CMDout_P7
Text Label 1450 3600 0    60   ~ 12
CMDout_P6
Text Label 1450 3500 0    60   ~ 12
CMDout_P5
Text Label 1450 3300 0    60   ~ 12
CMDout_P3
Text Label 2900 5300 2    60   ~ 12
BANK13_LVDS_0_P
Text Label 2900 5400 2    60   ~ 12
BANK13_LVDS_0_N
Text Label 2900 5500 2    60   ~ 12
BANK13_LVDS_2_P
Text Label 2900 5600 2    60   ~ 12
BANK13_LVDS_2_N
Text Label 4900 5300 0    60   ~ 12
BANK13_LVDS_1_P
Text Label 4900 5400 0    60   ~ 12
BANK13_LVDS_1_N
Text Label 2200 6850 0    60   ~ 12
BANK13_LVDS_0_P
Text Label 1700 6850 2    60   ~ 12
BANK13_LVDS_0_N
Text Label 2200 6750 0    60   ~ 12
BANK13_LVDS_2_P
Text Label 1700 6750 2    60   ~ 12
BANK13_LVDS_2_N
Text Label 2200 7050 0    60   ~ 12
BANK13_LVDS_1_P
Text Label 1700 7050 2    60   ~ 12
BANK13_LVDS_1_N
Text Label 2200 6950 0    60   ~ 12
BANK13_LVDS_3_P
Text Label 1700 6950 2    60   ~ 12
BANK13_LVDS_3_N
$Comp
L Connector:Conn_01x06_Female J2602
U 1 1 5D27A7B0
P 4150 7100
AR Path="/59C2F489/5D27A7B0" Ref="J2602"  Part="1" 
AR Path="/5D418DA8/5D27A7B0" Ref="J?"  Part="1" 
F 0 "J2602" H 4178 7076 50  0000 L CNN
F 1 "Conn_01x06_Female" H 4178 6985 50  0000 L CNN
F 2 "Connector_PinHeader_2.54mm:PinHeader_1x06_P2.54mm_Vertical_SMD_Pin1Right" H 4150 7100 50  0001 C CNN
F 3 "~" H 4150 7100 50  0001 C CNN
F 4 "TSM-106-01-T-SV" H 4150 7100 50  0001 C CNN "mfg#"
	1    4150 7100
	1    0    0    -1  
$EndComp
Text Label 3950 6900 2    60   ~ 12
I2C0_INT
Text Label 3950 7000 2    60   ~ 12
I2C0_RST
Text Label 3950 7100 2    60   ~ 12
I2C0_SCL
Text Label 3950 7200 2    60   ~ 12
I2C0_SDA
$Comp
L power:GND #PWR02605
U 1 1 5D27D920
P 3900 7500
AR Path="/59C2F489/5D27D920" Ref="#PWR02605"  Part="1" 
AR Path="/5D418DA8/5D27D920" Ref="#PWR?"  Part="1" 
F 0 "#PWR02605" H 3900 7250 50  0001 C CNN
F 1 "GND" H 3905 7327 50  0000 C CNN
F 2 "" H 3900 7500 50  0001 C CNN
F 3 "" H 3900 7500 50  0001 C CNN
	1    3900 7500
	1    0    0    -1  
$EndComp
$Comp
L power:+3V3 #PWR02604
U 1 1 5D27E280
P 3750 7400
AR Path="/59C2F489/5D27E280" Ref="#PWR02604"  Part="1" 
AR Path="/5D418DA8/5D27E280" Ref="#PWR?"  Part="1" 
F 0 "#PWR02604" H 3750 7250 50  0001 C CNN
F 1 "+3V3" H 3765 7573 50  0000 C CNN
F 2 "" H 3750 7400 50  0001 C CNN
F 3 "" H 3750 7400 50  0001 C CNN
	1    3750 7400
	1    0    0    -1  
$EndComp
Wire Wire Line
	3950 7400 3750 7400
Wire Wire Line
	3950 7300 3900 7300
Wire Wire Line
	3900 7300 3900 7500
$Comp
L Connector:Conn_01x06_Female J2603
U 1 1 5D2A7CAC
P 5600 7100
AR Path="/59C2F489/5D2A7CAC" Ref="J2603"  Part="1" 
AR Path="/5D418DA8/5D2A7CAC" Ref="J?"  Part="1" 
F 0 "J2603" H 5628 7076 50  0000 L CNN
F 1 "Conn_01x06_Female" H 5628 6985 50  0000 L CNN
F 2 "Connector_PinHeader_2.54mm:PinHeader_1x06_P2.54mm_Vertical_SMD_Pin1Right" H 5600 7100 50  0001 C CNN
F 3 "~" H 5600 7100 50  0001 C CNN
	1    5600 7100
	1    0    0    -1  
$EndComp
Text Label 5400 6900 2    60   ~ 12
I2C1_INT
Text Label 5400 7000 2    60   ~ 12
I2C1_RST
Text Label 5400 7100 2    60   ~ 12
I2C1_SCL
Text Label 5400 7200 2    60   ~ 12
I2C1_SDA
$Comp
L power:GND #PWR02607
U 1 1 5D2A7CBA
P 5350 7500
AR Path="/59C2F489/5D2A7CBA" Ref="#PWR02607"  Part="1" 
AR Path="/5D418DA8/5D2A7CBA" Ref="#PWR?"  Part="1" 
F 0 "#PWR02607" H 5350 7250 50  0001 C CNN
F 1 "GND" H 5355 7327 50  0000 C CNN
F 2 "" H 5350 7500 50  0001 C CNN
F 3 "" H 5350 7500 50  0001 C CNN
	1    5350 7500
	1    0    0    -1  
$EndComp
$Comp
L power:+3V3 #PWR02606
U 1 1 5D2A7CC4
P 5200 7400
AR Path="/59C2F489/5D2A7CC4" Ref="#PWR02606"  Part="1" 
AR Path="/5D418DA8/5D2A7CC4" Ref="#PWR?"  Part="1" 
F 0 "#PWR02606" H 5200 7250 50  0001 C CNN
F 1 "+3V3" H 5215 7573 50  0000 C CNN
F 2 "" H 5200 7400 50  0001 C CNN
F 3 "" H 5200 7400 50  0001 C CNN
	1    5200 7400
	1    0    0    -1  
$EndComp
Wire Wire Line
	5400 7400 5200 7400
Wire Wire Line
	5400 7300 5350 7300
Wire Wire Line
	5350 7300 5350 7500
NoConn ~ 5400 6900
NoConn ~ 5400 7000
NoConn ~ 3950 7000
NoConn ~ 3950 6900
Text Label 7500 1300 2    60   ~ 12
I2C0_SCL
Text Label 9500 1300 0    60   ~ 12
I2C0_SDA
Text Label 9500 1100 0    60   ~ 12
I2C1_SCL
Text Label 7500 1000 2    60   ~ 12
I2C1_SDA
$Comp
L Device:R R2603
U 1 1 5D2F49ED
P 10150 950
AR Path="/59C2F489/5D2F49ED" Ref="R2603"  Part="1" 
AR Path="/5D418DA8/5D2F49ED" Ref="R?"  Part="1" 
F 0 "R2603" H 10220 996 50  0000 L CNN
F 1 "2k" H 10220 905 50  0000 L CNN
F 2 "Resistor_SMD:R_0805_2012Metric" V 10080 950 50  0001 C CNN
F 3 "~" H 10150 950 50  0001 C CNN
	1    10150 950 
	1    0    0    -1  
$EndComp
$Comp
L Device:R R2604
U 1 1 5D2F65D2
P 10350 1150
AR Path="/59C2F489/5D2F65D2" Ref="R2604"  Part="1" 
AR Path="/5D418DA8/5D2F65D2" Ref="R?"  Part="1" 
F 0 "R2604" H 10420 1196 50  0000 L CNN
F 1 "2k" H 10420 1105 50  0000 L CNN
F 2 "Resistor_SMD:R_0805_2012Metric" V 10280 1150 50  0001 C CNN
F 3 "~" H 10350 1150 50  0001 C CNN
	1    10350 1150
	1    0    0    -1  
$EndComp
Wire Wire Line
	9500 1300 10350 1300
Wire Wire Line
	9500 1100 10150 1100
$Comp
L power:+3V3 #PWR02618
U 1 1 5D313821
P 10150 700
AR Path="/59C2F489/5D313821" Ref="#PWR02618"  Part="1" 
AR Path="/5D418DA8/5D313821" Ref="#PWR?"  Part="1" 
F 0 "#PWR02618" H 10150 550 50  0001 C CNN
F 1 "+3V3" H 10165 873 50  0000 C CNN
F 2 "" H 10150 700 50  0001 C CNN
F 3 "" H 10150 700 50  0001 C CNN
	1    10150 700 
	1    0    0    -1  
$EndComp
$Comp
L power:+3V3 #PWR02619
U 1 1 5D313C9C
P 10350 700
AR Path="/59C2F489/5D313C9C" Ref="#PWR02619"  Part="1" 
AR Path="/5D418DA8/5D313C9C" Ref="#PWR?"  Part="1" 
F 0 "#PWR02619" H 10350 550 50  0001 C CNN
F 1 "+3V3" H 10365 873 50  0000 C CNN
F 2 "" H 10350 700 50  0001 C CNN
F 3 "" H 10350 700 50  0001 C CNN
	1    10350 700 
	1    0    0    -1  
$EndComp
Wire Wire Line
	10150 800  10150 700 
Wire Wire Line
	10350 1000 10350 700 
$Comp
L Device:R R2602
U 1 1 5D331766
P 6850 850
AR Path="/59C2F489/5D331766" Ref="R2602"  Part="1" 
AR Path="/5D418DA8/5D331766" Ref="R?"  Part="1" 
F 0 "R2602" H 6920 896 50  0000 L CNN
F 1 "2k" H 6920 805 50  0000 L CNN
F 2 "Resistor_SMD:R_0805_2012Metric" V 6780 850 50  0001 C CNN
F 3 "~" H 6850 850 50  0001 C CNN
	1    6850 850 
	1    0    0    -1  
$EndComp
$Comp
L Device:R R2601
U 1 1 5D331770
P 6650 1150
AR Path="/59C2F489/5D331770" Ref="R2601"  Part="1" 
AR Path="/5D418DA8/5D331770" Ref="R?"  Part="1" 
F 0 "R2601" H 6720 1196 50  0000 L CNN
F 1 "2k" H 6720 1105 50  0000 L CNN
F 2 "Resistor_SMD:R_0805_2012Metric" V 6580 1150 50  0001 C CNN
F 3 "~" H 6650 1150 50  0001 C CNN
	1    6650 1150
	1    0    0    -1  
$EndComp
Wire Wire Line
	6650 1300 7500 1300
Wire Wire Line
	7500 1000 6850 1000
$Comp
L power:+3V3 #PWR02611
U 1 1 5D360C08
P 6650 650
AR Path="/59C2F489/5D360C08" Ref="#PWR02611"  Part="1" 
AR Path="/5D418DA8/5D360C08" Ref="#PWR?"  Part="1" 
F 0 "#PWR02611" H 6650 500 50  0001 C CNN
F 1 "+3V3" H 6665 823 50  0000 C CNN
F 2 "" H 6650 650 50  0001 C CNN
F 3 "" H 6650 650 50  0001 C CNN
	1    6650 650 
	1    0    0    -1  
$EndComp
$Comp
L power:+3V3 #PWR02614
U 1 1 5D360C12
P 6850 650
AR Path="/59C2F489/5D360C12" Ref="#PWR02614"  Part="1" 
AR Path="/5D418DA8/5D360C12" Ref="#PWR?"  Part="1" 
F 0 "#PWR02614" H 6850 500 50  0001 C CNN
F 1 "+3V3" H 6865 823 50  0000 C CNN
F 2 "" H 6850 650 50  0001 C CNN
F 3 "" H 6850 650 50  0001 C CNN
	1    6850 650 
	1    0    0    -1  
$EndComp
Wire Wire Line
	6850 700  6850 650 
Wire Wire Line
	6650 650  6650 1000
Wire Wire Line
	7500 4900 6650 4900
Text Label 2900 4700 2    60   ~ 12
CMDout_P0
Text Label 2900 4600 2    60   ~ 12
CMDout_N0
Text Label 2900 4300 2    60   ~ 12
CMDin_N1
Text Label 2900 4400 2    60   ~ 12
CMDin_P1
Text Label 2900 4100 2    60   ~ 12
CMDout_P1
Text Label 2900 4000 2    60   ~ 12
CMDout_N1
Text Label 2900 3600 2    60   ~ 12
CMDin_N2
Text Label 2900 3700 2    60   ~ 12
CMDin_P2
Text Label 2900 3400 2    60   ~ 12
CMDout_P2
Text Label 2900 3300 2    60   ~ 12
CMDout_N2
Text Label 2900 3000 2    60   ~ 12
CMDin_N3
Text Label 2900 3100 2    60   ~ 12
CMDin_P3
Text Label 2900 2800 2    60   ~ 12
CMDout_P3
Text Label 2900 2700 2    60   ~ 12
CMDout_N3
Text Label 2900 2500 2    60   ~ 12
CMDin_P4
Connection ~ 5450 2600
Connection ~ 6950 2600
NoConn ~ 2900 1900
NoConn ~ 2900 1800
Text Label 2900 2200 2    60   ~ 12
CMDout_P4
Text Label 2900 2100 2    60   ~ 12
CMDout_N4
Text Label 2900 2400 2    60   ~ 12
CMDin_N4
$Comp
L microzed:MicroZed ZED2601
U 1 1 5C88D67D
P 3900 3450
AR Path="/59C2F489/5C88D67D" Ref="ZED2601"  Part="1" 
AR Path="/5D418DA8/5C88D67D" Ref="ZED?"  Part="1" 
F 0 "ZED2601" H 3900 6165 50  0000 C CNN
F 1 "MicroZed" H 3900 6074 50  0000 C CNN
F 2 "zed:microzed_noholes" H 3900 3450 60  0001 C CNN
F 3 "" H 3900 3450 60  0001 C CNN
	1    3900 3450
	1    0    0    -1  
$EndComp
NoConn ~ 2900 1600
Text HLabel 4900 2700 2    60   Output ~ 12
A4_CMDin_P
Text HLabel 4900 2800 2    60   Output ~ 12
A4_CMDin_N
Text HLabel 4900 3000 2    60   Input ~ 12
A4_CMDout_P
Text HLabel 4900 3100 2    60   Input ~ 12
A4_CMDout_N
$Comp
L microzed:MicroZed ZED2601
U 2 1 5C88D91D
P 8500 3450
AR Path="/59C2F489/5C88D91D" Ref="ZED2601"  Part="2" 
AR Path="/5D418DA8/5C88D91D" Ref="ZED?"  Part="2" 
F 0 "ZED2601" H 8500 6165 50  0000 C CNN
F 1 "MicroZed" H 8500 6074 50  0000 C CNN
F 2 "zed:microzed_noholes" H 8500 3450 60  0001 C CNN
F 3 "" H 8500 3450 60  0001 C CNN
	2    8500 3450
	1    0    0    -1  
$EndComp
Wire Wire Line
	4900 2000 5450 2000
Wire Wire Line
	5450 2000 5450 2300
Wire Wire Line
	5450 2300 5450 2600
Connection ~ 5450 2300
Wire Wire Line
	4900 2300 5450 2300
Connection ~ 5450 2000
Wire Wire Line
	5450 1700 5450 2000
Wire Wire Line
	4900 1700 5450 1700
Wire Wire Line
	7500 1700 6950 1700
Wire Wire Line
	6950 1700 6950 2000
Connection ~ 6950 2000
Wire Wire Line
	7500 2000 6950 2000
Wire Wire Line
	6950 2000 6950 2300
Wire Wire Line
	6950 2300 6950 2600
Connection ~ 6950 2300
Wire Wire Line
	6950 2300 7500 2300
Wire Wire Line
	2350 1700 2350 2000
Connection ~ 2350 2000
Wire Wire Line
	2900 2000 2350 2000
Wire Wire Line
	2350 2000 2350 2300
Wire Wire Line
	2350 2300 2350 2600
Connection ~ 2350 2300
Wire Wire Line
	2900 2300 2350 2300
Wire Wire Line
	2900 1700 2350 1700
NoConn ~ 7500 1600
Text Label 9500 2500 0    60   ~ 12
CMDin_N5
Text Label 9500 2400 0    60   ~ 12
CMDin_P5
Text Label 9500 4700 0    60   ~ 12
CMDout_N8
$Comp
L power:+2V5 #PWR02610
U 1 1 5D2D147B
P 5750 4750
F 0 "#PWR02610" H 5750 4600 50  0001 C CNN
F 1 "+2V5" H 5765 4923 50  0000 C CNN
F 2 "" H 5750 4750 50  0001 C CNN
F 3 "" H 5750 4750 50  0001 C CNN
	1    5750 4750
	1    0    0    -1  
$EndComp
$Comp
L power:+2V5 #PWR02602
U 1 1 5D2D1B5C
P 2050 4850
F 0 "#PWR02602" H 2050 4700 50  0001 C CNN
F 1 "+2V5" H 2065 5023 50  0000 C CNN
F 2 "" H 2050 4850 50  0001 C CNN
F 3 "" H 2050 4850 50  0001 C CNN
	1    2050 4850
	1    0    0    -1  
$EndComp
$Comp
L power:+2V5 #PWR02613
U 1 1 5D2D21AB
P 6650 4850
F 0 "#PWR02613" H 6650 4700 50  0001 C CNN
F 1 "+2V5" H 6665 5023 50  0000 C CNN
F 2 "" H 6650 4850 50  0001 C CNN
F 3 "" H 6650 4850 50  0001 C CNN
	1    6650 4850
	1    0    0    -1  
$EndComp
$Comp
L power:+2V5 #PWR02621
U 1 1 5D2D2618
P 10350 4750
F 0 "#PWR02621" H 10350 4600 50  0001 C CNN
F 1 "+2V5" H 10365 4923 50  0000 C CNN
F 2 "" H 10350 4750 50  0001 C CNN
F 3 "" H 10350 4750 50  0001 C CNN
	1    10350 4750
	1    0    0    -1  
$EndComp
$Comp
L power:+2V5 #PWR02616
U 1 1 5D2D3BE6
P 9750 5750
F 0 "#PWR02616" H 9750 5600 50  0001 C CNN
F 1 "+2V5" H 9765 5923 50  0000 C CNN
F 2 "" H 9750 5750 50  0001 C CNN
F 3 "" H 9750 5750 50  0001 C CNN
	1    9750 5750
	1    0    0    -1  
$EndComp
Connection ~ 10050 2000
Wire Wire Line
	10050 1700 10050 2000
Text HLabel 7500 2100 0    60   Output ~ 0
A0_SCLK
Text HLabel 7500 2200 0    60   Output ~ 0
~A0_CS
Text HLabel 7500 1800 0    60   Output ~ 0
A0_DIN
Text HLabel 7500 1900 0    60   Input ~ 0
A0_DOUT
Text HLabel 7500 3600 0    60   Output ~ 0
A1_SCLK
Text HLabel 7500 3700 0    60   Output ~ 0
~A1_CS
Text HLabel 7500 4000 0    60   Output ~ 0
A1_DIN
Text HLabel 7500 4100 0    60   Input ~ 0
A1_DOUT
Text HLabel 7500 5300 0    60   Output ~ 0
A2_SCLK
Text HLabel 7500 5400 0    60   Output ~ 0
~A2_CS
Text HLabel 4900 4700 2    60   Output ~ 0
A2_DIN
Text HLabel 4900 4600 2    60   Input ~ 0
A2_DOUT
Text HLabel 4900 1800 2    60   Output ~ 0
A3_SCLK
Text HLabel 4900 1900 2    60   Output ~ 0
~A3_CS
Text HLabel 4900 2100 2    60   Output ~ 0
A3_DIN
Text HLabel 4900 2200 2    60   Input ~ 0
A3_DOUT
Text HLabel 4900 3300 2    60   Output ~ 0
A4_SCLK
Text HLabel 4900 3400 2    60   Output ~ 0
~A4_CS
Text HLabel 4900 3600 2    60   Output ~ 0
A4_DIN
Text HLabel 4900 3700 2    60   Input ~ 0
A4_DOUT
Text Label 4900 5600 0    60   ~ 12
BANK13_LVDS_3_N
Text Label 4900 5500 0    60   ~ 12
BANK13_LVDS_3_P
NoConn ~ 4900 5000
NoConn ~ 4900 5100
$Comp
L Connector_Generic:Conn_02x04_Odd_Even J2601
U 1 1 5D31E981
P 1900 6850
F 0 "J2601" H 1950 7167 50  0000 C CNN
F 1 "Conn_02x04_Odd_Even" H 1950 7076 50  0000 C CNN
F 2 "Connector_PinHeader_2.54mm:PinHeader_2x04_P2.54mm_Vertical_SMD" H 1900 6850 50  0001 C CNN
F 3 "~" H 1900 6850 50  0001 C CNN
	1    1900 6850
	1    0    0    -1  
$EndComp
NoConn ~ 7500 5600
NoConn ~ 7500 5700
NoConn ~ 7500 5800
NoConn ~ 7500 5900
Wire Bus Line
	1300 4000 1300 4950
Wire Bus Line
	1300 2850 1300 3800
Wire Bus Line
	1300 1700 1300 2650
Wire Bus Line
	1300 550  1300 1500
$EndSCHEMATC
