EESchema Schematic File Version 4
LIBS:pbv3_mass_test_adapter_active-cache
EELAYER 29 0
EELAYER END
$Descr A4 11693 8268
encoding utf-8
Sheet 17 26
Title "Powerboard v3 Massive Active Tester Board"
Date "2019-06-04"
Rev ""
Comp "Lawrence Berkeley National Laboratory"
Comment1 ""
Comment2 ""
Comment3 ""
Comment4 ""
$EndDescr
$Comp
L Connector_Generic:Conn_02x02_Odd_Even J1703
U 1 1 5A1D3D4A
P 3100 1500
F 0 "J1703" H 3150 1600 50  0000 C CNN
F 1 "CONN_02X02" H 3150 1300 50  0000 C CNN
F 2 "Connector_Molex:Molex_Mini-Fit_Jr_5569-04A2_2x02_P4.20mm_Horizontal" H 3100 300 50  0001 C CNN
F 3 "" H 3100 300 50  0001 C CNN
F 4 "39301042" H 3100 1500 50  0001 C CNN "mfg#"
	1    3100 1500
	1    0    0    -1  
$EndComp
$Comp
L Connector:LEMO2 J1705
U 1 1 5A1D3DB4
P 3150 5600
F 0 "J1705" H 3150 5850 50  0000 C CNN
F 1 "LEMO2" H 3150 5450 50  0000 C CNN
F 2 "lbl_conn:lemo_epb00250ntn" H 3150 5600 50  0001 C CNN
F 3 "" H 3150 5600 50  0001 C CNN
F 4 "EPB.00.250.NTN" H 3150 5600 50  0001 C CNN "mfg#"
	1    3150 5600
	1    0    0    -1  
$EndComp
$Comp
L power:+5V #PWR01704
U 1 1 5A1D3E8F
P 4150 1650
F 0 "#PWR01704" H 4150 1500 50  0001 C CNN
F 1 "+5V" H 4150 1790 50  0000 C CNN
F 2 "" H 4150 1650 50  0001 C CNN
F 3 "" H 4150 1650 50  0001 C CNN
	1    4150 1650
	-1   0    0    1   
$EndComp
$Comp
L power:-5V #PWR01701
U 1 1 5A1D3EB2
P 2150 1650
F 0 "#PWR01701" H 2150 1750 50  0001 C CNN
F 1 "-5V" H 2150 1800 50  0000 C CNN
F 2 "" H 2150 1650 50  0001 C CNN
F 3 "" H 2150 1650 50  0001 C CNN
	1    2150 1650
	-1   0    0    1   
$EndComp
Wire Wire Line
	4150 1600 4150 1650
Wire Wire Line
	2150 1600 2150 1650
Text HLabel 1300 5400 0    60   Input ~ 12
HV_IN
Text HLabel 1300 5700 0    60   Output ~ 12
HV_IN_RTN
Wire Wire Line
	2900 2350 2850 2350
Wire Wire Line
	3400 2350 3450 2350
Wire Wire Line
	2800 5500 2850 5500
Wire Wire Line
	2800 5700 2800 5600
Wire Wire Line
	2800 5600 2850 5600
Wire Wire Line
	2800 5400 2800 5500
$Comp
L power:PWR_FLAG #FLG01702
U 1 1 5A2B51B6
P 4050 1600
F 0 "#FLG01702" H 4050 1675 50  0001 C CNN
F 1 "PWR_FLAG" H 4050 1750 50  0000 C CNN
F 2 "" H 4050 1600 50  0001 C CNN
F 3 "" H 4050 1600 50  0001 C CNN
	1    4050 1600
	1    0    0    -1  
$EndComp
$Comp
L power:PWR_FLAG #FLG01701
U 1 1 5A2B51DA
P 2250 1600
F 0 "#FLG01701" H 2250 1675 50  0001 C CNN
F 1 "PWR_FLAG" H 2250 1750 50  0000 C CNN
F 2 "" H 2250 1600 50  0001 C CNN
F 3 "" H 2250 1600 50  0001 C CNN
	1    2250 1600
	1    0    0    -1  
$EndComp
$Comp
L Connector_Generic:Conn_02x01 J1704
U 1 1 5B3BDC53
P 3100 2350
F 0 "J1704" H 3100 2450 50  0000 C CNN
F 1 "CONN_02X01" H 3100 2250 50  0000 C CNN
F 2 "lbl_conn:TerminalBlock_Pheonix_MKDS5-2pol" H 3100 1150 50  0001 C CNN
F 3 "" H 3100 1150 50  0001 C CNN
F 4 "1714971" H 3100 2350 50  0001 C CNN "mfg#"
	1    3100 2350
	1    0    0    -1  
$EndComp
$Comp
L Device:R R1704
U 1 1 5B3EBAD1
P 2850 2675
F 0 "R1704" V 2930 2675 50  0000 C CNN
F 1 "5m" V 2850 2675 50  0000 C CNN
F 2 "Resistor_SMD:R_2512_6332Metric" V 2780 2675 50  0001 C CNN
F 3 "" H 2850 2675 50  0001 C CNN
F 4 "CSR2512B0R005F" V 2850 2675 50  0001 C CNN "mfg#"
	1    2850 2675
	1    0    0    -1  
$EndComp
Wire Wire Line
	2850 2825 2850 2875
Wire Wire Line
	2850 2475 2650 2475
Wire Wire Line
	2850 2875 2650 2875
Text Label 2650 2475 2    60   ~ 12
VIN_p
Text Label 2650 2875 2    60   ~ 12
VIN_n
Wire Wire Line
	5800 3300 5700 3300
Wire Wire Line
	5800 3500 5700 3500
Text Label 5700 3300 2    60   ~ 12
VIN_p
Text Label 5700 3500 2    60   ~ 12
VIN_n
$Comp
L power:GND #PWR01713
U 1 1 5B3EC112
P 6000 3850
F 0 "#PWR01713" H 6000 3600 50  0001 C CNN
F 1 "GND" H 6000 3700 50  0000 C CNN
F 2 "" H 6000 3850 50  0001 C CNN
F 3 "" H 6000 3850 50  0001 C CNN
	1    6000 3850
	1    0    0    -1  
$EndComp
Wire Wire Line
	6000 3850 6000 3700
Wire Wire Line
	6000 3100 6000 2950
$Comp
L power:+5V #PWR01712
U 1 1 5B3EC208
P 6000 2950
F 0 "#PWR01712" H 6000 2800 50  0001 C CNN
F 1 "+5V" H 6000 3090 50  0000 C CNN
F 2 "" H 6000 2950 50  0001 C CNN
F 3 "" H 6000 2950 50  0001 C CNN
	1    6000 2950
	1    0    0    -1  
$EndComp
Wire Wire Line
	6400 3400 6450 3400
Text Label 6500 3400 0    60   ~ 12
VIN_curr
$Comp
L Device:R R1705
U 1 1 5B3EC31C
P 3700 1600
F 0 "R1705" V 3780 1600 50  0000 C CNN
F 1 "100m" V 3700 1600 50  0000 C CNN
F 2 "Resistor_SMD:R_0805_2012Metric" V 3630 1600 50  0001 C CNN
F 3 "" H 3700 1600 50  0001 C CNN
	1    3700 1600
	0    1    1    0   
$EndComp
Wire Wire Line
	3550 1600 3500 1600
Wire Wire Line
	3900 1600 3900 1850
Connection ~ 3900 1600
Wire Wire Line
	3500 1600 3500 1900
Connection ~ 3500 1600
$Comp
L Device:R R1703
U 1 1 5B3EC559
P 2600 1600
F 0 "R1703" V 2680 1600 50  0000 C CNN
F 1 "100m" V 2600 1600 50  0000 C CNN
F 2 "Resistor_SMD:R_0805_2012Metric" V 2530 1600 50  0001 C CNN
F 3 "" H 2600 1600 50  0001 C CNN
F 4 "RCWE0805R100FKEA" V 2600 1600 50  0001 C CNN "mfg#"
	1    2600 1600
	0    1    1    0   
$EndComp
Wire Wire Line
	2800 1600 2800 1900
Connection ~ 2800 1600
Wire Wire Line
	2400 1600 2400 1850
Connection ~ 2400 1600
Text Label 2400 1850 2    60   ~ 12
m5V_p
Text Label 2800 1850 0    60   ~ 12
m5V_n
Wire Wire Line
	2750 1600 2800 1600
$Comp
L Amplifier_Current:INA138 U?
U 1 1 5B3EC8E6
P 6100 1700
AR Path="/5B3EC8E6" Ref="U?"  Part="1" 
AR Path="/5A1D3CA0/5B3EC8E6" Ref="U1702"  Part="1" 
F 0 "U1702" H 6200 1950 60  0000 C CNN
F 1 "INA138" H 6250 1850 60  0000 C CNN
F 2 "Package_TO_SOT_SMD:SOT-23-5" H 6000 1700 60  0001 C CNN
F 3 "" H 6000 1700 60  0001 C CNN
F 4 "INA138NA/3K" H 6100 1700 50  0001 C CNN "mfg#"
	1    6100 1700
	1    0    0    -1  
$EndComp
Wire Wire Line
	5800 1600 5700 1600
Wire Wire Line
	5800 1800 5700 1800
Text Label 5700 1600 2    60   ~ 12
p5V_p
Text Label 5700 1800 2    60   ~ 12
p5V_n
$Comp
L power:GND #PWR01711
U 1 1 5B3EC8F0
P 6000 2150
F 0 "#PWR01711" H 6000 1900 50  0001 C CNN
F 1 "GND" H 6000 2000 50  0000 C CNN
F 2 "" H 6000 2150 50  0001 C CNN
F 3 "" H 6000 2150 50  0001 C CNN
	1    6000 2150
	1    0    0    -1  
$EndComp
Wire Wire Line
	6000 2150 6000 2000
Wire Wire Line
	6000 1400 6000 1250
$Comp
L power:+5V #PWR01710
U 1 1 5B3EC8F8
P 6000 1250
F 0 "#PWR01710" H 6000 1100 50  0001 C CNN
F 1 "+5V" H 6000 1390 50  0000 C CNN
F 2 "" H 6000 1250 50  0001 C CNN
F 3 "" H 6000 1250 50  0001 C CNN
	1    6000 1250
	1    0    0    -1  
$EndComp
Wire Wire Line
	6400 1700 6450 1700
Text Label 6500 1700 0    60   ~ 12
p5V_curr
$Comp
L Amplifier_Current:INA138 U?
U 1 1 5B3EC9E1
P 8450 1700
AR Path="/5B3EC9E1" Ref="U?"  Part="1" 
AR Path="/5A1D3CA0/5B3EC9E1" Ref="U1704"  Part="1" 
F 0 "U1704" H 8550 1950 60  0000 C CNN
F 1 "INA138" H 8600 1850 60  0000 C CNN
F 2 "Package_TO_SOT_SMD:SOT-23-5" H 8350 1700 60  0001 C CNN
F 3 "" H 8350 1700 60  0001 C CNN
	1    8450 1700
	1    0    0    -1  
$EndComp
Wire Wire Line
	8150 1600 8050 1600
Wire Wire Line
	8150 1800 8050 1800
Text Label 8050 1600 2    60   ~ 12
m5V_p
Text Label 8050 1800 2    60   ~ 12
m5V_n
$Comp
L power:GND #PWR01722
U 1 1 5B3EC9EB
P 8350 2150
F 0 "#PWR01722" H 8350 1900 50  0001 C CNN
F 1 "GND" H 8350 2000 50  0000 C CNN
F 2 "" H 8350 2150 50  0001 C CNN
F 3 "" H 8350 2150 50  0001 C CNN
	1    8350 2150
	1    0    0    -1  
$EndComp
Wire Wire Line
	8350 2150 8350 2000
Wire Wire Line
	8350 1400 8350 1250
$Comp
L power:+5V #PWR01721
U 1 1 5B3EC9F3
P 8350 1250
F 0 "#PWR01721" H 8350 1100 50  0001 C CNN
F 1 "+5V" H 8350 1390 50  0000 C CNN
F 2 "" H 8350 1250 50  0001 C CNN
F 3 "" H 8350 1250 50  0001 C CNN
	1    8350 1250
	1    0    0    -1  
$EndComp
Wire Wire Line
	8750 1700 8800 1700
Text Label 8850 1700 0    60   ~ 12
m5V_curr
$Comp
L Device:R R1708
U 1 1 5B3ECB50
P 8100 3250
F 0 "R1708" V 8180 3250 50  0000 C CNN
F 1 "90.9k" V 8100 3250 50  0000 C CNN
F 2 "Resistor_SMD:R_0805_2012Metric" V 8030 3250 50  0001 C CNN
F 3 "" H 8100 3250 50  0001 C CNN
F 4 "CRCW080590K9FKEA" V 8100 3250 50  0001 C CNN "mfg#"
	1    8100 3250
	1    0    0    -1  
$EndComp
$Comp
L Device:R R1709
U 1 1 5B3ECBA1
P 8100 3650
F 0 "R1709" V 8180 3650 50  0000 C CNN
F 1 "34.8k" V 8100 3650 50  0000 C CNN
F 2 "Resistor_SMD:R_0805_2012Metric" V 8030 3650 50  0001 C CNN
F 3 "" H 8100 3650 50  0001 C CNN
F 4 "CRCW080534K8FKEA" V 8100 3650 50  0001 C CNN "mfg#"
	1    8100 3650
	1    0    0    -1  
$EndComp
Wire Wire Line
	8100 3400 8100 3450
Wire Wire Line
	8100 3100 8100 3000
Wire Wire Line
	8100 3450 8400 3450
Connection ~ 8100 3450
Wire Wire Line
	8100 3800 8100 3900
$Comp
L power:GND #PWR01720
U 1 1 5B3ECD4A
P 8100 3900
F 0 "#PWR01720" H 8100 3650 50  0001 C CNN
F 1 "GND" H 8100 3750 50  0000 C CNN
F 2 "" H 8100 3900 50  0001 C CNN
F 3 "" H 8100 3900 50  0001 C CNN
	1    8100 3900
	1    0    0    -1  
$EndComp
Text Label 8400 3450 0    60   ~ 12
VIN_volt
$Comp
L lbl_adc:AD7994 U1701
U 1 1 5B3ED49D
P 5100 5350
F 0 "U1701" H 5400 4300 60  0000 C CNN
F 1 "AD7993" H 5550 5500 60  0000 C CNN
F 2 "Package_SO:TSSOP-16_4.4x5mm_P0.65mm" H 6400 4300 60  0001 C CNN
F 3 "" H 5100 5350 60  0000 C CNN
F 4 "AD7993BRUZ-0" H 5100 5350 50  0001 C CNN "mfg#"
	1    5100 5350
	1    0    0    -1  
$EndComp
Text Label 6700 5650 0    60   ~ 12
VIN_volt
$Comp
L power:GND #PWR01709
U 1 1 5B3EDE30
P 5900 6750
F 0 "#PWR01709" H 5900 6500 50  0001 C CNN
F 1 "GND" H 5900 6600 50  0000 C CNN
F 2 "" H 5900 6750 50  0001 C CNN
F 3 "" H 5900 6750 50  0001 C CNN
	1    5900 6750
	1    0    0    -1  
$EndComp
NoConn ~ 5100 5550
$Comp
L power:GND #PWR01705
U 1 1 5B3EDE43
P 4800 5650
F 0 "#PWR01705" H 4800 5400 50  0001 C CNN
F 1 "GND" H 4800 5500 50  0000 C CNN
F 2 "" H 4800 5650 50  0001 C CNN
F 3 "" H 4800 5650 50  0001 C CNN
	1    4800 5650
	1    0    0    -1  
$EndComp
Wire Wire Line
	5100 5650 4800 5650
$Comp
L Device:C C1703
U 1 1 5B3EDE50
P 6150 4850
F 0 "C1703" H 6175 4950 50  0000 L CNN
F 1 "10uF" H 6175 4750 50  0000 L CNN
F 2 "Capacitor_SMD:C_0805_2012Metric" H 6188 4700 50  0001 C CNN
F 3 "" H 6150 4850 50  0001 C CNN
	1    6150 4850
	1    0    0    -1  
$EndComp
$Comp
L Device:C C1704
U 1 1 5B3EDE57
P 6450 4850
F 0 "C1704" H 6475 4950 50  0000 L CNN
F 1 "0.1uF" H 6475 4750 50  0000 L CNN
F 2 "Capacitor_SMD:C_0805_2012Metric" H 6488 4700 50  0001 C CNN
F 3 "" H 6450 4850 50  0001 C CNN
	1    6450 4850
	1    0    0    -1  
$EndComp
$Comp
L power:GND #PWR01715
U 1 1 5B3EDE5E
P 6300 5050
F 0 "#PWR01715" H 6300 4800 50  0001 C CNN
F 1 "GND" H 6300 4900 50  0000 C CNN
F 2 "" H 6300 5050 50  0001 C CNN
F 3 "" H 6300 5050 50  0001 C CNN
	1    6300 5050
	1    0    0    -1  
$EndComp
Wire Wire Line
	6150 5000 6300 5000
Connection ~ 6300 5000
Wire Wire Line
	6300 5000 6300 5050
Wire Wire Line
	5100 5000 5100 5350
Text Label 6700 5450 0    60   ~ 12
VIN_curr
Text Label 6700 5750 0    60   ~ 12
p5V_curr
Text Label 6700 5550 0    60   ~ 12
m5V_curr
Wire Wire Line
	5100 6150 5050 6150
Wire Wire Line
	5900 6750 5900 6650
Connection ~ 5900 6650
Text HLabel 5100 5850 0    60   Input ~ 12
SCL
Text HLabel 5100 5950 0    60   BiDi ~ 12
SDA
$Comp
L Device:R R1707
U 1 1 5B400DC4
P 6450 3650
F 0 "R1707" V 6530 3650 50  0000 C CNN
F 1 "250k" V 6450 3650 50  0000 C CNN
F 2 "Resistor_SMD:R_0805_2012Metric" V 6380 3650 50  0001 C CNN
F 3 "" H 6450 3650 50  0001 C CNN
F 4 "TNPW0805249KBEEA" V 6450 3650 50  0001 C CNN "mfg#"
	1    6450 3650
	1    0    0    -1  
$EndComp
Wire Wire Line
	6450 3500 6450 3400
Connection ~ 6450 3400
Wire Wire Line
	6450 3800 6450 3850
$Comp
L power:GND #PWR01717
U 1 1 5B400F1D
P 6450 3850
F 0 "#PWR01717" H 6450 3600 50  0001 C CNN
F 1 "GND" H 6450 3700 50  0000 C CNN
F 2 "" H 6450 3850 50  0001 C CNN
F 3 "" H 6450 3850 50  0001 C CNN
	1    6450 3850
	1    0    0    -1  
$EndComp
$Comp
L Device:R R1706
U 1 1 5B401067
P 6450 1950
F 0 "R1706" V 6530 1950 50  0000 C CNN
F 1 "500k" V 6450 1950 50  0000 C CNN
F 2 "Resistor_SMD:R_0805_2012Metric" V 6380 1950 50  0001 C CNN
F 3 "" H 6450 1950 50  0001 C CNN
F 4 "TNPW0805499KBEEA" V 6450 1950 50  0001 C CNN "mfg#"
	1    6450 1950
	1    0    0    -1  
$EndComp
Wire Wire Line
	6450 2100 6450 2150
$Comp
L power:GND #PWR01716
U 1 1 5B40106E
P 6450 2150
F 0 "#PWR01716" H 6450 1900 50  0001 C CNN
F 1 "GND" H 6450 2000 50  0000 C CNN
F 2 "" H 6450 2150 50  0001 C CNN
F 3 "" H 6450 2150 50  0001 C CNN
	1    6450 2150
	1    0    0    -1  
$EndComp
$Comp
L Device:R R1710
U 1 1 5B401142
P 8800 1950
F 0 "R1710" V 8880 1950 50  0000 C CNN
F 1 "500k" V 8800 1950 50  0000 C CNN
F 2 "Resistor_SMD:R_0805_2012Metric" V 8730 1950 50  0001 C CNN
F 3 "" H 8800 1950 50  0001 C CNN
	1    8800 1950
	1    0    0    -1  
$EndComp
$Comp
L power:GND #PWR01724
U 1 1 5B401149
P 8800 2150
F 0 "#PWR01724" H 8800 1900 50  0001 C CNN
F 1 "GND" H 8800 2000 50  0000 C CNN
F 2 "" H 8800 2150 50  0001 C CNN
F 3 "" H 8800 2150 50  0001 C CNN
	1    8800 2150
	1    0    0    -1  
$EndComp
Wire Wire Line
	6450 1800 6450 1700
Connection ~ 6450 1700
Wire Wire Line
	8800 1800 8800 1700
Connection ~ 8800 1700
Wire Wire Line
	8800 2150 8800 2100
$Comp
L power:+3V3 #PWR01708
U 1 1 5B404945
P 5900 4650
F 0 "#PWR01708" H 5900 4500 50  0001 C CNN
F 1 "+3V3" H 5900 4790 50  0000 C CNN
F 2 "" H 5900 4650 50  0001 C CNN
F 3 "" H 5900 4650 50  0001 C CNN
	1    5900 4650
	1    0    0    -1  
$EndComp
$Comp
L power:+3V3 #PWR01707
U 1 1 5B40498B
P 5100 5000
F 0 "#PWR01707" H 5100 4850 50  0001 C CNN
F 1 "+3V3" H 5100 5140 50  0000 C CNN
F 2 "" H 5100 5000 50  0001 C CNN
F 3 "" H 5100 5000 50  0001 C CNN
	1    5100 5000
	1    0    0    -1  
$EndComp
Wire Wire Line
	3500 1500 3400 1500
Wire Wire Line
	3500 1300 3500 1500
Wire Wire Line
	2800 1500 2900 1500
Wire Wire Line
	2800 1300 2800 1500
$Comp
L power:GND #PWR01702
U 1 1 5B437BB4
P 2700 1300
F 0 "#PWR01702" H 2700 1050 50  0001 C CNN
F 1 "GND" H 2700 1150 50  0000 C CNN
F 2 "" H 2700 1300 50  0001 C CNN
F 3 "" H 2700 1300 50  0001 C CNN
	1    2700 1300
	1    0    0    -1  
$EndComp
$Comp
L power:GND #PWR01703
U 1 1 5B437BFA
P 3600 1300
F 0 "#PWR01703" H 3600 1050 50  0001 C CNN
F 1 "GND" H 3600 1150 50  0000 C CNN
F 2 "" H 3600 1300 50  0001 C CNN
F 3 "" H 3600 1300 50  0001 C CNN
	1    3600 1300
	1    0    0    -1  
$EndComp
Wire Wire Line
	2800 1300 2700 1300
Wire Wire Line
	3500 1300 3600 1300
$Comp
L Device:EMI_Filter_CLC FL1701
U 1 1 5B47A043
P 2950 4100
F 0 "FL1701" H 2950 4375 50  0000 C CNN
F 1 "4700-003MLF" H 2950 4300 50  0000 C CNN
F 2 "lbl_filters:4700-008MLF" V 2950 4100 50  0001 C CNN
F 3 "" V 2950 4100 50  0001 C CNN
F 4 "4700-003MLF" H 2950 4100 50  0001 C CNN "mfg#"
	1    2950 4100
	0    -1   -1   0   
$EndComp
Wire Wire Line
	2850 3600 2850 3800
Wire Wire Line
	3050 4100 3450 4100
Text HLabel 3550 1900 2    60   Output ~ 12
raw_p5V
Wire Wire Line
	3500 1900 3550 1900
Text HLabel 2750 1900 0    60   Output ~ 12
raw_m5V
Wire Wire Line
	2800 1900 2750 1900
Wire Wire Line
	2850 2475 2850 2525
Wire Wire Line
	3900 1600 3850 1600
Wire Wire Line
	3500 1600 3400 1600
Wire Wire Line
	2800 1600 2900 1600
Wire Wire Line
	2400 1600 2450 1600
Wire Wire Line
	8100 3450 8100 3500
Wire Wire Line
	6300 5000 6450 5000
Wire Wire Line
	6450 3400 6500 3400
Wire Wire Line
	6450 1700 6500 1700
Wire Wire Line
	8800 1700 8850 1700
Wire Wire Line
	3900 1600 4050 1600
Wire Wire Line
	2150 1600 2250 1600
Wire Wire Line
	5700 6650 5800 6650
Wire Wire Line
	5900 6650 6000 6650
$Comp
L Amplifier_Current:INA138 U1703
U 1 1 5CA51E1F
P 6100 3400
F 0 "U1703" H 6100 3650 50  0000 L CNN
F 1 "INA138" H 6100 3550 50  0000 L CNN
F 2 "Package_TO_SOT_SMD:SOT-23-5" H 6100 3400 50  0001 C CNN
F 3 "http://www.ti.com/lit/ds/symlink/ina138.pdf" H 6100 3405 50  0001 C CNN
	1    6100 3400
	1    0    0    -1  
$EndComp
Connection ~ 2250 1600
Wire Wire Line
	2250 1600 2400 1600
Connection ~ 4050 1600
Wire Wire Line
	4050 1600 4150 1600
Connection ~ 6000 6650
Wire Wire Line
	6000 6650 6100 6650
Connection ~ 5800 6650
Wire Wire Line
	5800 6650 5900 6650
Wire Wire Line
	6150 4700 6300 4700
Text Label 3900 1850 0    60   ~ 12
p5V_n
Text Label 3500 1850 2    60   ~ 12
p5V_p
Text Label 8100 3000 2    60   ~ 12
VIN
Text HLabel 3450 4475 3    60   Input ~ 12
VIN_RTN
Text HLabel 2850 4475 3    60   Output ~ 12
VIN
Wire Wire Line
	2850 4475 2850 4400
Wire Wire Line
	3450 4475 3450 4100
Wire Wire Line
	2850 2475 2850 2350
Connection ~ 2850 2475
Wire Wire Line
	2850 2875 2850 3025
Connection ~ 2850 2875
Wire Wire Line
	3450 2350 3450 3025
Wire Wire Line
	3450 4100 3450 3600
Connection ~ 3450 4100
$Comp
L Connector_Generic:Conn_01x01 J1702
U 1 1 5D699BDF
P 2850 3400
F 0 "J1702" V 2814 3312 50  0000 R CNN
F 1 "Conn_01x01" V 2723 3312 50  0000 R CNN
F 2 "lbl_conn:BigPad" H 2850 3400 50  0001 C CNN
F 3 "~" H 2850 3400 50  0001 C CNN
	1    2850 3400
	0    -1   -1   0   
$EndComp
$Comp
L Connector_Generic:Conn_01x01 J1701
U 1 1 5D69E61F
P 2850 3225
F 0 "J1701" V 2722 3305 50  0000 L CNN
F 1 "Conn_01x01" V 2813 3305 50  0000 L CNN
F 2 "lbl_conn:BigPad" H 2850 3225 50  0001 C CNN
F 3 "~" H 2850 3225 50  0001 C CNN
	1    2850 3225
	0    1    1    0   
$EndComp
$Comp
L Connector_Generic:Conn_01x01 J1707
U 1 1 5D69F514
P 3450 3400
F 0 "J1707" V 3414 3312 50  0000 R CNN
F 1 "Conn_01x01" V 3323 3312 50  0000 R CNN
F 2 "lbl_conn:BigPad" H 3450 3400 50  0001 C CNN
F 3 "~" H 3450 3400 50  0001 C CNN
	1    3450 3400
	0    -1   -1   0   
$EndComp
$Comp
L Connector_Generic:Conn_01x01 J1706
U 1 1 5D69F51E
P 3450 3225
F 0 "J1706" V 3322 3305 50  0000 L CNN
F 1 "Conn_01x01" V 3413 3305 50  0000 L CNN
F 2 "lbl_conn:BigPad" H 3450 3225 50  0001 C CNN
F 3 "~" H 3450 3225 50  0001 C CNN
	1    3450 3225
	0    1    1    0   
$EndComp
Text Label 3450 2350 0    60   ~ 0
conn_VIN_RET
Text Label 2850 2350 2    60   ~ 0
conn_VIN
Wire Wire Line
	2700 5400 2800 5400
Wire Wire Line
	2200 5700 2800 5700
Connection ~ 2200 5700
Wire Wire Line
	2200 5400 2400 5400
Wire Wire Line
	2000 5400 2200 5400
Connection ~ 2200 5400
$Comp
L Device:C C1701
U 1 1 5A265C78
P 1500 5550
F 0 "C1701" H 1525 5650 50  0000 L CNN
F 1 "22nF/1kV" H 1525 5450 50  0000 L CNN
F 2 "Capacitor_SMD:C_1206_3216Metric" H 1538 5400 50  0001 C CNN
F 3 "" H 1500 5550 50  0001 C CNN
F 4 "C1206X223KDRACAUTO" H 1500 5550 50  0001 C CNN "mfg#"
	1    1500 5550
	1    0    0    -1  
$EndComp
$Comp
L Device:R R1701
U 1 1 5A265CE5
P 1850 5400
F 0 "R1701" V 1930 5400 50  0000 C CNN
F 1 "5k" V 1850 5400 50  0000 C CNN
F 2 "Resistor_SMD:R_0805_2012Metric" V 1780 5400 50  0001 C CNN
F 3 "" H 1850 5400 50  0001 C CNN
	1    1850 5400
	0    1    1    0   
$EndComp
Text Label 2850 3700 2    60   ~ 0
prefilt_VIN
$Comp
L Device:C C1705
U 1 1 5D1F86B5
P 7550 5600
F 0 "C1705" H 7665 5646 50  0000 L CNN
F 1 "1uF" H 7665 5555 50  0000 L CNN
F 2 "Capacitor_SMD:C_0805_2012Metric" H 7588 5450 50  0001 C CNN
F 3 "~" H 7550 5600 50  0001 C CNN
F 4 "CL21B105KAFNNNE" H 7550 5600 50  0001 C CNN "mfg#"
	1    7550 5600
	1    0    0    -1  
$EndComp
$Comp
L power:GND #PWR01718
U 1 1 5D1F9266
P 7550 5800
F 0 "#PWR01718" H 7550 5550 50  0001 C CNN
F 1 "GND" H 7555 5627 50  0000 C CNN
F 2 "" H 7550 5800 50  0001 C CNN
F 3 "" H 7550 5800 50  0001 C CNN
	1    7550 5800
	1    0    0    -1  
$EndComp
Wire Wire Line
	7550 5800 7550 5750
Text Label 7550 5450 0    60   ~ 0
VIN_curr
$Comp
L Device:C C1706
U 1 1 5D1FCA3C
P 8000 5600
F 0 "C1706" H 8115 5646 50  0000 L CNN
F 1 "1uF" H 8115 5555 50  0000 L CNN
F 2 "Capacitor_SMD:C_0805_2012Metric" H 8038 5450 50  0001 C CNN
F 3 "~" H 8000 5600 50  0001 C CNN
	1    8000 5600
	1    0    0    -1  
$EndComp
$Comp
L power:GND #PWR01719
U 1 1 5D1FCA46
P 8000 5800
F 0 "#PWR01719" H 8000 5550 50  0001 C CNN
F 1 "GND" H 8005 5627 50  0000 C CNN
F 2 "" H 8000 5800 50  0001 C CNN
F 3 "" H 8000 5800 50  0001 C CNN
	1    8000 5800
	1    0    0    -1  
$EndComp
Wire Wire Line
	8000 5800 8000 5750
Text Label 8000 5450 0    60   ~ 0
m5V_curr
$Comp
L Device:C C1707
U 1 1 5D2003AB
P 8450 5600
F 0 "C1707" H 8565 5646 50  0000 L CNN
F 1 "1uF" H 8565 5555 50  0000 L CNN
F 2 "Capacitor_SMD:C_0805_2012Metric" H 8488 5450 50  0001 C CNN
F 3 "~" H 8450 5600 50  0001 C CNN
	1    8450 5600
	1    0    0    -1  
$EndComp
$Comp
L power:GND #PWR01723
U 1 1 5D2003B5
P 8450 5800
F 0 "#PWR01723" H 8450 5550 50  0001 C CNN
F 1 "GND" H 8455 5627 50  0000 C CNN
F 2 "" H 8450 5800 50  0001 C CNN
F 3 "" H 8450 5800 50  0001 C CNN
	1    8450 5800
	1    0    0    -1  
$EndComp
Wire Wire Line
	8450 5800 8450 5750
Text Label 8450 5450 0    60   ~ 0
VIN_volt
$Comp
L Device:C C1708
U 1 1 5D2003C1
P 8900 5600
F 0 "C1708" H 9015 5646 50  0000 L CNN
F 1 "1uF" H 9015 5555 50  0000 L CNN
F 2 "Capacitor_SMD:C_0805_2012Metric" H 8938 5450 50  0001 C CNN
F 3 "~" H 8900 5600 50  0001 C CNN
	1    8900 5600
	1    0    0    -1  
$EndComp
$Comp
L power:GND #PWR01725
U 1 1 5D2003CB
P 8900 5800
F 0 "#PWR01725" H 8900 5550 50  0001 C CNN
F 1 "GND" H 8905 5627 50  0000 C CNN
F 2 "" H 8900 5800 50  0001 C CNN
F 3 "" H 8900 5800 50  0001 C CNN
	1    8900 5800
	1    0    0    -1  
$EndComp
Wire Wire Line
	8900 5800 8900 5750
Text Label 8900 5450 0    60   ~ 0
p5V_curr
Wire Wire Line
	1300 5700 1500 5700
Connection ~ 1500 5700
Wire Wire Line
	1500 5400 1700 5400
Wire Wire Line
	1300 5400 1500 5400
Connection ~ 1500 5400
$Comp
L Device:C C1702
U 1 1 5D211984
P 2200 5550
F 0 "C1702" H 2225 5650 50  0000 L CNN
F 1 "22nF/1kV" H 2225 5450 50  0000 L CNN
F 2 "Capacitor_SMD:C_1206_3216Metric" H 2238 5400 50  0001 C CNN
F 3 "" H 2200 5550 50  0001 C CNN
	1    2200 5550
	1    0    0    -1  
$EndComp
Wire Wire Line
	1500 5700 2200 5700
$Comp
L Device:R R1702
U 1 1 5D21198E
P 2550 5400
F 0 "R1702" V 2630 5400 50  0000 C CNN
F 1 "5k" V 2550 5400 50  0000 C CNN
F 2 "Resistor_SMD:R_0805_2012Metric" V 2480 5400 50  0001 C CNN
F 3 "" H 2550 5400 50  0001 C CNN
	1    2550 5400
	0    1    1    0   
$EndComp
Wire Wire Line
	5900 4650 5900 4950
$Comp
L power:+3V3 #PWR01714
U 1 1 5D407DC6
P 6300 4650
F 0 "#PWR01714" H 6300 4500 50  0001 C CNN
F 1 "+3V3" H 6315 4823 50  0000 C CNN
F 2 "" H 6300 4650 50  0001 C CNN
F 3 "" H 6300 4650 50  0001 C CNN
	1    6300 4650
	1    0    0    -1  
$EndComp
Wire Wire Line
	6300 4650 6300 4700
Connection ~ 6300 4700
Wire Wire Line
	6300 4700 6450 4700
$Comp
L power:GND #PWR01706
U 1 1 5D430200
P 5050 6150
F 0 "#PWR01706" H 5050 5900 50  0001 C CNN
F 1 "GND" H 5055 5977 50  0000 C CNN
F 2 "" H 5050 6150 50  0001 C CNN
F 3 "" H 5050 6150 50  0001 C CNN
	1    5050 6150
	1    0    0    -1  
$EndComp
$EndSCHEMATC
