EESchema Schematic File Version 4
LIBS:pbv3_mass_test_adapter_active-cache
EELAYER 29 0
EELAYER END
$Descr A4 11693 8268
encoding utf-8
Sheet 18 26
Title "Powerboard v3 Massive Active Tester Board"
Date "2019-06-04"
Rev ""
Comp "Lawrence Berkeley National Laboratory"
Comment1 ""
Comment2 ""
Comment3 ""
Comment4 ""
$EndDescr
Wire Wire Line
	3100 2900 4050 2900
$Comp
L power:GND #PWR01815
U 1 1 5A25A617
P 5300 3700
F 0 "#PWR01815" H 5300 3450 50  0001 C CNN
F 1 "GND" H 5300 3550 50  0000 C CNN
F 2 "" H 5300 3700 50  0001 C CNN
F 3 "" H 5300 3700 50  0001 C CNN
	1    5300 3700
	1    0    0    -1  
$EndComp
$Comp
L Device:R R1805
U 1 1 5A25A67F
P 5300 3050
F 0 "R1805" V 5380 3050 50  0000 C CNN
F 1 "133k" V 5300 3050 50  0000 C CNN
F 2 "Resistor_SMD:R_0805_2012Metric" V 5230 3050 50  0001 C CNN
F 3 "" H 5300 3050 50  0001 C CNN
F 4 "CRCW0805133KFKEA" V 5300 3050 50  0001 C CNN "mfg#"
	1    5300 3050
	1    0    0    -1  
$EndComp
$Comp
L Device:R R1806
U 1 1 5A25A70B
P 5300 3450
F 0 "R1806" V 5380 3450 50  0000 C CNN
F 1 "24k" V 5300 3450 50  0000 C CNN
F 2 "Resistor_SMD:R_0805_2012Metric" V 5230 3450 50  0001 C CNN
F 3 "" H 5300 3450 50  0001 C CNN
F 4 "CRCW080524K0FKEA" V 5300 3450 50  0001 C CNN "mfg#"
	1    5300 3450
	1    0    0    -1  
$EndComp
Wire Wire Line
	5300 3200 5300 3300
Wire Wire Line
	5300 3600 5300 3700
Connection ~ 5300 2900
Connection ~ 3100 2900
$Comp
L Device:C C1801
U 1 1 5A25A824
P 3100 3250
F 0 "C1801" H 3125 3350 50  0000 L CNN
F 1 "1uF" H 3125 3150 50  0000 L CNN
F 2 "Capacitor_SMD:C_0805_2012Metric" H 3138 3100 50  0001 C CNN
F 3 "" H 3100 3250 50  0001 C CNN
	1    3100 3250
	1    0    0    -1  
$EndComp
$Comp
L Device:C C1803
U 1 1 5A25A883
P 5500 3050
F 0 "C1803" H 5525 3150 50  0000 L CNN
F 1 "1uF" H 5525 2950 50  0000 L CNN
F 2 "Capacitor_SMD:C_0805_2012Metric" H 5538 2900 50  0001 C CNN
F 3 "" H 5500 3050 50  0001 C CNN
	1    5500 3050
	1    0    0    -1  
$EndComp
$Comp
L power:GND #PWR01809
U 1 1 5A25A8E0
P 3100 3500
F 0 "#PWR01809" H 3100 3250 50  0001 C CNN
F 1 "GND" H 3100 3350 50  0000 C CNN
F 2 "" H 3100 3500 50  0001 C CNN
F 3 "" H 3100 3500 50  0001 C CNN
	1    3100 3500
	1    0    0    -1  
$EndComp
$Comp
L power:GND #PWR01816
U 1 1 5A25A900
P 5500 3300
F 0 "#PWR01816" H 5500 3050 50  0001 C CNN
F 1 "GND" H 5500 3150 50  0000 C CNN
F 2 "" H 5500 3300 50  0001 C CNN
F 3 "" H 5500 3300 50  0001 C CNN
	1    5500 3300
	1    0    0    -1  
$EndComp
Wire Wire Line
	5500 3300 5500 3200
Wire Wire Line
	3100 3500 3100 3400
$Comp
L power:GND #PWR01812
U 1 1 5A25A96A
P 4550 3550
F 0 "#PWR01812" H 4550 3300 50  0001 C CNN
F 1 "GND" H 4550 3400 50  0000 C CNN
F 2 "" H 4550 3550 50  0001 C CNN
F 3 "" H 4550 3550 50  0001 C CNN
	1    4550 3550
	1    0    0    -1  
$EndComp
Wire Wire Line
	4550 3450 4550 3550
$Comp
L power:+5V #PWR01808
U 1 1 5A25A9A4
P 3100 2800
F 0 "#PWR01808" H 3100 2650 50  0001 C CNN
F 1 "+5V" H 3100 2940 50  0000 C CNN
F 2 "" H 3100 2800 50  0001 C CNN
F 3 "" H 3100 2800 50  0001 C CNN
	1    3100 2800
	1    0    0    -1  
$EndComp
Wire Wire Line
	3100 2800 3100 2900
Text HLabel 2000 1200 0    60   Input ~ 12
PWR_EN
Text Label 4000 3200 2    60   ~ 12
PWR_EN_3V3
Wire Wire Line
	4050 3200 4000 3200
Wire Wire Line
	5300 3200 5050 3200
Connection ~ 5300 3200
$Comp
L power:+3V3 #PWR01817
U 1 1 5B361189
P 6500 2900
F 0 "#PWR01817" H 6500 2750 50  0001 C CNN
F 1 "+3V3" H 6500 3040 50  0000 C CNN
F 2 "" H 6500 2900 50  0001 C CNN
F 3 "" H 6500 2900 50  0001 C CNN
	1    6500 2900
	1    0    0    -1  
$EndComp
$Comp
L Device:LED D1801
U 1 1 5B3F5161
P 1900 6500
F 0 "D1801" H 1900 6600 50  0000 C CNN
F 1 "LED" H 1900 6400 50  0000 C CNN
F 2 "LED_SMD:LED_1206_3216Metric_Pad1.42x1.75mm_HandSolder" H 1900 6500 50  0001 C CNN
F 3 "" H 1900 6500 50  0001 C CNN
	1    1900 6500
	0    -1   -1   0   
$EndComp
$Comp
L Device:R R1802
U 1 1 5B3F5168
P 1900 6100
F 0 "R1802" V 1980 6100 50  0000 C CNN
F 1 "621" V 1900 6100 50  0000 C CNN
F 2 "Resistor_SMD:R_0805_2012Metric" V 1830 6100 50  0001 C CNN
F 3 "" H 1900 6100 50  0001 C CNN
	1    1900 6100
	1    0    0    -1  
$EndComp
Wire Wire Line
	1900 6350 1900 6250
Wire Wire Line
	1900 5950 1900 5850
Wire Wire Line
	1900 6650 1900 6750
$Comp
L power:GND #PWR01803
U 1 1 5B3F5328
P 1900 6750
F 0 "#PWR01803" H 1900 6500 50  0001 C CNN
F 1 "GND" H 1900 6600 50  0000 C CNN
F 2 "" H 1900 6750 50  0001 C CNN
F 3 "" H 1900 6750 50  0001 C CNN
	1    1900 6750
	1    0    0    -1  
$EndComp
$Comp
L power:+3V3 #PWR01813
U 1 1 5B3FF164
P 4700 5500
F 0 "#PWR01813" H 4700 5350 50  0001 C CNN
F 1 "+3V3" H 4700 5640 50  0000 C CNN
F 2 "" H 4700 5500 50  0001 C CNN
F 3 "" H 4700 5500 50  0001 C CNN
	1    4700 5500
	1    0    0    -1  
$EndComp
$Comp
L power:GND #PWR01814
U 1 1 5B3FF1C9
P 5200 6150
F 0 "#PWR01814" H 5200 5900 50  0001 C CNN
F 1 "GND" H 5200 6000 50  0000 C CNN
F 2 "" H 5200 6150 50  0001 C CNN
F 3 "" H 5200 6150 50  0001 C CNN
	1    5200 6150
	1    0    0    -1  
$EndComp
$Comp
L Device:Jumper JP1801
U 1 1 5B405365
P 5950 2900
F 0 "JP1801" H 5950 3050 50  0000 C CNN
F 1 "Jumper" H 5950 2820 50  0000 C CNN
F 2 "Connector_PinHeader_2.54mm:PinHeader_1x02_P2.54mm_Vertical_SMD_Pin1Right" H 5950 2900 50  0001 C CNN
F 3 "" H 5950 2900 50  0001 C CNN
F 4 "M20-8770246" H 5950 2900 50  0001 C CNN "mfg#"
	1    5950 2900
	1    0    0    -1  
$EndComp
Wire Wire Line
	5050 2900 5300 2900
$Comp
L Amplifier_Operational:LM321 U1801
U 1 1 5B409D6E
P 2400 1300
F 0 "U1801" H 2400 1600 50  0000 L CNN
F 1 "LM321" H 2400 1500 50  0000 L CNN
F 2 "Package_TO_SOT_SMD:SOT-23-5" H 2400 1150 50  0001 L CNN
F 3 "" H 2400 1300 50  0001 C CNN
F 4 "LM321MFX/NOPB" H 2400 1300 50  0001 C CNN "mfg#"
	1    2400 1300
	1    0    0    -1  
$EndComp
Wire Wire Line
	2100 1200 2000 1200
$Comp
L Device:R R1801
U 1 1 5B409EA9
P 1900 2050
F 0 "R1801" V 1980 2050 50  0000 C CNN
F 1 "100k" V 1900 2050 50  0000 C CNN
F 2 "Resistor_SMD:R_0805_2012Metric" V 1830 2050 50  0001 C CNN
F 3 "" H 1900 2050 50  0001 C CNN
	1    1900 2050
	1    0    0    -1  
$EndComp
$Comp
L Device:R R1804
U 1 1 5B409F10
P 2300 1900
F 0 "R1804" V 2380 1900 50  0000 C CNN
F 1 "82k" V 2300 1900 50  0000 C CNN
F 2 "Resistor_SMD:R_0805_2012Metric" V 2230 1900 50  0001 C CNN
F 3 "" H 2300 1900 50  0001 C CNN
F 4 "CRCW080582K0FKEAHP" V 2300 1900 50  0001 C CNN "mfg#"
	1    2300 1900
	0    1    1    0   
$EndComp
Wire Wire Line
	2750 1900 2450 1900
Wire Wire Line
	2150 1900 2100 1900
Wire Wire Line
	2100 1400 2100 1900
Connection ~ 2100 1900
$Comp
L power:GND #PWR01801
U 1 1 5B40A046
P 1900 2200
F 0 "#PWR01801" H 1900 1950 50  0001 C CNN
F 1 "GND" H 1900 2050 50  0000 C CNN
F 2 "" H 1900 2200 50  0001 C CNN
F 3 "" H 1900 2200 50  0001 C CNN
	1    1900 2200
	1    0    0    -1  
$EndComp
$Comp
L power:+5V #PWR01806
U 1 1 5B40A082
P 2300 950
F 0 "#PWR01806" H 2300 800 50  0001 C CNN
F 1 "+5V" H 2300 1090 50  0000 C CNN
F 2 "" H 2300 950 50  0001 C CNN
F 3 "" H 2300 950 50  0001 C CNN
	1    2300 950 
	1    0    0    -1  
$EndComp
Wire Wire Line
	2300 950  2300 1000
$Comp
L Device:C C1802
U 1 1 5B40A1E7
P 3500 1100
F 0 "C1802" H 3525 1200 50  0000 L CNN
F 1 "0.1uF" H 3525 1000 50  0000 L CNN
F 2 "Capacitor_SMD:C_0805_2012Metric" H 3538 950 50  0001 C CNN
F 3 "" H 3500 1100 50  0001 C CNN
	1    3500 1100
	1    0    0    -1  
$EndComp
$Comp
L power:+5V #PWR01810
U 1 1 5B40A31F
P 3500 900
F 0 "#PWR01810" H 3500 750 50  0001 C CNN
F 1 "+5V" H 3500 1040 50  0000 C CNN
F 2 "" H 3500 900 50  0001 C CNN
F 3 "" H 3500 900 50  0001 C CNN
	1    3500 900 
	1    0    0    -1  
$EndComp
Wire Wire Line
	3500 950  3500 900 
$Comp
L power:GND #PWR01811
U 1 1 5B40A438
P 3500 1300
F 0 "#PWR01811" H 3500 1050 50  0001 C CNN
F 1 "GND" H 3500 1150 50  0000 C CNN
F 2 "" H 3500 1300 50  0001 C CNN
F 3 "" H 3500 1300 50  0001 C CNN
	1    3500 1300
	1    0    0    -1  
$EndComp
Wire Wire Line
	3500 1300 3500 1250
Wire Wire Line
	2700 1300 2750 1300
Wire Wire Line
	2750 1300 2750 1900
Connection ~ 2750 1300
Text Label 2800 1300 0    60   ~ 12
PWR_EN_3V3
$Comp
L lbl_power:APD123 U1802
U 1 1 5B40AFF4
P 4550 3350
F 0 "U1802" H 4300 3350 60  0000 C CNN
F 1 "ADP123" H 4800 3350 60  0000 C CNN
F 2 "Package_TO_SOT_SMD:TSOT-23-5" H 4300 3350 60  0001 C CNN
F 3 "" H 4300 3350 60  0001 C CNN
F 4 "ADP123AUJZ-R7" H 4550 3350 50  0001 C CNN "mfg#"
	1    4550 3350
	1    0    0    -1  
$EndComp
Connection ~ 5500 2900
$Comp
L power:GND #PWR01807
U 1 1 5B6147A5
P 2300 1650
F 0 "#PWR01807" H 2300 1400 50  0001 C CNN
F 1 "GND" H 2300 1500 50  0000 C CNN
F 2 "" H 2300 1650 50  0001 C CNN
F 3 "" H 2300 1650 50  0001 C CNN
	1    2300 1650
	1    0    0    -1  
$EndComp
Wire Wire Line
	2300 1650 2300 1600
Wire Wire Line
	5300 2900 5500 2900
Wire Wire Line
	3100 2900 3100 3100
Wire Wire Line
	2100 1900 1900 1900
Wire Wire Line
	2750 1300 2800 1300
Wire Wire Line
	5500 2900 5650 2900
Wire Wire Line
	4700 5500 4700 5600
$Comp
L Connector_Generic:Conn_02x04_Odd_Even J1801
U 1 1 5CA51694
P 4900 5700
F 0 "J1801" H 4950 5900 50  0000 C CNN
F 1 "Conn_02x04_Odd_Even" H 4750 5400 50  0000 C CNN
F 2 "Connector_PinHeader_2.54mm:PinHeader_2x04_P2.54mm_Vertical_SMD" H 4900 5700 50  0001 C CNN
F 3 "~" H 4900 5700 50  0001 C CNN
F 4 "15910080" H 4900 5700 50  0001 C CNN "mfg#"
	1    4900 5700
	1    0    0    -1  
$EndComp
Wire Wire Line
	5200 5900 5200 6150
Wire Wire Line
	4700 5600 4700 5700
Connection ~ 4700 5600
Connection ~ 4700 5700
Wire Wire Line
	4700 5700 4700 5800
Connection ~ 4700 5800
Wire Wire Line
	4700 5800 4700 5900
Wire Wire Line
	5200 5600 5200 5700
Connection ~ 5200 5900
Connection ~ 5200 5700
Wire Wire Line
	5200 5700 5200 5800
Connection ~ 5200 5800
Wire Wire Line
	5200 5800 5200 5900
$Comp
L power:PWR_FLAG #FLG01801
U 1 1 5CFA17EA
P 6600 1050
F 0 "#FLG01801" H 6600 1125 50  0001 C CNN
F 1 "PWR_FLAG" H 6600 1223 50  0000 C CNN
F 2 "" H 6600 1050 50  0001 C CNN
F 3 "~" H 6600 1050 50  0001 C CNN
	1    6600 1050
	1    0    0    -1  
$EndComp
$Comp
L power:GND #PWR01818
U 1 1 5CFA1F64
P 6600 1150
F 0 "#PWR01818" H 6600 900 50  0001 C CNN
F 1 "GND" H 6605 977 50  0000 C CNN
F 2 "" H 6600 1150 50  0001 C CNN
F 3 "" H 6600 1150 50  0001 C CNN
	1    6600 1150
	1    0    0    -1  
$EndComp
Wire Wire Line
	6600 1150 6600 1050
Wire Wire Line
	6250 2900 6300 2900
Wire Wire Line
	6900 2900 7850 2900
$Comp
L power:GND #PWR01822
U 1 1 5D122EFE
P 9100 3700
F 0 "#PWR01822" H 9100 3450 50  0001 C CNN
F 1 "GND" H 9100 3550 50  0000 C CNN
F 2 "" H 9100 3700 50  0001 C CNN
F 3 "" H 9100 3700 50  0001 C CNN
	1    9100 3700
	1    0    0    -1  
$EndComp
$Comp
L Device:R R1807
U 1 1 5D122F08
P 9100 3050
F 0 "R1807" V 9180 3050 50  0000 C CNN
F 1 "133k" V 9100 3050 50  0000 C CNN
F 2 "Resistor_SMD:R_0805_2012Metric" V 9030 3050 50  0001 C CNN
F 3 "" H 9100 3050 50  0001 C CNN
	1    9100 3050
	1    0    0    -1  
$EndComp
$Comp
L Device:R R1808
U 1 1 5D122F12
P 9100 3450
F 0 "R1808" V 9180 3450 50  0000 C CNN
F 1 "33.2k" V 9100 3450 50  0000 C CNN
F 2 "Resistor_SMD:R_0805_2012Metric" V 9030 3450 50  0001 C CNN
F 3 "" H 9100 3450 50  0001 C CNN
F 4 "CRCW080533K2FKEA" V 9100 3450 50  0001 C CNN "mfg#"
	1    9100 3450
	1    0    0    -1  
$EndComp
Wire Wire Line
	9100 3200 9100 3300
Wire Wire Line
	9100 3600 9100 3700
Connection ~ 9100 2900
Connection ~ 6900 2900
$Comp
L Device:C C1804
U 1 1 5D122F20
P 6900 3250
F 0 "C1804" H 6925 3350 50  0000 L CNN
F 1 "1uF" H 6925 3150 50  0000 L CNN
F 2 "Capacitor_SMD:C_0805_2012Metric" H 6938 3100 50  0001 C CNN
F 3 "" H 6900 3250 50  0001 C CNN
	1    6900 3250
	1    0    0    -1  
$EndComp
$Comp
L Device:C C1805
U 1 1 5D122F2A
P 9300 3050
F 0 "C1805" H 9325 3150 50  0000 L CNN
F 1 "1uF" H 9325 2950 50  0000 L CNN
F 2 "Capacitor_SMD:C_0805_2012Metric" H 9338 2900 50  0001 C CNN
F 3 "" H 9300 3050 50  0001 C CNN
	1    9300 3050
	1    0    0    -1  
$EndComp
$Comp
L power:GND #PWR01820
U 1 1 5D122F34
P 6900 3500
F 0 "#PWR01820" H 6900 3250 50  0001 C CNN
F 1 "GND" H 6900 3350 50  0000 C CNN
F 2 "" H 6900 3500 50  0001 C CNN
F 3 "" H 6900 3500 50  0001 C CNN
	1    6900 3500
	1    0    0    -1  
$EndComp
$Comp
L power:GND #PWR01823
U 1 1 5D122F3E
P 9300 3300
F 0 "#PWR01823" H 9300 3050 50  0001 C CNN
F 1 "GND" H 9300 3150 50  0000 C CNN
F 2 "" H 9300 3300 50  0001 C CNN
F 3 "" H 9300 3300 50  0001 C CNN
	1    9300 3300
	1    0    0    -1  
$EndComp
Wire Wire Line
	9300 3300 9300 3200
Wire Wire Line
	6900 3500 6900 3400
$Comp
L power:GND #PWR01821
U 1 1 5D122F4A
P 8350 3550
F 0 "#PWR01821" H 8350 3300 50  0001 C CNN
F 1 "GND" H 8350 3400 50  0000 C CNN
F 2 "" H 8350 3550 50  0001 C CNN
F 3 "" H 8350 3550 50  0001 C CNN
	1    8350 3550
	1    0    0    -1  
$EndComp
Wire Wire Line
	8350 3450 8350 3550
$Comp
L power:+5V #PWR01819
U 1 1 5D122F55
P 6900 2800
F 0 "#PWR01819" H 6900 2650 50  0001 C CNN
F 1 "+5V" H 6900 2940 50  0000 C CNN
F 2 "" H 6900 2800 50  0001 C CNN
F 3 "" H 6900 2800 50  0001 C CNN
	1    6900 2800
	1    0    0    -1  
$EndComp
Wire Wire Line
	6900 2800 6900 2900
Text Label 7800 3200 2    60   ~ 12
PWR_EN_3V3
Wire Wire Line
	7850 3200 7800 3200
Wire Wire Line
	9100 3200 8850 3200
Connection ~ 9100 3200
$Comp
L Device:Jumper JP1802
U 1 1 5D122F6E
P 9750 2900
F 0 "JP1802" H 9750 3050 50  0000 C CNN
F 1 "Jumper" H 9750 2820 50  0000 C CNN
F 2 "Connector_PinHeader_2.54mm:PinHeader_1x02_P2.54mm_Vertical_SMD_Pin1Right" H 9750 2900 50  0001 C CNN
F 3 "" H 9750 2900 50  0001 C CNN
	1    9750 2900
	1    0    0    -1  
$EndComp
Wire Wire Line
	8850 2900 9100 2900
$Comp
L lbl_power:APD123 U1803
U 1 1 5D122F79
P 8350 3350
F 0 "U1803" H 8100 3350 60  0000 C CNN
F 1 "ADP123" H 8600 3350 60  0000 C CNN
F 2 "Package_TO_SOT_SMD:TSOT-23-5" H 8100 3350 60  0001 C CNN
F 3 "" H 8100 3350 60  0001 C CNN
	1    8350 3350
	1    0    0    -1  
$EndComp
Connection ~ 9300 2900
Wire Wire Line
	9100 2900 9300 2900
Wire Wire Line
	6900 2900 6900 3100
Wire Wire Line
	9300 2900 9450 2900
Wire Wire Line
	10050 2900 10100 2900
$Comp
L Device:LED D1802
U 1 1 5D18D03B
P 2200 6500
F 0 "D1802" H 2200 6600 50  0000 C CNN
F 1 "LED" H 2200 6400 50  0000 C CNN
F 2 "LED_SMD:LED_1206_3216Metric_Pad1.42x1.75mm_HandSolder" H 2200 6500 50  0001 C CNN
F 3 "" H 2200 6500 50  0001 C CNN
	1    2200 6500
	0    -1   -1   0   
$EndComp
$Comp
L Device:R R1803
U 1 1 5D18D045
P 2200 6100
F 0 "R1803" V 2280 6100 50  0000 C CNN
F 1 "621" V 2200 6100 50  0000 C CNN
F 2 "Resistor_SMD:R_0805_2012Metric" V 2130 6100 50  0001 C CNN
F 3 "" H 2200 6100 50  0001 C CNN
	1    2200 6100
	1    0    0    -1  
$EndComp
Wire Wire Line
	2200 6350 2200 6250
Wire Wire Line
	2200 5950 2200 5850
Wire Wire Line
	2200 6650 2200 6750
$Comp
L power:GND #PWR01805
U 1 1 5D18D052
P 2200 6750
F 0 "#PWR01805" H 2200 6500 50  0001 C CNN
F 1 "GND" H 2200 6600 50  0000 C CNN
F 2 "" H 2200 6750 50  0001 C CNN
F 3 "" H 2200 6750 50  0001 C CNN
	1    2200 6750
	1    0    0    -1  
$EndComp
$Comp
L power:+2V5 #PWR01824
U 1 1 5D2F407A
P 10300 2900
F 0 "#PWR01824" H 10300 2750 50  0001 C CNN
F 1 "+2V5" H 10315 3073 50  0000 C CNN
F 2 "" H 10300 2900 50  0001 C CNN
F 3 "" H 10300 2900 50  0001 C CNN
	1    10300 2900
	1    0    0    -1  
$EndComp
$Comp
L power:+2V5 #PWR01804
U 1 1 5D3630EC
P 2200 5850
F 0 "#PWR01804" H 2200 5700 50  0001 C CNN
F 1 "+2V5" H 2215 6023 50  0000 C CNN
F 2 "" H 2200 5850 50  0001 C CNN
F 3 "" H 2200 5850 50  0001 C CNN
	1    2200 5850
	1    0    0    -1  
$EndComp
$Comp
L power:+3V3 #PWR01802
U 1 1 5D364CA7
P 1900 5850
F 0 "#PWR01802" H 1900 5700 50  0001 C CNN
F 1 "+3V3" H 1915 6023 50  0000 C CNN
F 2 "" H 1900 5850 50  0001 C CNN
F 3 "" H 1900 5850 50  0001 C CNN
	1    1900 5850
	1    0    0    -1  
$EndComp
$Comp
L power:PWR_FLAG #FLG0101
U 1 1 5D428EC9
P 10100 2850
F 0 "#FLG0101" H 10100 2925 50  0001 C CNN
F 1 "PWR_FLAG" H 10100 3023 50  0000 C CNN
F 2 "" H 10100 2850 50  0001 C CNN
F 3 "~" H 10100 2850 50  0001 C CNN
	1    10100 2850
	1    0    0    -1  
$EndComp
Wire Wire Line
	10100 2850 10100 2900
Connection ~ 10100 2900
Wire Wire Line
	10100 2900 10300 2900
$Comp
L power:PWR_FLAG #FLG0102
U 1 1 5D42A89F
P 6300 2850
F 0 "#FLG0102" H 6300 2925 50  0001 C CNN
F 1 "PWR_FLAG" H 6300 3023 50  0000 C CNN
F 2 "" H 6300 2850 50  0001 C CNN
F 3 "~" H 6300 2850 50  0001 C CNN
	1    6300 2850
	1    0    0    -1  
$EndComp
Wire Wire Line
	6300 2850 6300 2900
Connection ~ 6300 2900
Wire Wire Line
	6300 2900 6500 2900
$EndSCHEMATC
