EESchema Schematic File Version 4
LIBS:pbv3_mass_test_adapter_active-cache
EELAYER 29 0
EELAYER END
$Descr A4 11693 8268
encoding utf-8
Sheet 24 26
Title "Powerboard v3 Massive Active Tester Board"
Date "2019-06-04"
Rev ""
Comp ""
Comment1 ""
Comment2 ""
Comment3 ""
Comment4 ""
$EndDescr
$Comp
L Analog_ADC:MCP3425A0T-ECH U2401
U 1 1 5D29B6B2
P 2950 1950
F 0 "U2401" H 3050 2350 50  0000 C CNN
F 1 "MCP3425A0T-ECH" H 3350 2250 50  0000 C CNN
F 2 "Package_TO_SOT_SMD:SOT-23-6" H 2950 1950 50  0001 C CIN
F 3 "http://ww1.microchip.com/downloads/en/DeviceDoc/22072b.pdf" H 2950 1950 50  0001 C CNN
F 4 "MCP3425A0T-E/CH" H 2950 1950 50  0001 C CNN "mfg#"
	1    2950 1950
	1    0    0    -1  
$EndComp
$Comp
L power:GND #PWR02402
U 1 1 5D29C109
P 2950 2450
F 0 "#PWR02402" H 2950 2200 50  0001 C CNN
F 1 "GND" H 2955 2277 50  0000 C CNN
F 2 "" H 2950 2450 50  0001 C CNN
F 3 "" H 2950 2450 50  0001 C CNN
	1    2950 2450
	1    0    0    -1  
$EndComp
Wire Wire Line
	2950 2450 2950 2350
Wire Wire Line
	2950 1550 2950 1450
$Comp
L power:+3V3 #PWR02401
U 1 1 5D29CA84
P 2950 1450
F 0 "#PWR02401" H 2950 1300 50  0001 C CNN
F 1 "+3V3" H 2965 1623 50  0000 C CNN
F 2 "" H 2950 1450 50  0001 C CNN
F 3 "" H 2950 1450 50  0001 C CNN
	1    2950 1450
	1    0    0    -1  
$EndComp
Text HLabel 1000 1000 0    60   BiDi ~ 12
SDA
Text HLabel 1000 1100 0    60   Input ~ 12
SCL
Text Label 3450 1850 0    60   ~ 12
SCL
Text Label 3450 1950 0    60   ~ 12
SDA
$Comp
L Device:C C2402
U 1 1 5D29D27D
P 3850 1650
F 0 "C2402" H 3965 1696 50  0000 L CNN
F 1 "0.1uF" H 3965 1605 50  0000 L CNN
F 2 "Capacitor_SMD:C_0805_2012Metric" H 3888 1500 50  0001 C CNN
F 3 "~" H 3850 1650 50  0001 C CNN
	1    3850 1650
	1    0    0    -1  
$EndComp
$Comp
L power:+3V3 #PWR02403
U 1 1 5D29E1D2
P 3850 1450
F 0 "#PWR02403" H 3850 1300 50  0001 C CNN
F 1 "+3V3" H 3865 1623 50  0000 C CNN
F 2 "" H 3850 1450 50  0001 C CNN
F 3 "" H 3850 1450 50  0001 C CNN
	1    3850 1450
	1    0    0    -1  
$EndComp
Wire Wire Line
	3850 1500 3850 1450
$Comp
L power:GND #PWR02404
U 1 1 5D29E8BD
P 3850 1850
F 0 "#PWR02404" H 3850 1600 50  0001 C CNN
F 1 "GND" H 3855 1677 50  0000 C CNN
F 2 "" H 3850 1850 50  0001 C CNN
F 3 "" H 3850 1850 50  0001 C CNN
	1    3850 1850
	1    0    0    -1  
$EndComp
Wire Wire Line
	3850 1850 3850 1800
Text HLabel 2000 1800 0    60   Input ~ 12
OUT
Text HLabel 2000 2100 0    60   Input ~ 12
OUT_RTN
$Comp
L lbl_dac:DAC5571 U2402
U 1 1 5D2A49B8
P 6350 2050
F 0 "U2402" H 6000 2600 50  0000 L CNN
F 1 "DAC5571" H 6400 2600 50  0000 L CNN
F 2 "Package_TO_SOT_SMD:SOT-23-6" H 7050 2050 50  0001 C CIN
F 3 "https://www.ti.com/lit/ds/symlink/dac5571.pdf" H 6350 1850 50  0001 C CNN
F 4 "DAC5571IDBVR" H 6350 2050 50  0001 C CNN "mfg#"
	1    6350 2050
	1    0    0    -1  
$EndComp
Wire Wire Line
	6350 1400 6350 1300
$Comp
L power:+3V3 #PWR02406
U 1 1 5D2A5873
P 6350 1300
F 0 "#PWR02406" H 6350 1150 50  0001 C CNN
F 1 "+3V3" H 6365 1473 50  0000 C CNN
F 2 "" H 6350 1300 50  0001 C CNN
F 3 "" H 6350 1300 50  0001 C CNN
	1    6350 1300
	1    0    0    -1  
$EndComp
$Comp
L power:GND #PWR02407
U 1 1 5D2A5E3C
P 6350 2250
F 0 "#PWR02407" H 6350 2000 50  0001 C CNN
F 1 "GND" H 6355 2077 50  0000 C CNN
F 2 "" H 6350 2250 50  0001 C CNN
F 3 "" H 6350 2250 50  0001 C CNN
	1    6350 2250
	1    0    0    -1  
$EndComp
Wire Wire Line
	6350 2250 6350 2150
$Comp
L Device:C C2403
U 1 1 5D2A79E9
P 6750 1050
F 0 "C2403" H 6865 1096 50  0000 L CNN
F 1 "0.1uF" H 6865 1005 50  0000 L CNN
F 2 "Capacitor_SMD:C_0805_2012Metric" H 6788 900 50  0001 C CNN
F 3 "~" H 6750 1050 50  0001 C CNN
	1    6750 1050
	1    0    0    -1  
$EndComp
$Comp
L power:+3V3 #PWR02408
U 1 1 5D2A79F3
P 6750 850
F 0 "#PWR02408" H 6750 700 50  0001 C CNN
F 1 "+3V3" H 6765 1023 50  0000 C CNN
F 2 "" H 6750 850 50  0001 C CNN
F 3 "" H 6750 850 50  0001 C CNN
	1    6750 850 
	1    0    0    -1  
$EndComp
Wire Wire Line
	6750 900  6750 850 
$Comp
L power:GND #PWR02409
U 1 1 5D2A79FE
P 6750 1250
F 0 "#PWR02409" H 6750 1000 50  0001 C CNN
F 1 "GND" H 6755 1077 50  0000 C CNN
F 2 "" H 6750 1250 50  0001 C CNN
F 3 "" H 6750 1250 50  0001 C CNN
	1    6750 1250
	1    0    0    -1  
$EndComp
Wire Wire Line
	6750 1250 6750 1200
$Comp
L Device:C C2404
U 1 1 5D2AA1CF
P 7200 1050
F 0 "C2404" H 7315 1096 50  0000 L CNN
F 1 "10uF" H 7315 1005 50  0000 L CNN
F 2 "Capacitor_SMD:C_0805_2012Metric" H 7238 900 50  0001 C CNN
F 3 "~" H 7200 1050 50  0001 C CNN
	1    7200 1050
	1    0    0    -1  
$EndComp
$Comp
L power:+3V3 #PWR02411
U 1 1 5D2AA1D9
P 7200 850
F 0 "#PWR02411" H 7200 700 50  0001 C CNN
F 1 "+3V3" H 7215 1023 50  0000 C CNN
F 2 "" H 7200 850 50  0001 C CNN
F 3 "" H 7200 850 50  0001 C CNN
	1    7200 850 
	1    0    0    -1  
$EndComp
Wire Wire Line
	7200 900  7200 850 
$Comp
L power:GND #PWR02412
U 1 1 5D2AA1E4
P 7200 1250
F 0 "#PWR02412" H 7200 1000 50  0001 C CNN
F 1 "GND" H 7205 1077 50  0000 C CNN
F 2 "" H 7200 1250 50  0001 C CNN
F 3 "" H 7200 1250 50  0001 C CNN
	1    7200 1250
	1    0    0    -1  
$EndComp
Wire Wire Line
	7200 1250 7200 1200
Text Label 5850 1650 2    60   ~ 12
SDA
Text Label 5850 1750 2    60   ~ 12
SCL
$Comp
L power:GND #PWR02405
U 1 1 5D2AB161
P 5850 2000
F 0 "#PWR02405" H 5850 1750 50  0001 C CNN
F 1 "GND" H 5855 1827 50  0000 C CNN
F 2 "" H 5850 2000 50  0001 C CNN
F 3 "" H 5850 2000 50  0001 C CNN
	1    5850 2000
	1    0    0    -1  
$EndComp
Wire Wire Line
	5850 2000 5850 1900
Text HLabel 7300 2000 2    60   Output ~ 12
ANALOGUE
Text HLabel 7300 2400 2    60   UnSpc ~ 12
ANALOGUE_RTN
$Comp
L power:GND #PWR02410
U 1 1 5D2AC772
P 7150 2450
F 0 "#PWR02410" H 7150 2200 50  0001 C CNN
F 1 "GND" H 7155 2277 50  0000 C CNN
F 2 "" H 7150 2450 50  0001 C CNN
F 3 "" H 7150 2450 50  0001 C CNN
	1    7150 2450
	1    0    0    -1  
$EndComp
$Comp
L Device:R R2401
U 1 1 5D2AF6A3
P 7150 1800
F 0 "R2401" H 7220 1846 50  0000 L CNN
F 1 "20k" H 7220 1755 50  0000 L CNN
F 2 "Resistor_SMD:R_0805_2012Metric" V 7080 1800 50  0001 C CNN
F 3 "~" H 7150 1800 50  0001 C CNN
F 4 "CRCW080520K0FKEA" H 7150 1800 50  0001 C CNN "mfg#"
	1    7150 1800
	1    0    0    -1  
$EndComp
$Comp
L Device:R R2402
U 1 1 5D2AFFA6
P 7150 2200
F 0 "R2402" H 7220 2246 50  0000 L CNN
F 1 "10k" H 7220 2155 50  0000 L CNN
F 2 "Resistor_SMD:R_0805_2012Metric" V 7080 2200 50  0001 C CNN
F 3 "~" H 7150 2200 50  0001 C CNN
	1    7150 2200
	1    0    0    -1  
$EndComp
Wire Wire Line
	7300 2000 7150 2000
Wire Wire Line
	7150 2000 7150 2050
Wire Wire Line
	7150 2000 7150 1950
Connection ~ 7150 2000
Wire Wire Line
	7150 2450 7150 2400
Wire Wire Line
	7300 2400 7150 2400
Connection ~ 7150 2400
Wire Wire Line
	7150 2400 7150 2350
Wire Wire Line
	7150 1650 6850 1650
$Comp
L Device:C C2401
U 1 1 5D30EDC8
P 2150 1950
F 0 "C2401" H 2265 1996 50  0000 L CNN
F 1 "0.1uF" H 2265 1905 50  0000 L CNN
F 2 "Capacitor_SMD:C_0805_2012Metric" H 2188 1800 50  0001 C CNN
F 3 "~" H 2150 1950 50  0001 C CNN
	1    2150 1950
	1    0    0    -1  
$EndComp
Wire Wire Line
	2150 2100 2450 2100
Wire Wire Line
	2450 2100 2450 2050
Wire Wire Line
	2450 1850 2450 1800
Wire Wire Line
	2450 1800 2150 1800
Wire Wire Line
	2150 1800 2000 1800
Connection ~ 2150 1800
Wire Wire Line
	2150 2100 2000 2100
Connection ~ 2150 2100
$EndSCHEMATC
